%YAML 1.1
%TAG !u! tag:unity3d.com,2011:
--- !u!74 &7400000
AnimationClip:
  m_ObjectHideFlags: 0
  m_PrefabParentObject: {fileID: 0}
  m_PrefabInternal: {fileID: 0}
  m_Name: RatIsoIdleB-N
  serializedVersion: 6
  m_Legacy: 0
  m_Compressed: 0
  m_UseHighQualityCurve: 1
  m_RotationCurves: []
  m_CompressedRotationCurves: []
  m_EulerCurves: []
  m_PositionCurves: []
  m_ScaleCurves: []
  m_FloatCurves: []
  m_PPtrCurves:
  - curve:
    - time: 0
      value: {fileID: 21300584, guid: 80cbb61223832cf4e8593c18ae964a90, type: 3}
    - time: 0.033333335
      value: {fileID: 21300586, guid: 80cbb61223832cf4e8593c18ae964a90, type: 3}
    - time: 0.06666667
      value: {fileID: 21300588, guid: 80cbb61223832cf4e8593c18ae964a90, type: 3}
    - time: 0.1
      value: {fileID: 21300590, guid: 80cbb61223832cf4e8593c18ae964a90, type: 3}
    - time: 0.13333334
      value: {fileID: 21300592, guid: 80cbb61223832cf4e8593c18ae964a90, type: 3}
    - time: 0.16666667
      value: {fileID: 21300594, guid: 80cbb61223832cf4e8593c18ae964a90, type: 3}
    - time: 0.2
      value: {fileID: 21300596, guid: 80cbb61223832cf4e8593c18ae964a90, type: 3}
    - time: 0.23333333
      value: {fileID: 21300598, guid: 80cbb61223832cf4e8593c18ae964a90, type: 3}
    - time: 0.26666668
      value: {fileID: 21300600, guid: 80cbb61223832cf4e8593c18ae964a90, type: 3}
    - time: 0.3
      value: {fileID: 21300602, guid: 80cbb61223832cf4e8593c18ae964a90, type: 3}
    - time: 0.33333334
      value: {fileID: 21300604, guid: 80cbb61223832cf4e8593c18ae964a90, type: 3}
    - time: 0.36666667
      value: {fileID: 21300606, guid: 80cbb61223832cf4e8593c18ae964a90, type: 3}
    - time: 0.4
      value: {fileID: 21300608, guid: 80cbb61223832cf4e8593c18ae964a90, type: 3}
    - time: 0.43333334
      value: {fileID: 21300610, guid: 80cbb61223832cf4e8593c18ae964a90, type: 3}
    - time: 0.46666667
      value: {fileID: 21300612, guid: 80cbb61223832cf4e8593c18ae964a90, type: 3}
    - time: 0.5
      value: {fileID: 21300614, guid: 80cbb61223832cf4e8593c18ae964a90, type: 3}
    - time: 0.53333336
      value: {fileID: 21300616, guid: 80cbb61223832cf4e8593c18ae964a90, type: 3}
    - time: 0.56666666
      value: {fileID: 21300618, guid: 80cbb61223832cf4e8593c18ae964a90, type: 3}
    - time: 0.6
      value: {fileID: 21300620, guid: 80cbb61223832cf4e8593c18ae964a90, type: 3}
    - time: 0.6333333
      value: {fileID: 21300622, guid: 80cbb61223832cf4e8593c18ae964a90, type: 3}
    - time: 0.6666667
      value: {fileID: 21300624, guid: 80cbb61223832cf4e8593c18ae964a90, type: 3}
    - time: 0.7
      value: {fileID: 21300626, guid: 80cbb61223832cf4e8593c18ae964a90, type: 3}
    - time: 0.73333335
      value: {fileID: 21300628, guid: 80cbb61223832cf4e8593c18ae964a90, type: 3}
    - time: 0.76666665
      value: {fileID: 21300630, guid: 80cbb61223832cf4e8593c18ae964a90, type: 3}
    - time: 0.8
      value: {fileID: 21300632, guid: 80cbb61223832cf4e8593c18ae964a90, type: 3}
    - time: 0.8333333
      value: {fileID: 21300634, guid: 80cbb61223832cf4e8593c18ae964a90, type: 3}
    - time: 0.8666667
      value: {fileID: 21300636, guid: 80cbb61223832cf4e8593c18ae964a90, type: 3}
    - time: 0.9
      value: {fileID: 21300638, guid: 80cbb61223832cf4e8593c18ae964a90, type: 3}
    - time: 0.93333334
      value: {fileID: 21300640, guid: 80cbb61223832cf4e8593c18ae964a90, type: 3}
    - time: 0.96666664
      value: {fileID: 21300642, guid: 80cbb61223832cf4e8593c18ae964a90, type: 3}
    - time: 1
      value: {fileID: 21300644, guid: 80cbb61223832cf4e8593c18ae964a90, type: 3}
    - time: 1.0333333
      value: {fileID: 21300646, guid: 80cbb61223832cf4e8593c18ae964a90, type: 3}
    - time: 1.0666667
      value: {fileID: 21300648, guid: 80cbb61223832cf4e8593c18ae964a90, type: 3}
    - time: 1.1
      value: {fileID: 21300650, guid: 80cbb61223832cf4e8593c18ae964a90, type: 3}
    - time: 1.1333333
      value: {fileID: 21300652, guid: 80cbb61223832cf4e8593c18ae964a90, type: 3}
    - time: 1.1666666
      value: {fileID: 21300654, guid: 80cbb61223832cf4e8593c18ae964a90, type: 3}
    - time: 1.2
      value: {fileID: 21300656, guid: 80cbb61223832cf4e8593c18ae964a90, type: 3}
    - time: 1.2333333
      value: {fileID: 21300658, guid: 80cbb61223832cf4e8593c18ae964a90, type: 3}
    - time: 1.2666667
      value: {fileID: 21300660, guid: 80cbb61223832cf4e8593c18ae964a90, type: 3}
    - time: 1.3
      value: {fileID: 21300662, guid: 80cbb61223832cf4e8593c18ae964a90, type: 3}
    - time: 1.3333334
      value: {fileID: 21300664, guid: 80cbb61223832cf4e8593c18ae964a90, type: 3}
    - time: 1.3666667
      value: {fileID: 21300666, guid: 80cbb61223832cf4e8593c18ae964a90, type: 3}
    - time: 1.4
      value: {fileID: 21300668, guid: 80cbb61223832cf4e8593c18ae964a90, type: 3}
    - time: 1.4333333
      value: {fileID: 21300670, guid: 80cbb61223832cf4e8593c18ae964a90, type: 3}
    - time: 1.4666667
      value: {fileID: 21300672, guid: 80cbb61223832cf4e8593c18ae964a90, type: 3}
    - time: 1.5
      value: {fileID: 21300674, guid: 80cbb61223832cf4e8593c18ae964a90, type: 3}
    - time: 1.5333333
      value: {fileID: 21300676, guid: 80cbb61223832cf4e8593c18ae964a90, type: 3}
    - time: 1.5666667
      value: {fileID: 21300678, guid: 80cbb61223832cf4e8593c18ae964a90, type: 3}
    - time: 1.6
      value: {fileID: 21300680, guid: 80cbb61223832cf4e8593c18ae964a90, type: 3}
    - time: 1.6333333
      value: {fileID: 21300682, guid: 80cbb61223832cf4e8593c18ae964a90, type: 3}
    - time: 1.6666666
      value: {fileID: 21300684, guid: 80cbb61223832cf4e8593c18ae964a90, type: 3}
    - time: 1.7
      value: {fileID: 21300686, guid: 80cbb61223832cf4e8593c18ae964a90, type: 3}
    - time: 1.7333333
      value: {fileID: 21300688, guid: 80cbb61223832cf4e8593c18ae964a90, type: 3}
    - time: 1.7666667
      value: {fileID: 21300690, guid: 80cbb61223832cf4e8593c18ae964a90, type: 3}
    - time: 1.8
      value: {fileID: 21300692, guid: 80cbb61223832cf4e8593c18ae964a90, type: 3}
    - time: 1.8333334
      value: {fileID: 21300694, guid: 80cbb61223832cf4e8593c18ae964a90, type: 3}
    - time: 1.8666667
      value: {fileID: 21300696, guid: 80cbb61223832cf4e8593c18ae964a90, type: 3}
    - time: 1.9
      value: {fileID: 21300698, guid: 80cbb61223832cf4e8593c18ae964a90, type: 3}
    - time: 1.9333333
      value: {fileID: 21300700, guid: 80cbb61223832cf4e8593c18ae964a90, type: 3}
    - time: 1.9666667
      value: {fileID: 21300702, guid: 80cbb61223832cf4e8593c18ae964a90, type: 3}
    - time: 2
      value: {fileID: 21300704, guid: 80cbb61223832cf4e8593c18ae964a90, type: 3}
    - time: 2.0333333
      value: {fileID: 21300706, guid: 80cbb61223832cf4e8593c18ae964a90, type: 3}
    - time: 2.0666666
      value: {fileID: 21300708, guid: 80cbb61223832cf4e8593c18ae964a90, type: 3}
    - time: 2.1
      value: {fileID: 21300710, guid: 80cbb61223832cf4e8593c18ae964a90, type: 3}
    - time: 2.1333334
      value: {fileID: 21300712, guid: 80cbb61223832cf4e8593c18ae964a90, type: 3}
    - time: 2.1666667
      value: {fileID: 21300714, guid: 80cbb61223832cf4e8593c18ae964a90, type: 3}
    - time: 2.2
      value: {fileID: 21300716, guid: 80cbb61223832cf4e8593c18ae964a90, type: 3}
    - time: 2.2333333
      value: {fileID: 21300718, guid: 80cbb61223832cf4e8593c18ae964a90, type: 3}
    - time: 2.2666667
      value: {fileID: 21300720, guid: 80cbb61223832cf4e8593c18ae964a90, type: 3}
    - time: 2.3
      value: {fileID: 21300722, guid: 80cbb61223832cf4e8593c18ae964a90, type: 3}
    - time: 2.3333333
      value: {fileID: 21300724, guid: 80cbb61223832cf4e8593c18ae964a90, type: 3}
    - time: 2.3666666
      value: {fileID: 21300726, guid: 80cbb61223832cf4e8593c18ae964a90, type: 3}
    - time: 2.4
      value: {fileID: 21300728, guid: 80cbb61223832cf4e8593c18ae964a90, type: 3}
    attribute: m_Sprite
    path: 
    classID: 212
    script: {fileID: 0}
  m_SampleRate: 30
  m_WrapMode: 0
  m_Bounds:
    m_Center: {x: 0, y: 0, z: 0}
    m_Extent: {x: 0, y: 0, z: 0}
  m_ClipBindingConstant:
    genericBindings:
    - serializedVersion: 2
      path: 0
      attribute: 0
      script: {fileID: 0}
      typeID: 212
      customType: 23
      isPPtrCurve: 1
    pptrCurveMapping:
    - {fileID: 21300584, guid: 80cbb61223832cf4e8593c18ae964a90, type: 3}
    - {fileID: 21300586, guid: 80cbb61223832cf4e8593c18ae964a90, type: 3}
    - {fileID: 21300588, guid: 80cbb61223832cf4e8593c18ae964a90, type: 3}
    - {fileID: 21300590, guid: 80cbb61223832cf4e8593c18ae964a90, type: 3}
    - {fileID: 21300592, guid: 80cbb61223832cf4e8593c18ae964a90, type: 3}
    - {fileID: 21300594, guid: 80cbb61223832cf4e8593c18ae964a90, type: 3}
    - {fileID: 21300596, guid: 80cbb61223832cf4e8593c18ae964a90, type: 3}
    - {fileID: 21300598, guid: 80cbb61223832cf4e8593c18ae964a90, type: 3}
    - {fileID: 21300600, guid: 80cbb61223832cf4e8593c18ae964a90, type: 3}
    - {fileID: 21300602, guid: 80cbb61223832cf4e8593c18ae964a90, type: 3}
    - {fileID: 21300604, guid: 80cbb61223832cf4e8593c18ae964a90, type: 3}
    - {fileID: 21300606, guid: 80cbb61223832cf4e8593c18ae964a90, type: 3}
    - {fileID: 21300608, guid: 80cbb61223832cf4e8593c18ae964a90, type: 3}
    - {fileID: 21300610, guid: 80cbb61223832cf4e8593c18ae964a90, type: 3}
    - {fileID: 21300612, guid: 80cbb61223832cf4e8593c18ae964a90, type: 3}
    - {fileID: 21300614, guid: 80cbb61223832cf4e8593c18ae964a90, type: 3}
    - {fileID: 21300616, guid: 80cbb61223832cf4e8593c18ae964a90, type: 3}
    - {fileID: 21300618, guid: 80cbb61223832cf4e8593c18ae964a90, type: 3}
    - {fileID: 21300620, guid: 80cbb61223832cf4e8593c18ae964a90, type: 3}
    - {fileID: 21300622, guid: 80cbb61223832cf4e8593c18ae964a90, type: 3}
    - {fileID: 21300624, guid: 80cbb61223832cf4e8593c18ae964a90, type: 3}
    - {fileID: 21300626, guid: 80cbb61223832cf4e8593c18ae964a90, type: 3}
    - {fileID: 21300628, guid: 80cbb61223832cf4e8593c18ae964a90, type: 3}
    - {fileID: 21300630, guid: 80cbb61223832cf4e8593c18ae964a90, type: 3}
    - {fileID: 21300632, guid: 80cbb61223832cf4e8593c18ae964a90, type: 3}
    - {fileID: 21300634, guid: 80cbb61223832cf4e8593c18ae964a90, type: 3}
    - {fileID: 21300636, guid: 80cbb61223832cf4e8593c18ae964a90, type: 3}
    - {fileID: 21300638, guid: 80cbb61223832cf4e8593c18ae964a90, type: 3}
    - {fileID: 21300640, guid: 80cbb61223832cf4e8593c18ae964a90, type: 3}
    - {fileID: 21300642, guid: 80cbb61223832cf4e8593c18ae964a90, type: 3}
    - {fileID: 21300644, guid: 80cbb61223832cf4e8593c18ae964a90, type: 3}
    - {fileID: 21300646, guid: 80cbb61223832cf4e8593c18ae964a90, type: 3}
    - {fileID: 21300648, guid: 80cbb61223832cf4e8593c18ae964a90, type: 3}
    - {fileID: 21300650, guid: 80cbb61223832cf4e8593c18ae964a90, type: 3}
    - {fileID: 21300652, guid: 80cbb61223832cf4e8593c18ae964a90, type: 3}
    - {fileID: 21300654, guid: 80cbb61223832cf4e8593c18ae964a90, type: 3}
    - {fileID: 21300656, guid: 80cbb61223832cf4e8593c18ae964a90, type: 3}
    - {fileID: 21300658, guid: 80cbb61223832cf4e8593c18ae964a90, type: 3}
    - {fileID: 21300660, guid: 80cbb61223832cf4e8593c18ae964a90, type: 3}
    - {fileID: 21300662, guid: 80cbb61223832cf4e8593c18ae964a90, type: 3}
    - {fileID: 21300664, guid: 80cbb61223832cf4e8593c18ae964a90, type: 3}
    - {fileID: 21300666, guid: 80cbb61223832cf4e8593c18ae964a90, type: 3}
    - {fileID: 21300668, guid: 80cbb61223832cf4e8593c18ae964a90, type: 3}
    - {fileID: 21300670, guid: 80cbb61223832cf4e8593c18ae964a90, type: 3}
    - {fileID: 21300672, guid: 80cbb61223832cf4e8593c18ae964a90, type: 3}
    - {fileID: 21300674, guid: 80cbb61223832cf4e8593c18ae964a90, type: 3}
    - {fileID: 21300676, guid: 80cbb61223832cf4e8593c18ae964a90, type: 3}
    - {fileID: 21300678, guid: 80cbb61223832cf4e8593c18ae964a90, type: 3}
    - {fileID: 21300680, guid: 80cbb61223832cf4e8593c18ae964a90, type: 3}
    - {fileID: 21300682, guid: 80cbb61223832cf4e8593c18ae964a90, type: 3}
    - {fileID: 21300684, guid: 80cbb61223832cf4e8593c18ae964a90, type: 3}
    - {fileID: 21300686, guid: 80cbb61223832cf4e8593c18ae964a90, type: 3}
    - {fileID: 21300688, guid: 80cbb61223832cf4e8593c18ae964a90, type: 3}
    - {fileID: 21300690, guid: 80cbb61223832cf4e8593c18ae964a90, type: 3}
    - {fileID: 21300692, guid: 80cbb61223832cf4e8593c18ae964a90, type: 3}
    - {fileID: 21300694, guid: 80cbb61223832cf4e8593c18ae964a90, type: 3}
    - {fileID: 21300696, guid: 80cbb61223832cf4e8593c18ae964a90, type: 3}
    - {fileID: 21300698, guid: 80cbb61223832cf4e8593c18ae964a90, type: 3}
    - {fileID: 21300700, guid: 80cbb61223832cf4e8593c18ae964a90, type: 3}
    - {fileID: 21300702, guid: 80cbb61223832cf4e8593c18ae964a90, type: 3}
    - {fileID: 21300704, guid: 80cbb61223832cf4e8593c18ae964a90, type: 3}
    - {fileID: 21300706, guid: 80cbb61223832cf4e8593c18ae964a90, type: 3}
    - {fileID: 21300708, guid: 80cbb61223832cf4e8593c18ae964a90, type: 3}
    - {fileID: 21300710, guid: 80cbb61223832cf4e8593c18ae964a90, type: 3}
    - {fileID: 21300712, guid: 80cbb61223832cf4e8593c18ae964a90, type: 3}
    - {fileID: 21300714, guid: 80cbb61223832cf4e8593c18ae964a90, type: 3}
    - {fileID: 21300716, guid: 80cbb61223832cf4e8593c18ae964a90, type: 3}
    - {fileID: 21300718, guid: 80cbb61223832cf4e8593c18ae964a90, type: 3}
    - {fileID: 21300720, guid: 80cbb61223832cf4e8593c18ae964a90, type: 3}
    - {fileID: 21300722, guid: 80cbb61223832cf4e8593c18ae964a90, type: 3}
    - {fileID: 21300724, guid: 80cbb61223832cf4e8593c18ae964a90, type: 3}
    - {fileID: 21300726, guid: 80cbb61223832cf4e8593c18ae964a90, type: 3}
    - {fileID: 21300728, guid: 80cbb61223832cf4e8593c18ae964a90, type: 3}
  m_AnimationClipSettings:
    serializedVersion: 2
    m_AdditiveReferencePoseClip: {fileID: 0}
    m_AdditiveReferencePoseTime: 0
    m_StartTime: 0
    m_StopTime: 2.4333334
    m_OrientationOffsetY: 0
    m_Level: 0
    m_CycleOffset: 0
    m_HasAdditiveReferencePose: 0
    m_LoopTime: 0
    m_LoopBlend: 0
    m_LoopBlendOrientation: 0
    m_LoopBlendPositionY: 0
    m_LoopBlendPositionXZ: 0
    m_KeepOriginalOrientation: 0
    m_KeepOriginalPositionY: 1
    m_KeepOriginalPositionXZ: 0
    m_HeightFromFeet: 0
    m_Mirror: 0
  m_EditorCurves: []
  m_EulerEditorCurves: []
  m_HasGenericRootTransform: 0
  m_HasMotionFloatCurves: 0
  m_GenerateMotionCurves: 0
  m_Events: []
