%YAML 1.1
%TAG !u! tag:unity3d.com,2011:
--- !u!74 &7400000
AnimationClip:
  m_ObjectHideFlags: 0
  m_PrefabParentObject: {fileID: 0}
  m_PrefabInternal: {fileID: 0}
  m_Name: RatIdleASide
  serializedVersion: 6
  m_Legacy: 0
  m_Compressed: 0
  m_UseHighQualityCurve: 1
  m_RotationCurves: []
  m_CompressedRotationCurves: []
  m_EulerCurves: []
  m_PositionCurves: []
  m_ScaleCurves: []
  m_FloatCurves: []
  m_PPtrCurves:
  - curve:
    - time: 0
      value: {fileID: 21300000, guid: ed76f398816000f40b6263c2d5c47018, type: 3}
    - time: 0.033333335
      value: {fileID: 21300002, guid: ed76f398816000f40b6263c2d5c47018, type: 3}
    - time: 0.06666667
      value: {fileID: 21300004, guid: ed76f398816000f40b6263c2d5c47018, type: 3}
    - time: 0.1
      value: {fileID: 21300006, guid: ed76f398816000f40b6263c2d5c47018, type: 3}
    - time: 0.13333334
      value: {fileID: 21300008, guid: ed76f398816000f40b6263c2d5c47018, type: 3}
    - time: 0.16666667
      value: {fileID: 21300010, guid: ed76f398816000f40b6263c2d5c47018, type: 3}
    - time: 0.2
      value: {fileID: 21300012, guid: ed76f398816000f40b6263c2d5c47018, type: 3}
    - time: 0.23333333
      value: {fileID: 21300014, guid: ed76f398816000f40b6263c2d5c47018, type: 3}
    - time: 0.26666668
      value: {fileID: 21300016, guid: ed76f398816000f40b6263c2d5c47018, type: 3}
    - time: 0.3
      value: {fileID: 21300018, guid: ed76f398816000f40b6263c2d5c47018, type: 3}
    - time: 0.33333334
      value: {fileID: 21300020, guid: ed76f398816000f40b6263c2d5c47018, type: 3}
    - time: 0.36666667
      value: {fileID: 21300022, guid: ed76f398816000f40b6263c2d5c47018, type: 3}
    - time: 0.4
      value: {fileID: 21300024, guid: ed76f398816000f40b6263c2d5c47018, type: 3}
    - time: 0.43333334
      value: {fileID: 21300026, guid: ed76f398816000f40b6263c2d5c47018, type: 3}
    - time: 0.46666667
      value: {fileID: 21300028, guid: ed76f398816000f40b6263c2d5c47018, type: 3}
    - time: 0.5
      value: {fileID: 21300030, guid: ed76f398816000f40b6263c2d5c47018, type: 3}
    - time: 0.53333336
      value: {fileID: 21300032, guid: ed76f398816000f40b6263c2d5c47018, type: 3}
    - time: 0.56666666
      value: {fileID: 21300034, guid: ed76f398816000f40b6263c2d5c47018, type: 3}
    - time: 0.6
      value: {fileID: 21300036, guid: ed76f398816000f40b6263c2d5c47018, type: 3}
    - time: 0.6333333
      value: {fileID: 21300038, guid: ed76f398816000f40b6263c2d5c47018, type: 3}
    - time: 0.6666667
      value: {fileID: 21300040, guid: ed76f398816000f40b6263c2d5c47018, type: 3}
    - time: 0.7
      value: {fileID: 21300042, guid: ed76f398816000f40b6263c2d5c47018, type: 3}
    - time: 0.73333335
      value: {fileID: 21300044, guid: ed76f398816000f40b6263c2d5c47018, type: 3}
    - time: 0.76666665
      value: {fileID: 21300046, guid: ed76f398816000f40b6263c2d5c47018, type: 3}
    - time: 0.8
      value: {fileID: 21300048, guid: ed76f398816000f40b6263c2d5c47018, type: 3}
    - time: 0.8333333
      value: {fileID: 21300050, guid: ed76f398816000f40b6263c2d5c47018, type: 3}
    - time: 0.8666667
      value: {fileID: 21300052, guid: ed76f398816000f40b6263c2d5c47018, type: 3}
    - time: 0.9
      value: {fileID: 21300054, guid: ed76f398816000f40b6263c2d5c47018, type: 3}
    - time: 0.93333334
      value: {fileID: 21300056, guid: ed76f398816000f40b6263c2d5c47018, type: 3}
    - time: 0.96666664
      value: {fileID: 21300058, guid: ed76f398816000f40b6263c2d5c47018, type: 3}
    - time: 1
      value: {fileID: 21300060, guid: ed76f398816000f40b6263c2d5c47018, type: 3}
    - time: 1.0333333
      value: {fileID: 21300062, guid: ed76f398816000f40b6263c2d5c47018, type: 3}
    - time: 1.0666667
      value: {fileID: 21300064, guid: ed76f398816000f40b6263c2d5c47018, type: 3}
    - time: 1.1
      value: {fileID: 21300066, guid: ed76f398816000f40b6263c2d5c47018, type: 3}
    - time: 1.1333333
      value: {fileID: 21300068, guid: ed76f398816000f40b6263c2d5c47018, type: 3}
    - time: 1.1666666
      value: {fileID: 21300070, guid: ed76f398816000f40b6263c2d5c47018, type: 3}
    - time: 1.2
      value: {fileID: 21300072, guid: ed76f398816000f40b6263c2d5c47018, type: 3}
    - time: 1.2333333
      value: {fileID: 21300074, guid: ed76f398816000f40b6263c2d5c47018, type: 3}
    - time: 1.2666667
      value: {fileID: 21300076, guid: ed76f398816000f40b6263c2d5c47018, type: 3}
    - time: 1.3
      value: {fileID: 21300078, guid: ed76f398816000f40b6263c2d5c47018, type: 3}
    - time: 1.3333334
      value: {fileID: 21300080, guid: ed76f398816000f40b6263c2d5c47018, type: 3}
    - time: 1.3666667
      value: {fileID: 21300082, guid: ed76f398816000f40b6263c2d5c47018, type: 3}
    - time: 1.4
      value: {fileID: 21300084, guid: ed76f398816000f40b6263c2d5c47018, type: 3}
    - time: 1.4333333
      value: {fileID: 21300086, guid: ed76f398816000f40b6263c2d5c47018, type: 3}
    - time: 1.4666667
      value: {fileID: 21300088, guid: ed76f398816000f40b6263c2d5c47018, type: 3}
    - time: 1.5
      value: {fileID: 21300090, guid: ed76f398816000f40b6263c2d5c47018, type: 3}
    - time: 1.5333333
      value: {fileID: 21300092, guid: ed76f398816000f40b6263c2d5c47018, type: 3}
    - time: 1.5666667
      value: {fileID: 21300094, guid: ed76f398816000f40b6263c2d5c47018, type: 3}
    - time: 1.6
      value: {fileID: 21300096, guid: ed76f398816000f40b6263c2d5c47018, type: 3}
    - time: 1.6333333
      value: {fileID: 21300098, guid: ed76f398816000f40b6263c2d5c47018, type: 3}
    - time: 1.6666666
      value: {fileID: 21300100, guid: ed76f398816000f40b6263c2d5c47018, type: 3}
    - time: 1.7
      value: {fileID: 21300102, guid: ed76f398816000f40b6263c2d5c47018, type: 3}
    - time: 1.7333333
      value: {fileID: 21300104, guid: ed76f398816000f40b6263c2d5c47018, type: 3}
    - time: 1.7666667
      value: {fileID: 21300106, guid: ed76f398816000f40b6263c2d5c47018, type: 3}
    - time: 1.8
      value: {fileID: 21300108, guid: ed76f398816000f40b6263c2d5c47018, type: 3}
    - time: 1.8333334
      value: {fileID: 21300110, guid: ed76f398816000f40b6263c2d5c47018, type: 3}
    - time: 1.8666667
      value: {fileID: 21300112, guid: ed76f398816000f40b6263c2d5c47018, type: 3}
    - time: 1.9
      value: {fileID: 21300114, guid: ed76f398816000f40b6263c2d5c47018, type: 3}
    - time: 1.9333333
      value: {fileID: 21300116, guid: ed76f398816000f40b6263c2d5c47018, type: 3}
    - time: 1.9666667
      value: {fileID: 21300118, guid: ed76f398816000f40b6263c2d5c47018, type: 3}
    - time: 2
      value: {fileID: 21300120, guid: ed76f398816000f40b6263c2d5c47018, type: 3}
    - time: 2.0333333
      value: {fileID: 21300122, guid: ed76f398816000f40b6263c2d5c47018, type: 3}
    - time: 2.0666666
      value: {fileID: 21300124, guid: ed76f398816000f40b6263c2d5c47018, type: 3}
    - time: 2.1
      value: {fileID: 21300126, guid: ed76f398816000f40b6263c2d5c47018, type: 3}
    - time: 2.1333334
      value: {fileID: 21300128, guid: ed76f398816000f40b6263c2d5c47018, type: 3}
    - time: 2.1666667
      value: {fileID: 21300130, guid: ed76f398816000f40b6263c2d5c47018, type: 3}
    - time: 2.2
      value: {fileID: 21300132, guid: ed76f398816000f40b6263c2d5c47018, type: 3}
    - time: 2.2333333
      value: {fileID: 21300134, guid: ed76f398816000f40b6263c2d5c47018, type: 3}
    - time: 2.2666667
      value: {fileID: 21300136, guid: ed76f398816000f40b6263c2d5c47018, type: 3}
    - time: 2.3
      value: {fileID: 21300138, guid: ed76f398816000f40b6263c2d5c47018, type: 3}
    - time: 2.3333333
      value: {fileID: 21300140, guid: ed76f398816000f40b6263c2d5c47018, type: 3}
    - time: 2.3666666
      value: {fileID: 21300142, guid: ed76f398816000f40b6263c2d5c47018, type: 3}
    - time: 2.4
      value: {fileID: 21300144, guid: ed76f398816000f40b6263c2d5c47018, type: 3}
    - time: 2.4333334
      value: {fileID: 21300146, guid: ed76f398816000f40b6263c2d5c47018, type: 3}
    - time: 2.4666667
      value: {fileID: 21300148, guid: ed76f398816000f40b6263c2d5c47018, type: 3}
    - time: 2.5
      value: {fileID: 21300150, guid: ed76f398816000f40b6263c2d5c47018, type: 3}
    - time: 2.5333333
      value: {fileID: 21300152, guid: ed76f398816000f40b6263c2d5c47018, type: 3}
    - time: 2.5666666
      value: {fileID: 21300154, guid: ed76f398816000f40b6263c2d5c47018, type: 3}
    - time: 2.6
      value: {fileID: 21300156, guid: ed76f398816000f40b6263c2d5c47018, type: 3}
    - time: 2.6333334
      value: {fileID: 21300158, guid: ed76f398816000f40b6263c2d5c47018, type: 3}
    - time: 2.6666667
      value: {fileID: 21300160, guid: ed76f398816000f40b6263c2d5c47018, type: 3}
    - time: 2.7
      value: {fileID: 21300162, guid: ed76f398816000f40b6263c2d5c47018, type: 3}
    - time: 2.7333333
      value: {fileID: 21300164, guid: ed76f398816000f40b6263c2d5c47018, type: 3}
    - time: 2.7666667
      value: {fileID: 21300166, guid: ed76f398816000f40b6263c2d5c47018, type: 3}
    - time: 2.8
      value: {fileID: 21300168, guid: ed76f398816000f40b6263c2d5c47018, type: 3}
    - time: 2.8333333
      value: {fileID: 21300170, guid: ed76f398816000f40b6263c2d5c47018, type: 3}
    - time: 2.8666666
      value: {fileID: 21300172, guid: ed76f398816000f40b6263c2d5c47018, type: 3}
    - time: 2.9
      value: {fileID: 21300174, guid: ed76f398816000f40b6263c2d5c47018, type: 3}
    - time: 2.9333334
      value: {fileID: 21300176, guid: ed76f398816000f40b6263c2d5c47018, type: 3}
    - time: 2.9666667
      value: {fileID: 21300178, guid: ed76f398816000f40b6263c2d5c47018, type: 3}
    - time: 3
      value: {fileID: 21300180, guid: ed76f398816000f40b6263c2d5c47018, type: 3}
    - time: 3.0333333
      value: {fileID: 21300182, guid: ed76f398816000f40b6263c2d5c47018, type: 3}
    - time: 3.0666666
      value: {fileID: 21300184, guid: ed76f398816000f40b6263c2d5c47018, type: 3}
    - time: 3.1
      value: {fileID: 21300186, guid: ed76f398816000f40b6263c2d5c47018, type: 3}
    - time: 3.1333334
      value: {fileID: 21300188, guid: ed76f398816000f40b6263c2d5c47018, type: 3}
    attribute: m_Sprite
    path: 
    classID: 212
    script: {fileID: 0}
  m_SampleRate: 30
  m_WrapMode: 0
  m_Bounds:
    m_Center: {x: 0, y: 0, z: 0}
    m_Extent: {x: 0, y: 0, z: 0}
  m_ClipBindingConstant:
    genericBindings:
    - serializedVersion: 2
      path: 0
      attribute: 0
      script: {fileID: 0}
      typeID: 212
      customType: 23
      isPPtrCurve: 1
    pptrCurveMapping:
    - {fileID: 21300000, guid: ed76f398816000f40b6263c2d5c47018, type: 3}
    - {fileID: 21300002, guid: ed76f398816000f40b6263c2d5c47018, type: 3}
    - {fileID: 21300004, guid: ed76f398816000f40b6263c2d5c47018, type: 3}
    - {fileID: 21300006, guid: ed76f398816000f40b6263c2d5c47018, type: 3}
    - {fileID: 21300008, guid: ed76f398816000f40b6263c2d5c47018, type: 3}
    - {fileID: 21300010, guid: ed76f398816000f40b6263c2d5c47018, type: 3}
    - {fileID: 21300012, guid: ed76f398816000f40b6263c2d5c47018, type: 3}
    - {fileID: 21300014, guid: ed76f398816000f40b6263c2d5c47018, type: 3}
    - {fileID: 21300016, guid: ed76f398816000f40b6263c2d5c47018, type: 3}
    - {fileID: 21300018, guid: ed76f398816000f40b6263c2d5c47018, type: 3}
    - {fileID: 21300020, guid: ed76f398816000f40b6263c2d5c47018, type: 3}
    - {fileID: 21300022, guid: ed76f398816000f40b6263c2d5c47018, type: 3}
    - {fileID: 21300024, guid: ed76f398816000f40b6263c2d5c47018, type: 3}
    - {fileID: 21300026, guid: ed76f398816000f40b6263c2d5c47018, type: 3}
    - {fileID: 21300028, guid: ed76f398816000f40b6263c2d5c47018, type: 3}
    - {fileID: 21300030, guid: ed76f398816000f40b6263c2d5c47018, type: 3}
    - {fileID: 21300032, guid: ed76f398816000f40b6263c2d5c47018, type: 3}
    - {fileID: 21300034, guid: ed76f398816000f40b6263c2d5c47018, type: 3}
    - {fileID: 21300036, guid: ed76f398816000f40b6263c2d5c47018, type: 3}
    - {fileID: 21300038, guid: ed76f398816000f40b6263c2d5c47018, type: 3}
    - {fileID: 21300040, guid: ed76f398816000f40b6263c2d5c47018, type: 3}
    - {fileID: 21300042, guid: ed76f398816000f40b6263c2d5c47018, type: 3}
    - {fileID: 21300044, guid: ed76f398816000f40b6263c2d5c47018, type: 3}
    - {fileID: 21300046, guid: ed76f398816000f40b6263c2d5c47018, type: 3}
    - {fileID: 21300048, guid: ed76f398816000f40b6263c2d5c47018, type: 3}
    - {fileID: 21300050, guid: ed76f398816000f40b6263c2d5c47018, type: 3}
    - {fileID: 21300052, guid: ed76f398816000f40b6263c2d5c47018, type: 3}
    - {fileID: 21300054, guid: ed76f398816000f40b6263c2d5c47018, type: 3}
    - {fileID: 21300056, guid: ed76f398816000f40b6263c2d5c47018, type: 3}
    - {fileID: 21300058, guid: ed76f398816000f40b6263c2d5c47018, type: 3}
    - {fileID: 21300060, guid: ed76f398816000f40b6263c2d5c47018, type: 3}
    - {fileID: 21300062, guid: ed76f398816000f40b6263c2d5c47018, type: 3}
    - {fileID: 21300064, guid: ed76f398816000f40b6263c2d5c47018, type: 3}
    - {fileID: 21300066, guid: ed76f398816000f40b6263c2d5c47018, type: 3}
    - {fileID: 21300068, guid: ed76f398816000f40b6263c2d5c47018, type: 3}
    - {fileID: 21300070, guid: ed76f398816000f40b6263c2d5c47018, type: 3}
    - {fileID: 21300072, guid: ed76f398816000f40b6263c2d5c47018, type: 3}
    - {fileID: 21300074, guid: ed76f398816000f40b6263c2d5c47018, type: 3}
    - {fileID: 21300076, guid: ed76f398816000f40b6263c2d5c47018, type: 3}
    - {fileID: 21300078, guid: ed76f398816000f40b6263c2d5c47018, type: 3}
    - {fileID: 21300080, guid: ed76f398816000f40b6263c2d5c47018, type: 3}
    - {fileID: 21300082, guid: ed76f398816000f40b6263c2d5c47018, type: 3}
    - {fileID: 21300084, guid: ed76f398816000f40b6263c2d5c47018, type: 3}
    - {fileID: 21300086, guid: ed76f398816000f40b6263c2d5c47018, type: 3}
    - {fileID: 21300088, guid: ed76f398816000f40b6263c2d5c47018, type: 3}
    - {fileID: 21300090, guid: ed76f398816000f40b6263c2d5c47018, type: 3}
    - {fileID: 21300092, guid: ed76f398816000f40b6263c2d5c47018, type: 3}
    - {fileID: 21300094, guid: ed76f398816000f40b6263c2d5c47018, type: 3}
    - {fileID: 21300096, guid: ed76f398816000f40b6263c2d5c47018, type: 3}
    - {fileID: 21300098, guid: ed76f398816000f40b6263c2d5c47018, type: 3}
    - {fileID: 21300100, guid: ed76f398816000f40b6263c2d5c47018, type: 3}
    - {fileID: 21300102, guid: ed76f398816000f40b6263c2d5c47018, type: 3}
    - {fileID: 21300104, guid: ed76f398816000f40b6263c2d5c47018, type: 3}
    - {fileID: 21300106, guid: ed76f398816000f40b6263c2d5c47018, type: 3}
    - {fileID: 21300108, guid: ed76f398816000f40b6263c2d5c47018, type: 3}
    - {fileID: 21300110, guid: ed76f398816000f40b6263c2d5c47018, type: 3}
    - {fileID: 21300112, guid: ed76f398816000f40b6263c2d5c47018, type: 3}
    - {fileID: 21300114, guid: ed76f398816000f40b6263c2d5c47018, type: 3}
    - {fileID: 21300116, guid: ed76f398816000f40b6263c2d5c47018, type: 3}
    - {fileID: 21300118, guid: ed76f398816000f40b6263c2d5c47018, type: 3}
    - {fileID: 21300120, guid: ed76f398816000f40b6263c2d5c47018, type: 3}
    - {fileID: 21300122, guid: ed76f398816000f40b6263c2d5c47018, type: 3}
    - {fileID: 21300124, guid: ed76f398816000f40b6263c2d5c47018, type: 3}
    - {fileID: 21300126, guid: ed76f398816000f40b6263c2d5c47018, type: 3}
    - {fileID: 21300128, guid: ed76f398816000f40b6263c2d5c47018, type: 3}
    - {fileID: 21300130, guid: ed76f398816000f40b6263c2d5c47018, type: 3}
    - {fileID: 21300132, guid: ed76f398816000f40b6263c2d5c47018, type: 3}
    - {fileID: 21300134, guid: ed76f398816000f40b6263c2d5c47018, type: 3}
    - {fileID: 21300136, guid: ed76f398816000f40b6263c2d5c47018, type: 3}
    - {fileID: 21300138, guid: ed76f398816000f40b6263c2d5c47018, type: 3}
    - {fileID: 21300140, guid: ed76f398816000f40b6263c2d5c47018, type: 3}
    - {fileID: 21300142, guid: ed76f398816000f40b6263c2d5c47018, type: 3}
    - {fileID: 21300144, guid: ed76f398816000f40b6263c2d5c47018, type: 3}
    - {fileID: 21300146, guid: ed76f398816000f40b6263c2d5c47018, type: 3}
    - {fileID: 21300148, guid: ed76f398816000f40b6263c2d5c47018, type: 3}
    - {fileID: 21300150, guid: ed76f398816000f40b6263c2d5c47018, type: 3}
    - {fileID: 21300152, guid: ed76f398816000f40b6263c2d5c47018, type: 3}
    - {fileID: 21300154, guid: ed76f398816000f40b6263c2d5c47018, type: 3}
    - {fileID: 21300156, guid: ed76f398816000f40b6263c2d5c47018, type: 3}
    - {fileID: 21300158, guid: ed76f398816000f40b6263c2d5c47018, type: 3}
    - {fileID: 21300160, guid: ed76f398816000f40b6263c2d5c47018, type: 3}
    - {fileID: 21300162, guid: ed76f398816000f40b6263c2d5c47018, type: 3}
    - {fileID: 21300164, guid: ed76f398816000f40b6263c2d5c47018, type: 3}
    - {fileID: 21300166, guid: ed76f398816000f40b6263c2d5c47018, type: 3}
    - {fileID: 21300168, guid: ed76f398816000f40b6263c2d5c47018, type: 3}
    - {fileID: 21300170, guid: ed76f398816000f40b6263c2d5c47018, type: 3}
    - {fileID: 21300172, guid: ed76f398816000f40b6263c2d5c47018, type: 3}
    - {fileID: 21300174, guid: ed76f398816000f40b6263c2d5c47018, type: 3}
    - {fileID: 21300176, guid: ed76f398816000f40b6263c2d5c47018, type: 3}
    - {fileID: 21300178, guid: ed76f398816000f40b6263c2d5c47018, type: 3}
    - {fileID: 21300180, guid: ed76f398816000f40b6263c2d5c47018, type: 3}
    - {fileID: 21300182, guid: ed76f398816000f40b6263c2d5c47018, type: 3}
    - {fileID: 21300184, guid: ed76f398816000f40b6263c2d5c47018, type: 3}
    - {fileID: 21300186, guid: ed76f398816000f40b6263c2d5c47018, type: 3}
    - {fileID: 21300188, guid: ed76f398816000f40b6263c2d5c47018, type: 3}
  m_AnimationClipSettings:
    serializedVersion: 2
    m_AdditiveReferencePoseClip: {fileID: 0}
    m_AdditiveReferencePoseTime: 0
    m_StartTime: 0
    m_StopTime: 3.1666667
    m_OrientationOffsetY: 0
    m_Level: 0
    m_CycleOffset: 0
    m_HasAdditiveReferencePose: 0
    m_LoopTime: 0
    m_LoopBlend: 0
    m_LoopBlendOrientation: 0
    m_LoopBlendPositionY: 0
    m_LoopBlendPositionXZ: 0
    m_KeepOriginalOrientation: 0
    m_KeepOriginalPositionY: 1
    m_KeepOriginalPositionXZ: 0
    m_HeightFromFeet: 0
    m_Mirror: 0
  m_EditorCurves: []
  m_EulerEditorCurves: []
  m_HasGenericRootTransform: 0
  m_HasMotionFloatCurves: 0
  m_GenerateMotionCurves: 0
  m_Events: []
