%YAML 1.1
%TAG !u! tag:unity3d.com,2011:
--- !u!74 &7400000
AnimationClip:
  m_ObjectHideFlags: 0
  m_PrefabParentObject: {fileID: 0}
  m_PrefabInternal: {fileID: 0}
  m_Name: RatIsoIdleA-W
  serializedVersion: 6
  m_Legacy: 0
  m_Compressed: 0
  m_UseHighQualityCurve: 1
  m_RotationCurves: []
  m_CompressedRotationCurves: []
  m_EulerCurves: []
  m_PositionCurves: []
  m_ScaleCurves: []
  m_FloatCurves: []
  m_PPtrCurves:
  - curve:
    - time: 0
      value: {fileID: 21301140, guid: 91a9887b9c8a73f4a9c1557a032aed89, type: 3}
    - time: 0.033333335
      value: {fileID: 21301142, guid: 91a9887b9c8a73f4a9c1557a032aed89, type: 3}
    - time: 0.06666667
      value: {fileID: 21301144, guid: 91a9887b9c8a73f4a9c1557a032aed89, type: 3}
    - time: 0.1
      value: {fileID: 21301146, guid: 91a9887b9c8a73f4a9c1557a032aed89, type: 3}
    - time: 0.13333334
      value: {fileID: 21301148, guid: 91a9887b9c8a73f4a9c1557a032aed89, type: 3}
    - time: 0.16666667
      value: {fileID: 21301150, guid: 91a9887b9c8a73f4a9c1557a032aed89, type: 3}
    - time: 0.2
      value: {fileID: 21301152, guid: 91a9887b9c8a73f4a9c1557a032aed89, type: 3}
    - time: 0.23333333
      value: {fileID: 21301154, guid: 91a9887b9c8a73f4a9c1557a032aed89, type: 3}
    - time: 0.26666668
      value: {fileID: 21301156, guid: 91a9887b9c8a73f4a9c1557a032aed89, type: 3}
    - time: 0.3
      value: {fileID: 21301158, guid: 91a9887b9c8a73f4a9c1557a032aed89, type: 3}
    - time: 0.33333334
      value: {fileID: 21301160, guid: 91a9887b9c8a73f4a9c1557a032aed89, type: 3}
    - time: 0.36666667
      value: {fileID: 21301162, guid: 91a9887b9c8a73f4a9c1557a032aed89, type: 3}
    - time: 0.4
      value: {fileID: 21301164, guid: 91a9887b9c8a73f4a9c1557a032aed89, type: 3}
    - time: 0.43333334
      value: {fileID: 21301166, guid: 91a9887b9c8a73f4a9c1557a032aed89, type: 3}
    - time: 0.46666667
      value: {fileID: 21301168, guid: 91a9887b9c8a73f4a9c1557a032aed89, type: 3}
    - time: 0.5
      value: {fileID: 21301170, guid: 91a9887b9c8a73f4a9c1557a032aed89, type: 3}
    - time: 0.53333336
      value: {fileID: 21301172, guid: 91a9887b9c8a73f4a9c1557a032aed89, type: 3}
    - time: 0.56666666
      value: {fileID: 21301174, guid: 91a9887b9c8a73f4a9c1557a032aed89, type: 3}
    - time: 0.6
      value: {fileID: 21301176, guid: 91a9887b9c8a73f4a9c1557a032aed89, type: 3}
    - time: 0.6333333
      value: {fileID: 21301178, guid: 91a9887b9c8a73f4a9c1557a032aed89, type: 3}
    - time: 0.6666667
      value: {fileID: 21301180, guid: 91a9887b9c8a73f4a9c1557a032aed89, type: 3}
    - time: 0.7
      value: {fileID: 21301182, guid: 91a9887b9c8a73f4a9c1557a032aed89, type: 3}
    - time: 0.73333335
      value: {fileID: 21301184, guid: 91a9887b9c8a73f4a9c1557a032aed89, type: 3}
    - time: 0.76666665
      value: {fileID: 21301186, guid: 91a9887b9c8a73f4a9c1557a032aed89, type: 3}
    - time: 0.8
      value: {fileID: 21301188, guid: 91a9887b9c8a73f4a9c1557a032aed89, type: 3}
    - time: 0.8333333
      value: {fileID: 21301190, guid: 91a9887b9c8a73f4a9c1557a032aed89, type: 3}
    - time: 0.8666667
      value: {fileID: 21301192, guid: 91a9887b9c8a73f4a9c1557a032aed89, type: 3}
    - time: 0.9
      value: {fileID: 21301194, guid: 91a9887b9c8a73f4a9c1557a032aed89, type: 3}
    - time: 0.93333334
      value: {fileID: 21301196, guid: 91a9887b9c8a73f4a9c1557a032aed89, type: 3}
    - time: 0.96666664
      value: {fileID: 21301198, guid: 91a9887b9c8a73f4a9c1557a032aed89, type: 3}
    - time: 1
      value: {fileID: 21301200, guid: 91a9887b9c8a73f4a9c1557a032aed89, type: 3}
    - time: 1.0333333
      value: {fileID: 21301202, guid: 91a9887b9c8a73f4a9c1557a032aed89, type: 3}
    - time: 1.0666667
      value: {fileID: 21301204, guid: 91a9887b9c8a73f4a9c1557a032aed89, type: 3}
    - time: 1.1
      value: {fileID: 21301206, guid: 91a9887b9c8a73f4a9c1557a032aed89, type: 3}
    - time: 1.1333333
      value: {fileID: 21301208, guid: 91a9887b9c8a73f4a9c1557a032aed89, type: 3}
    - time: 1.1666666
      value: {fileID: 21301210, guid: 91a9887b9c8a73f4a9c1557a032aed89, type: 3}
    - time: 1.2
      value: {fileID: 21301212, guid: 91a9887b9c8a73f4a9c1557a032aed89, type: 3}
    - time: 1.2333333
      value: {fileID: 21301214, guid: 91a9887b9c8a73f4a9c1557a032aed89, type: 3}
    - time: 1.2666667
      value: {fileID: 21301216, guid: 91a9887b9c8a73f4a9c1557a032aed89, type: 3}
    - time: 1.3
      value: {fileID: 21301218, guid: 91a9887b9c8a73f4a9c1557a032aed89, type: 3}
    - time: 1.3333334
      value: {fileID: 21301220, guid: 91a9887b9c8a73f4a9c1557a032aed89, type: 3}
    - time: 1.3666667
      value: {fileID: 21301222, guid: 91a9887b9c8a73f4a9c1557a032aed89, type: 3}
    - time: 1.4
      value: {fileID: 21301224, guid: 91a9887b9c8a73f4a9c1557a032aed89, type: 3}
    - time: 1.4333333
      value: {fileID: 21301226, guid: 91a9887b9c8a73f4a9c1557a032aed89, type: 3}
    - time: 1.4666667
      value: {fileID: 21301228, guid: 91a9887b9c8a73f4a9c1557a032aed89, type: 3}
    - time: 1.5
      value: {fileID: 21301230, guid: 91a9887b9c8a73f4a9c1557a032aed89, type: 3}
    - time: 1.5333333
      value: {fileID: 21301232, guid: 91a9887b9c8a73f4a9c1557a032aed89, type: 3}
    - time: 1.5666667
      value: {fileID: 21301234, guid: 91a9887b9c8a73f4a9c1557a032aed89, type: 3}
    - time: 1.6
      value: {fileID: 21301236, guid: 91a9887b9c8a73f4a9c1557a032aed89, type: 3}
    - time: 1.6333333
      value: {fileID: 21301238, guid: 91a9887b9c8a73f4a9c1557a032aed89, type: 3}
    - time: 1.6666666
      value: {fileID: 21301240, guid: 91a9887b9c8a73f4a9c1557a032aed89, type: 3}
    - time: 1.7
      value: {fileID: 21301242, guid: 91a9887b9c8a73f4a9c1557a032aed89, type: 3}
    - time: 1.7333333
      value: {fileID: 21301244, guid: 91a9887b9c8a73f4a9c1557a032aed89, type: 3}
    - time: 1.7666667
      value: {fileID: 21301246, guid: 91a9887b9c8a73f4a9c1557a032aed89, type: 3}
    - time: 1.8
      value: {fileID: 21301248, guid: 91a9887b9c8a73f4a9c1557a032aed89, type: 3}
    - time: 1.8333334
      value: {fileID: 21301250, guid: 91a9887b9c8a73f4a9c1557a032aed89, type: 3}
    - time: 1.8666667
      value: {fileID: 21301252, guid: 91a9887b9c8a73f4a9c1557a032aed89, type: 3}
    - time: 1.9
      value: {fileID: 21301254, guid: 91a9887b9c8a73f4a9c1557a032aed89, type: 3}
    - time: 1.9333333
      value: {fileID: 21301256, guid: 91a9887b9c8a73f4a9c1557a032aed89, type: 3}
    - time: 1.9666667
      value: {fileID: 21301258, guid: 91a9887b9c8a73f4a9c1557a032aed89, type: 3}
    - time: 2
      value: {fileID: 21301260, guid: 91a9887b9c8a73f4a9c1557a032aed89, type: 3}
    - time: 2.0333333
      value: {fileID: 21301262, guid: 91a9887b9c8a73f4a9c1557a032aed89, type: 3}
    - time: 2.0666666
      value: {fileID: 21301264, guid: 91a9887b9c8a73f4a9c1557a032aed89, type: 3}
    - time: 2.1
      value: {fileID: 21301266, guid: 91a9887b9c8a73f4a9c1557a032aed89, type: 3}
    - time: 2.1333334
      value: {fileID: 21301268, guid: 91a9887b9c8a73f4a9c1557a032aed89, type: 3}
    - time: 2.1666667
      value: {fileID: 21301270, guid: 91a9887b9c8a73f4a9c1557a032aed89, type: 3}
    - time: 2.2
      value: {fileID: 21301272, guid: 91a9887b9c8a73f4a9c1557a032aed89, type: 3}
    - time: 2.2333333
      value: {fileID: 21301274, guid: 91a9887b9c8a73f4a9c1557a032aed89, type: 3}
    - time: 2.2666667
      value: {fileID: 21301276, guid: 91a9887b9c8a73f4a9c1557a032aed89, type: 3}
    - time: 2.3
      value: {fileID: 21301278, guid: 91a9887b9c8a73f4a9c1557a032aed89, type: 3}
    - time: 2.3333333
      value: {fileID: 21301280, guid: 91a9887b9c8a73f4a9c1557a032aed89, type: 3}
    - time: 2.3666666
      value: {fileID: 21301282, guid: 91a9887b9c8a73f4a9c1557a032aed89, type: 3}
    - time: 2.4
      value: {fileID: 21301284, guid: 91a9887b9c8a73f4a9c1557a032aed89, type: 3}
    - time: 2.4333334
      value: {fileID: 21301286, guid: 91a9887b9c8a73f4a9c1557a032aed89, type: 3}
    - time: 2.4666667
      value: {fileID: 21301288, guid: 91a9887b9c8a73f4a9c1557a032aed89, type: 3}
    - time: 2.5
      value: {fileID: 21301290, guid: 91a9887b9c8a73f4a9c1557a032aed89, type: 3}
    - time: 2.5333333
      value: {fileID: 21301292, guid: 91a9887b9c8a73f4a9c1557a032aed89, type: 3}
    - time: 2.5666666
      value: {fileID: 21301294, guid: 91a9887b9c8a73f4a9c1557a032aed89, type: 3}
    - time: 2.6
      value: {fileID: 21301296, guid: 91a9887b9c8a73f4a9c1557a032aed89, type: 3}
    - time: 2.6333334
      value: {fileID: 21301298, guid: 91a9887b9c8a73f4a9c1557a032aed89, type: 3}
    - time: 2.6666667
      value: {fileID: 21301300, guid: 91a9887b9c8a73f4a9c1557a032aed89, type: 3}
    - time: 2.7
      value: {fileID: 21301302, guid: 91a9887b9c8a73f4a9c1557a032aed89, type: 3}
    - time: 2.7333333
      value: {fileID: 21301304, guid: 91a9887b9c8a73f4a9c1557a032aed89, type: 3}
    - time: 2.7666667
      value: {fileID: 21301306, guid: 91a9887b9c8a73f4a9c1557a032aed89, type: 3}
    - time: 2.8
      value: {fileID: 21301308, guid: 91a9887b9c8a73f4a9c1557a032aed89, type: 3}
    - time: 2.8333333
      value: {fileID: 21301310, guid: 91a9887b9c8a73f4a9c1557a032aed89, type: 3}
    - time: 2.8666666
      value: {fileID: 21301312, guid: 91a9887b9c8a73f4a9c1557a032aed89, type: 3}
    - time: 2.9
      value: {fileID: 21301314, guid: 91a9887b9c8a73f4a9c1557a032aed89, type: 3}
    - time: 2.9333334
      value: {fileID: 21301316, guid: 91a9887b9c8a73f4a9c1557a032aed89, type: 3}
    - time: 2.9666667
      value: {fileID: 21301318, guid: 91a9887b9c8a73f4a9c1557a032aed89, type: 3}
    - time: 3
      value: {fileID: 21301320, guid: 91a9887b9c8a73f4a9c1557a032aed89, type: 3}
    - time: 3.0333333
      value: {fileID: 21301322, guid: 91a9887b9c8a73f4a9c1557a032aed89, type: 3}
    - time: 3.0666666
      value: {fileID: 21301324, guid: 91a9887b9c8a73f4a9c1557a032aed89, type: 3}
    - time: 3.1
      value: {fileID: 21301326, guid: 91a9887b9c8a73f4a9c1557a032aed89, type: 3}
    - time: 3.1333334
      value: {fileID: 21301328, guid: 91a9887b9c8a73f4a9c1557a032aed89, type: 3}
    attribute: m_Sprite
    path: 
    classID: 212
    script: {fileID: 0}
  m_SampleRate: 30
  m_WrapMode: 0
  m_Bounds:
    m_Center: {x: 0, y: 0, z: 0}
    m_Extent: {x: 0, y: 0, z: 0}
  m_ClipBindingConstant:
    genericBindings:
    - serializedVersion: 2
      path: 0
      attribute: 0
      script: {fileID: 0}
      typeID: 212
      customType: 23
      isPPtrCurve: 1
    pptrCurveMapping:
    - {fileID: 21301140, guid: 91a9887b9c8a73f4a9c1557a032aed89, type: 3}
    - {fileID: 21301142, guid: 91a9887b9c8a73f4a9c1557a032aed89, type: 3}
    - {fileID: 21301144, guid: 91a9887b9c8a73f4a9c1557a032aed89, type: 3}
    - {fileID: 21301146, guid: 91a9887b9c8a73f4a9c1557a032aed89, type: 3}
    - {fileID: 21301148, guid: 91a9887b9c8a73f4a9c1557a032aed89, type: 3}
    - {fileID: 21301150, guid: 91a9887b9c8a73f4a9c1557a032aed89, type: 3}
    - {fileID: 21301152, guid: 91a9887b9c8a73f4a9c1557a032aed89, type: 3}
    - {fileID: 21301154, guid: 91a9887b9c8a73f4a9c1557a032aed89, type: 3}
    - {fileID: 21301156, guid: 91a9887b9c8a73f4a9c1557a032aed89, type: 3}
    - {fileID: 21301158, guid: 91a9887b9c8a73f4a9c1557a032aed89, type: 3}
    - {fileID: 21301160, guid: 91a9887b9c8a73f4a9c1557a032aed89, type: 3}
    - {fileID: 21301162, guid: 91a9887b9c8a73f4a9c1557a032aed89, type: 3}
    - {fileID: 21301164, guid: 91a9887b9c8a73f4a9c1557a032aed89, type: 3}
    - {fileID: 21301166, guid: 91a9887b9c8a73f4a9c1557a032aed89, type: 3}
    - {fileID: 21301168, guid: 91a9887b9c8a73f4a9c1557a032aed89, type: 3}
    - {fileID: 21301170, guid: 91a9887b9c8a73f4a9c1557a032aed89, type: 3}
    - {fileID: 21301172, guid: 91a9887b9c8a73f4a9c1557a032aed89, type: 3}
    - {fileID: 21301174, guid: 91a9887b9c8a73f4a9c1557a032aed89, type: 3}
    - {fileID: 21301176, guid: 91a9887b9c8a73f4a9c1557a032aed89, type: 3}
    - {fileID: 21301178, guid: 91a9887b9c8a73f4a9c1557a032aed89, type: 3}
    - {fileID: 21301180, guid: 91a9887b9c8a73f4a9c1557a032aed89, type: 3}
    - {fileID: 21301182, guid: 91a9887b9c8a73f4a9c1557a032aed89, type: 3}
    - {fileID: 21301184, guid: 91a9887b9c8a73f4a9c1557a032aed89, type: 3}
    - {fileID: 21301186, guid: 91a9887b9c8a73f4a9c1557a032aed89, type: 3}
    - {fileID: 21301188, guid: 91a9887b9c8a73f4a9c1557a032aed89, type: 3}
    - {fileID: 21301190, guid: 91a9887b9c8a73f4a9c1557a032aed89, type: 3}
    - {fileID: 21301192, guid: 91a9887b9c8a73f4a9c1557a032aed89, type: 3}
    - {fileID: 21301194, guid: 91a9887b9c8a73f4a9c1557a032aed89, type: 3}
    - {fileID: 21301196, guid: 91a9887b9c8a73f4a9c1557a032aed89, type: 3}
    - {fileID: 21301198, guid: 91a9887b9c8a73f4a9c1557a032aed89, type: 3}
    - {fileID: 21301200, guid: 91a9887b9c8a73f4a9c1557a032aed89, type: 3}
    - {fileID: 21301202, guid: 91a9887b9c8a73f4a9c1557a032aed89, type: 3}
    - {fileID: 21301204, guid: 91a9887b9c8a73f4a9c1557a032aed89, type: 3}
    - {fileID: 21301206, guid: 91a9887b9c8a73f4a9c1557a032aed89, type: 3}
    - {fileID: 21301208, guid: 91a9887b9c8a73f4a9c1557a032aed89, type: 3}
    - {fileID: 21301210, guid: 91a9887b9c8a73f4a9c1557a032aed89, type: 3}
    - {fileID: 21301212, guid: 91a9887b9c8a73f4a9c1557a032aed89, type: 3}
    - {fileID: 21301214, guid: 91a9887b9c8a73f4a9c1557a032aed89, type: 3}
    - {fileID: 21301216, guid: 91a9887b9c8a73f4a9c1557a032aed89, type: 3}
    - {fileID: 21301218, guid: 91a9887b9c8a73f4a9c1557a032aed89, type: 3}
    - {fileID: 21301220, guid: 91a9887b9c8a73f4a9c1557a032aed89, type: 3}
    - {fileID: 21301222, guid: 91a9887b9c8a73f4a9c1557a032aed89, type: 3}
    - {fileID: 21301224, guid: 91a9887b9c8a73f4a9c1557a032aed89, type: 3}
    - {fileID: 21301226, guid: 91a9887b9c8a73f4a9c1557a032aed89, type: 3}
    - {fileID: 21301228, guid: 91a9887b9c8a73f4a9c1557a032aed89, type: 3}
    - {fileID: 21301230, guid: 91a9887b9c8a73f4a9c1557a032aed89, type: 3}
    - {fileID: 21301232, guid: 91a9887b9c8a73f4a9c1557a032aed89, type: 3}
    - {fileID: 21301234, guid: 91a9887b9c8a73f4a9c1557a032aed89, type: 3}
    - {fileID: 21301236, guid: 91a9887b9c8a73f4a9c1557a032aed89, type: 3}
    - {fileID: 21301238, guid: 91a9887b9c8a73f4a9c1557a032aed89, type: 3}
    - {fileID: 21301240, guid: 91a9887b9c8a73f4a9c1557a032aed89, type: 3}
    - {fileID: 21301242, guid: 91a9887b9c8a73f4a9c1557a032aed89, type: 3}
    - {fileID: 21301244, guid: 91a9887b9c8a73f4a9c1557a032aed89, type: 3}
    - {fileID: 21301246, guid: 91a9887b9c8a73f4a9c1557a032aed89, type: 3}
    - {fileID: 21301248, guid: 91a9887b9c8a73f4a9c1557a032aed89, type: 3}
    - {fileID: 21301250, guid: 91a9887b9c8a73f4a9c1557a032aed89, type: 3}
    - {fileID: 21301252, guid: 91a9887b9c8a73f4a9c1557a032aed89, type: 3}
    - {fileID: 21301254, guid: 91a9887b9c8a73f4a9c1557a032aed89, type: 3}
    - {fileID: 21301256, guid: 91a9887b9c8a73f4a9c1557a032aed89, type: 3}
    - {fileID: 21301258, guid: 91a9887b9c8a73f4a9c1557a032aed89, type: 3}
    - {fileID: 21301260, guid: 91a9887b9c8a73f4a9c1557a032aed89, type: 3}
    - {fileID: 21301262, guid: 91a9887b9c8a73f4a9c1557a032aed89, type: 3}
    - {fileID: 21301264, guid: 91a9887b9c8a73f4a9c1557a032aed89, type: 3}
    - {fileID: 21301266, guid: 91a9887b9c8a73f4a9c1557a032aed89, type: 3}
    - {fileID: 21301268, guid: 91a9887b9c8a73f4a9c1557a032aed89, type: 3}
    - {fileID: 21301270, guid: 91a9887b9c8a73f4a9c1557a032aed89, type: 3}
    - {fileID: 21301272, guid: 91a9887b9c8a73f4a9c1557a032aed89, type: 3}
    - {fileID: 21301274, guid: 91a9887b9c8a73f4a9c1557a032aed89, type: 3}
    - {fileID: 21301276, guid: 91a9887b9c8a73f4a9c1557a032aed89, type: 3}
    - {fileID: 21301278, guid: 91a9887b9c8a73f4a9c1557a032aed89, type: 3}
    - {fileID: 21301280, guid: 91a9887b9c8a73f4a9c1557a032aed89, type: 3}
    - {fileID: 21301282, guid: 91a9887b9c8a73f4a9c1557a032aed89, type: 3}
    - {fileID: 21301284, guid: 91a9887b9c8a73f4a9c1557a032aed89, type: 3}
    - {fileID: 21301286, guid: 91a9887b9c8a73f4a9c1557a032aed89, type: 3}
    - {fileID: 21301288, guid: 91a9887b9c8a73f4a9c1557a032aed89, type: 3}
    - {fileID: 21301290, guid: 91a9887b9c8a73f4a9c1557a032aed89, type: 3}
    - {fileID: 21301292, guid: 91a9887b9c8a73f4a9c1557a032aed89, type: 3}
    - {fileID: 21301294, guid: 91a9887b9c8a73f4a9c1557a032aed89, type: 3}
    - {fileID: 21301296, guid: 91a9887b9c8a73f4a9c1557a032aed89, type: 3}
    - {fileID: 21301298, guid: 91a9887b9c8a73f4a9c1557a032aed89, type: 3}
    - {fileID: 21301300, guid: 91a9887b9c8a73f4a9c1557a032aed89, type: 3}
    - {fileID: 21301302, guid: 91a9887b9c8a73f4a9c1557a032aed89, type: 3}
    - {fileID: 21301304, guid: 91a9887b9c8a73f4a9c1557a032aed89, type: 3}
    - {fileID: 21301306, guid: 91a9887b9c8a73f4a9c1557a032aed89, type: 3}
    - {fileID: 21301308, guid: 91a9887b9c8a73f4a9c1557a032aed89, type: 3}
    - {fileID: 21301310, guid: 91a9887b9c8a73f4a9c1557a032aed89, type: 3}
    - {fileID: 21301312, guid: 91a9887b9c8a73f4a9c1557a032aed89, type: 3}
    - {fileID: 21301314, guid: 91a9887b9c8a73f4a9c1557a032aed89, type: 3}
    - {fileID: 21301316, guid: 91a9887b9c8a73f4a9c1557a032aed89, type: 3}
    - {fileID: 21301318, guid: 91a9887b9c8a73f4a9c1557a032aed89, type: 3}
    - {fileID: 21301320, guid: 91a9887b9c8a73f4a9c1557a032aed89, type: 3}
    - {fileID: 21301322, guid: 91a9887b9c8a73f4a9c1557a032aed89, type: 3}
    - {fileID: 21301324, guid: 91a9887b9c8a73f4a9c1557a032aed89, type: 3}
    - {fileID: 21301326, guid: 91a9887b9c8a73f4a9c1557a032aed89, type: 3}
    - {fileID: 21301328, guid: 91a9887b9c8a73f4a9c1557a032aed89, type: 3}
  m_AnimationClipSettings:
    serializedVersion: 2
    m_AdditiveReferencePoseClip: {fileID: 0}
    m_AdditiveReferencePoseTime: 0
    m_StartTime: 0
    m_StopTime: 3.1666667
    m_OrientationOffsetY: 0
    m_Level: 0
    m_CycleOffset: 0
    m_HasAdditiveReferencePose: 0
    m_LoopTime: 0
    m_LoopBlend: 0
    m_LoopBlendOrientation: 0
    m_LoopBlendPositionY: 0
    m_LoopBlendPositionXZ: 0
    m_KeepOriginalOrientation: 0
    m_KeepOriginalPositionY: 1
    m_KeepOriginalPositionXZ: 0
    m_HeightFromFeet: 0
    m_Mirror: 0
  m_EditorCurves: []
  m_EulerEditorCurves: []
  m_HasGenericRootTransform: 0
  m_HasMotionFloatCurves: 0
  m_GenerateMotionCurves: 0
  m_Events: []
