%YAML 1.1
%TAG !u! tag:unity3d.com,2011:
--- !u!74 &7400000
AnimationClip:
  m_ObjectHideFlags: 0
  m_PrefabParentObject: {fileID: 0}
  m_PrefabInternal: {fileID: 0}
  m_Name: RatIsoIdleA-SE
  serializedVersion: 6
  m_Legacy: 0
  m_Compressed: 0
  m_UseHighQualityCurve: 1
  m_RotationCurves: []
  m_CompressedRotationCurves: []
  m_EulerCurves: []
  m_PositionCurves: []
  m_ScaleCurves: []
  m_FloatCurves: []
  m_PPtrCurves:
  - curve:
    - time: 0
      value: {fileID: 21300190, guid: 91a9887b9c8a73f4a9c1557a032aed89, type: 3}
    - time: 0.033333335
      value: {fileID: 21300192, guid: 91a9887b9c8a73f4a9c1557a032aed89, type: 3}
    - time: 0.06666667
      value: {fileID: 21300194, guid: 91a9887b9c8a73f4a9c1557a032aed89, type: 3}
    - time: 0.1
      value: {fileID: 21300196, guid: 91a9887b9c8a73f4a9c1557a032aed89, type: 3}
    - time: 0.13333334
      value: {fileID: 21300198, guid: 91a9887b9c8a73f4a9c1557a032aed89, type: 3}
    - time: 0.16666667
      value: {fileID: 21300200, guid: 91a9887b9c8a73f4a9c1557a032aed89, type: 3}
    - time: 0.2
      value: {fileID: 21300202, guid: 91a9887b9c8a73f4a9c1557a032aed89, type: 3}
    - time: 0.23333333
      value: {fileID: 21300204, guid: 91a9887b9c8a73f4a9c1557a032aed89, type: 3}
    - time: 0.26666668
      value: {fileID: 21300206, guid: 91a9887b9c8a73f4a9c1557a032aed89, type: 3}
    - time: 0.3
      value: {fileID: 21300208, guid: 91a9887b9c8a73f4a9c1557a032aed89, type: 3}
    - time: 0.33333334
      value: {fileID: 21300210, guid: 91a9887b9c8a73f4a9c1557a032aed89, type: 3}
    - time: 0.36666667
      value: {fileID: 21300212, guid: 91a9887b9c8a73f4a9c1557a032aed89, type: 3}
    - time: 0.4
      value: {fileID: 21300214, guid: 91a9887b9c8a73f4a9c1557a032aed89, type: 3}
    - time: 0.43333334
      value: {fileID: 21300216, guid: 91a9887b9c8a73f4a9c1557a032aed89, type: 3}
    - time: 0.46666667
      value: {fileID: 21300218, guid: 91a9887b9c8a73f4a9c1557a032aed89, type: 3}
    - time: 0.5
      value: {fileID: 21300220, guid: 91a9887b9c8a73f4a9c1557a032aed89, type: 3}
    - time: 0.53333336
      value: {fileID: 21300222, guid: 91a9887b9c8a73f4a9c1557a032aed89, type: 3}
    - time: 0.56666666
      value: {fileID: 21300224, guid: 91a9887b9c8a73f4a9c1557a032aed89, type: 3}
    - time: 0.6
      value: {fileID: 21300226, guid: 91a9887b9c8a73f4a9c1557a032aed89, type: 3}
    - time: 0.6333333
      value: {fileID: 21300228, guid: 91a9887b9c8a73f4a9c1557a032aed89, type: 3}
    - time: 0.6666667
      value: {fileID: 21300230, guid: 91a9887b9c8a73f4a9c1557a032aed89, type: 3}
    - time: 0.7
      value: {fileID: 21300232, guid: 91a9887b9c8a73f4a9c1557a032aed89, type: 3}
    - time: 0.73333335
      value: {fileID: 21300234, guid: 91a9887b9c8a73f4a9c1557a032aed89, type: 3}
    - time: 0.76666665
      value: {fileID: 21300236, guid: 91a9887b9c8a73f4a9c1557a032aed89, type: 3}
    - time: 0.8
      value: {fileID: 21300238, guid: 91a9887b9c8a73f4a9c1557a032aed89, type: 3}
    - time: 0.8333333
      value: {fileID: 21300240, guid: 91a9887b9c8a73f4a9c1557a032aed89, type: 3}
    - time: 0.8666667
      value: {fileID: 21300242, guid: 91a9887b9c8a73f4a9c1557a032aed89, type: 3}
    - time: 0.9
      value: {fileID: 21300244, guid: 91a9887b9c8a73f4a9c1557a032aed89, type: 3}
    - time: 0.93333334
      value: {fileID: 21300246, guid: 91a9887b9c8a73f4a9c1557a032aed89, type: 3}
    - time: 0.96666664
      value: {fileID: 21300248, guid: 91a9887b9c8a73f4a9c1557a032aed89, type: 3}
    - time: 1
      value: {fileID: 21300250, guid: 91a9887b9c8a73f4a9c1557a032aed89, type: 3}
    - time: 1.0333333
      value: {fileID: 21300252, guid: 91a9887b9c8a73f4a9c1557a032aed89, type: 3}
    - time: 1.0666667
      value: {fileID: 21300254, guid: 91a9887b9c8a73f4a9c1557a032aed89, type: 3}
    - time: 1.1
      value: {fileID: 21300256, guid: 91a9887b9c8a73f4a9c1557a032aed89, type: 3}
    - time: 1.1333333
      value: {fileID: 21300258, guid: 91a9887b9c8a73f4a9c1557a032aed89, type: 3}
    - time: 1.1666666
      value: {fileID: 21300260, guid: 91a9887b9c8a73f4a9c1557a032aed89, type: 3}
    - time: 1.2
      value: {fileID: 21300262, guid: 91a9887b9c8a73f4a9c1557a032aed89, type: 3}
    - time: 1.2333333
      value: {fileID: 21300264, guid: 91a9887b9c8a73f4a9c1557a032aed89, type: 3}
    - time: 1.2666667
      value: {fileID: 21300266, guid: 91a9887b9c8a73f4a9c1557a032aed89, type: 3}
    - time: 1.3
      value: {fileID: 21300268, guid: 91a9887b9c8a73f4a9c1557a032aed89, type: 3}
    - time: 1.3333334
      value: {fileID: 21300270, guid: 91a9887b9c8a73f4a9c1557a032aed89, type: 3}
    - time: 1.3666667
      value: {fileID: 21300272, guid: 91a9887b9c8a73f4a9c1557a032aed89, type: 3}
    - time: 1.4
      value: {fileID: 21300274, guid: 91a9887b9c8a73f4a9c1557a032aed89, type: 3}
    - time: 1.4333333
      value: {fileID: 21300276, guid: 91a9887b9c8a73f4a9c1557a032aed89, type: 3}
    - time: 1.4666667
      value: {fileID: 21300278, guid: 91a9887b9c8a73f4a9c1557a032aed89, type: 3}
    - time: 1.5
      value: {fileID: 21300280, guid: 91a9887b9c8a73f4a9c1557a032aed89, type: 3}
    - time: 1.5333333
      value: {fileID: 21300282, guid: 91a9887b9c8a73f4a9c1557a032aed89, type: 3}
    - time: 1.5666667
      value: {fileID: 21300284, guid: 91a9887b9c8a73f4a9c1557a032aed89, type: 3}
    - time: 1.6
      value: {fileID: 21300286, guid: 91a9887b9c8a73f4a9c1557a032aed89, type: 3}
    - time: 1.6333333
      value: {fileID: 21300288, guid: 91a9887b9c8a73f4a9c1557a032aed89, type: 3}
    - time: 1.6666666
      value: {fileID: 21300290, guid: 91a9887b9c8a73f4a9c1557a032aed89, type: 3}
    - time: 1.7
      value: {fileID: 21300292, guid: 91a9887b9c8a73f4a9c1557a032aed89, type: 3}
    - time: 1.7333333
      value: {fileID: 21300294, guid: 91a9887b9c8a73f4a9c1557a032aed89, type: 3}
    - time: 1.7666667
      value: {fileID: 21300296, guid: 91a9887b9c8a73f4a9c1557a032aed89, type: 3}
    - time: 1.8
      value: {fileID: 21300298, guid: 91a9887b9c8a73f4a9c1557a032aed89, type: 3}
    - time: 1.8333334
      value: {fileID: 21300300, guid: 91a9887b9c8a73f4a9c1557a032aed89, type: 3}
    - time: 1.8666667
      value: {fileID: 21300302, guid: 91a9887b9c8a73f4a9c1557a032aed89, type: 3}
    - time: 1.9
      value: {fileID: 21300304, guid: 91a9887b9c8a73f4a9c1557a032aed89, type: 3}
    - time: 1.9333333
      value: {fileID: 21300306, guid: 91a9887b9c8a73f4a9c1557a032aed89, type: 3}
    - time: 1.9666667
      value: {fileID: 21300308, guid: 91a9887b9c8a73f4a9c1557a032aed89, type: 3}
    - time: 2
      value: {fileID: 21300310, guid: 91a9887b9c8a73f4a9c1557a032aed89, type: 3}
    - time: 2.0333333
      value: {fileID: 21300312, guid: 91a9887b9c8a73f4a9c1557a032aed89, type: 3}
    - time: 2.0666666
      value: {fileID: 21300314, guid: 91a9887b9c8a73f4a9c1557a032aed89, type: 3}
    - time: 2.1
      value: {fileID: 21300316, guid: 91a9887b9c8a73f4a9c1557a032aed89, type: 3}
    - time: 2.1333334
      value: {fileID: 21300318, guid: 91a9887b9c8a73f4a9c1557a032aed89, type: 3}
    - time: 2.1666667
      value: {fileID: 21300320, guid: 91a9887b9c8a73f4a9c1557a032aed89, type: 3}
    - time: 2.2
      value: {fileID: 21300322, guid: 91a9887b9c8a73f4a9c1557a032aed89, type: 3}
    - time: 2.2333333
      value: {fileID: 21300324, guid: 91a9887b9c8a73f4a9c1557a032aed89, type: 3}
    - time: 2.2666667
      value: {fileID: 21300326, guid: 91a9887b9c8a73f4a9c1557a032aed89, type: 3}
    - time: 2.3
      value: {fileID: 21300328, guid: 91a9887b9c8a73f4a9c1557a032aed89, type: 3}
    - time: 2.3333333
      value: {fileID: 21300330, guid: 91a9887b9c8a73f4a9c1557a032aed89, type: 3}
    - time: 2.3666666
      value: {fileID: 21300332, guid: 91a9887b9c8a73f4a9c1557a032aed89, type: 3}
    - time: 2.4
      value: {fileID: 21300334, guid: 91a9887b9c8a73f4a9c1557a032aed89, type: 3}
    - time: 2.4333334
      value: {fileID: 21300336, guid: 91a9887b9c8a73f4a9c1557a032aed89, type: 3}
    - time: 2.4666667
      value: {fileID: 21300338, guid: 91a9887b9c8a73f4a9c1557a032aed89, type: 3}
    - time: 2.5
      value: {fileID: 21300340, guid: 91a9887b9c8a73f4a9c1557a032aed89, type: 3}
    - time: 2.5333333
      value: {fileID: 21300342, guid: 91a9887b9c8a73f4a9c1557a032aed89, type: 3}
    - time: 2.5666666
      value: {fileID: 21300344, guid: 91a9887b9c8a73f4a9c1557a032aed89, type: 3}
    - time: 2.6
      value: {fileID: 21300346, guid: 91a9887b9c8a73f4a9c1557a032aed89, type: 3}
    - time: 2.6333334
      value: {fileID: 21300348, guid: 91a9887b9c8a73f4a9c1557a032aed89, type: 3}
    - time: 2.6666667
      value: {fileID: 21300350, guid: 91a9887b9c8a73f4a9c1557a032aed89, type: 3}
    - time: 2.7
      value: {fileID: 21300352, guid: 91a9887b9c8a73f4a9c1557a032aed89, type: 3}
    - time: 2.7333333
      value: {fileID: 21300354, guid: 91a9887b9c8a73f4a9c1557a032aed89, type: 3}
    - time: 2.7666667
      value: {fileID: 21300356, guid: 91a9887b9c8a73f4a9c1557a032aed89, type: 3}
    - time: 2.8
      value: {fileID: 21300358, guid: 91a9887b9c8a73f4a9c1557a032aed89, type: 3}
    - time: 2.8333333
      value: {fileID: 21300360, guid: 91a9887b9c8a73f4a9c1557a032aed89, type: 3}
    - time: 2.8666666
      value: {fileID: 21300362, guid: 91a9887b9c8a73f4a9c1557a032aed89, type: 3}
    - time: 2.9
      value: {fileID: 21300364, guid: 91a9887b9c8a73f4a9c1557a032aed89, type: 3}
    - time: 2.9333334
      value: {fileID: 21300366, guid: 91a9887b9c8a73f4a9c1557a032aed89, type: 3}
    - time: 2.9666667
      value: {fileID: 21300368, guid: 91a9887b9c8a73f4a9c1557a032aed89, type: 3}
    - time: 3
      value: {fileID: 21300370, guid: 91a9887b9c8a73f4a9c1557a032aed89, type: 3}
    - time: 3.0333333
      value: {fileID: 21300372, guid: 91a9887b9c8a73f4a9c1557a032aed89, type: 3}
    - time: 3.0666666
      value: {fileID: 21300374, guid: 91a9887b9c8a73f4a9c1557a032aed89, type: 3}
    - time: 3.1
      value: {fileID: 21300376, guid: 91a9887b9c8a73f4a9c1557a032aed89, type: 3}
    - time: 3.1333334
      value: {fileID: 21300378, guid: 91a9887b9c8a73f4a9c1557a032aed89, type: 3}
    attribute: m_Sprite
    path: 
    classID: 212
    script: {fileID: 0}
  m_SampleRate: 30
  m_WrapMode: 0
  m_Bounds:
    m_Center: {x: 0, y: 0, z: 0}
    m_Extent: {x: 0, y: 0, z: 0}
  m_ClipBindingConstant:
    genericBindings:
    - serializedVersion: 2
      path: 0
      attribute: 0
      script: {fileID: 0}
      typeID: 212
      customType: 23
      isPPtrCurve: 1
    pptrCurveMapping:
    - {fileID: 21300190, guid: 91a9887b9c8a73f4a9c1557a032aed89, type: 3}
    - {fileID: 21300192, guid: 91a9887b9c8a73f4a9c1557a032aed89, type: 3}
    - {fileID: 21300194, guid: 91a9887b9c8a73f4a9c1557a032aed89, type: 3}
    - {fileID: 21300196, guid: 91a9887b9c8a73f4a9c1557a032aed89, type: 3}
    - {fileID: 21300198, guid: 91a9887b9c8a73f4a9c1557a032aed89, type: 3}
    - {fileID: 21300200, guid: 91a9887b9c8a73f4a9c1557a032aed89, type: 3}
    - {fileID: 21300202, guid: 91a9887b9c8a73f4a9c1557a032aed89, type: 3}
    - {fileID: 21300204, guid: 91a9887b9c8a73f4a9c1557a032aed89, type: 3}
    - {fileID: 21300206, guid: 91a9887b9c8a73f4a9c1557a032aed89, type: 3}
    - {fileID: 21300208, guid: 91a9887b9c8a73f4a9c1557a032aed89, type: 3}
    - {fileID: 21300210, guid: 91a9887b9c8a73f4a9c1557a032aed89, type: 3}
    - {fileID: 21300212, guid: 91a9887b9c8a73f4a9c1557a032aed89, type: 3}
    - {fileID: 21300214, guid: 91a9887b9c8a73f4a9c1557a032aed89, type: 3}
    - {fileID: 21300216, guid: 91a9887b9c8a73f4a9c1557a032aed89, type: 3}
    - {fileID: 21300218, guid: 91a9887b9c8a73f4a9c1557a032aed89, type: 3}
    - {fileID: 21300220, guid: 91a9887b9c8a73f4a9c1557a032aed89, type: 3}
    - {fileID: 21300222, guid: 91a9887b9c8a73f4a9c1557a032aed89, type: 3}
    - {fileID: 21300224, guid: 91a9887b9c8a73f4a9c1557a032aed89, type: 3}
    - {fileID: 21300226, guid: 91a9887b9c8a73f4a9c1557a032aed89, type: 3}
    - {fileID: 21300228, guid: 91a9887b9c8a73f4a9c1557a032aed89, type: 3}
    - {fileID: 21300230, guid: 91a9887b9c8a73f4a9c1557a032aed89, type: 3}
    - {fileID: 21300232, guid: 91a9887b9c8a73f4a9c1557a032aed89, type: 3}
    - {fileID: 21300234, guid: 91a9887b9c8a73f4a9c1557a032aed89, type: 3}
    - {fileID: 21300236, guid: 91a9887b9c8a73f4a9c1557a032aed89, type: 3}
    - {fileID: 21300238, guid: 91a9887b9c8a73f4a9c1557a032aed89, type: 3}
    - {fileID: 21300240, guid: 91a9887b9c8a73f4a9c1557a032aed89, type: 3}
    - {fileID: 21300242, guid: 91a9887b9c8a73f4a9c1557a032aed89, type: 3}
    - {fileID: 21300244, guid: 91a9887b9c8a73f4a9c1557a032aed89, type: 3}
    - {fileID: 21300246, guid: 91a9887b9c8a73f4a9c1557a032aed89, type: 3}
    - {fileID: 21300248, guid: 91a9887b9c8a73f4a9c1557a032aed89, type: 3}
    - {fileID: 21300250, guid: 91a9887b9c8a73f4a9c1557a032aed89, type: 3}
    - {fileID: 21300252, guid: 91a9887b9c8a73f4a9c1557a032aed89, type: 3}
    - {fileID: 21300254, guid: 91a9887b9c8a73f4a9c1557a032aed89, type: 3}
    - {fileID: 21300256, guid: 91a9887b9c8a73f4a9c1557a032aed89, type: 3}
    - {fileID: 21300258, guid: 91a9887b9c8a73f4a9c1557a032aed89, type: 3}
    - {fileID: 21300260, guid: 91a9887b9c8a73f4a9c1557a032aed89, type: 3}
    - {fileID: 21300262, guid: 91a9887b9c8a73f4a9c1557a032aed89, type: 3}
    - {fileID: 21300264, guid: 91a9887b9c8a73f4a9c1557a032aed89, type: 3}
    - {fileID: 21300266, guid: 91a9887b9c8a73f4a9c1557a032aed89, type: 3}
    - {fileID: 21300268, guid: 91a9887b9c8a73f4a9c1557a032aed89, type: 3}
    - {fileID: 21300270, guid: 91a9887b9c8a73f4a9c1557a032aed89, type: 3}
    - {fileID: 21300272, guid: 91a9887b9c8a73f4a9c1557a032aed89, type: 3}
    - {fileID: 21300274, guid: 91a9887b9c8a73f4a9c1557a032aed89, type: 3}
    - {fileID: 21300276, guid: 91a9887b9c8a73f4a9c1557a032aed89, type: 3}
    - {fileID: 21300278, guid: 91a9887b9c8a73f4a9c1557a032aed89, type: 3}
    - {fileID: 21300280, guid: 91a9887b9c8a73f4a9c1557a032aed89, type: 3}
    - {fileID: 21300282, guid: 91a9887b9c8a73f4a9c1557a032aed89, type: 3}
    - {fileID: 21300284, guid: 91a9887b9c8a73f4a9c1557a032aed89, type: 3}
    - {fileID: 21300286, guid: 91a9887b9c8a73f4a9c1557a032aed89, type: 3}
    - {fileID: 21300288, guid: 91a9887b9c8a73f4a9c1557a032aed89, type: 3}
    - {fileID: 21300290, guid: 91a9887b9c8a73f4a9c1557a032aed89, type: 3}
    - {fileID: 21300292, guid: 91a9887b9c8a73f4a9c1557a032aed89, type: 3}
    - {fileID: 21300294, guid: 91a9887b9c8a73f4a9c1557a032aed89, type: 3}
    - {fileID: 21300296, guid: 91a9887b9c8a73f4a9c1557a032aed89, type: 3}
    - {fileID: 21300298, guid: 91a9887b9c8a73f4a9c1557a032aed89, type: 3}
    - {fileID: 21300300, guid: 91a9887b9c8a73f4a9c1557a032aed89, type: 3}
    - {fileID: 21300302, guid: 91a9887b9c8a73f4a9c1557a032aed89, type: 3}
    - {fileID: 21300304, guid: 91a9887b9c8a73f4a9c1557a032aed89, type: 3}
    - {fileID: 21300306, guid: 91a9887b9c8a73f4a9c1557a032aed89, type: 3}
    - {fileID: 21300308, guid: 91a9887b9c8a73f4a9c1557a032aed89, type: 3}
    - {fileID: 21300310, guid: 91a9887b9c8a73f4a9c1557a032aed89, type: 3}
    - {fileID: 21300312, guid: 91a9887b9c8a73f4a9c1557a032aed89, type: 3}
    - {fileID: 21300314, guid: 91a9887b9c8a73f4a9c1557a032aed89, type: 3}
    - {fileID: 21300316, guid: 91a9887b9c8a73f4a9c1557a032aed89, type: 3}
    - {fileID: 21300318, guid: 91a9887b9c8a73f4a9c1557a032aed89, type: 3}
    - {fileID: 21300320, guid: 91a9887b9c8a73f4a9c1557a032aed89, type: 3}
    - {fileID: 21300322, guid: 91a9887b9c8a73f4a9c1557a032aed89, type: 3}
    - {fileID: 21300324, guid: 91a9887b9c8a73f4a9c1557a032aed89, type: 3}
    - {fileID: 21300326, guid: 91a9887b9c8a73f4a9c1557a032aed89, type: 3}
    - {fileID: 21300328, guid: 91a9887b9c8a73f4a9c1557a032aed89, type: 3}
    - {fileID: 21300330, guid: 91a9887b9c8a73f4a9c1557a032aed89, type: 3}
    - {fileID: 21300332, guid: 91a9887b9c8a73f4a9c1557a032aed89, type: 3}
    - {fileID: 21300334, guid: 91a9887b9c8a73f4a9c1557a032aed89, type: 3}
    - {fileID: 21300336, guid: 91a9887b9c8a73f4a9c1557a032aed89, type: 3}
    - {fileID: 21300338, guid: 91a9887b9c8a73f4a9c1557a032aed89, type: 3}
    - {fileID: 21300340, guid: 91a9887b9c8a73f4a9c1557a032aed89, type: 3}
    - {fileID: 21300342, guid: 91a9887b9c8a73f4a9c1557a032aed89, type: 3}
    - {fileID: 21300344, guid: 91a9887b9c8a73f4a9c1557a032aed89, type: 3}
    - {fileID: 21300346, guid: 91a9887b9c8a73f4a9c1557a032aed89, type: 3}
    - {fileID: 21300348, guid: 91a9887b9c8a73f4a9c1557a032aed89, type: 3}
    - {fileID: 21300350, guid: 91a9887b9c8a73f4a9c1557a032aed89, type: 3}
    - {fileID: 21300352, guid: 91a9887b9c8a73f4a9c1557a032aed89, type: 3}
    - {fileID: 21300354, guid: 91a9887b9c8a73f4a9c1557a032aed89, type: 3}
    - {fileID: 21300356, guid: 91a9887b9c8a73f4a9c1557a032aed89, type: 3}
    - {fileID: 21300358, guid: 91a9887b9c8a73f4a9c1557a032aed89, type: 3}
    - {fileID: 21300360, guid: 91a9887b9c8a73f4a9c1557a032aed89, type: 3}
    - {fileID: 21300362, guid: 91a9887b9c8a73f4a9c1557a032aed89, type: 3}
    - {fileID: 21300364, guid: 91a9887b9c8a73f4a9c1557a032aed89, type: 3}
    - {fileID: 21300366, guid: 91a9887b9c8a73f4a9c1557a032aed89, type: 3}
    - {fileID: 21300368, guid: 91a9887b9c8a73f4a9c1557a032aed89, type: 3}
    - {fileID: 21300370, guid: 91a9887b9c8a73f4a9c1557a032aed89, type: 3}
    - {fileID: 21300372, guid: 91a9887b9c8a73f4a9c1557a032aed89, type: 3}
    - {fileID: 21300374, guid: 91a9887b9c8a73f4a9c1557a032aed89, type: 3}
    - {fileID: 21300376, guid: 91a9887b9c8a73f4a9c1557a032aed89, type: 3}
    - {fileID: 21300378, guid: 91a9887b9c8a73f4a9c1557a032aed89, type: 3}
  m_AnimationClipSettings:
    serializedVersion: 2
    m_AdditiveReferencePoseClip: {fileID: 0}
    m_AdditiveReferencePoseTime: 0
    m_StartTime: 0
    m_StopTime: 3.1666667
    m_OrientationOffsetY: 0
    m_Level: 0
    m_CycleOffset: 0
    m_HasAdditiveReferencePose: 0
    m_LoopTime: 0
    m_LoopBlend: 0
    m_LoopBlendOrientation: 0
    m_LoopBlendPositionY: 0
    m_LoopBlendPositionXZ: 0
    m_KeepOriginalOrientation: 0
    m_KeepOriginalPositionY: 1
    m_KeepOriginalPositionXZ: 0
    m_HeightFromFeet: 0
    m_Mirror: 0
  m_EditorCurves: []
  m_EulerEditorCurves: []
  m_HasGenericRootTransform: 0
  m_HasMotionFloatCurves: 0
  m_GenerateMotionCurves: 0
  m_Events: []
