%YAML 1.1
%TAG !u! tag:unity3d.com,2011:
--- !u!74 &7400000
AnimationClip:
  m_ObjectHideFlags: 0
  m_PrefabParentObject: {fileID: 0}
  m_PrefabInternal: {fileID: 0}
  m_Name: RotationSatallite
  serializedVersion: 6
  m_Legacy: 0
  m_Compressed: 0
  m_UseHighQualityCurve: 1
  m_RotationCurves:
  - curve:
      serializedVersion: 2
      m_Curve:
      - serializedVersion: 2
        time: 0
        value: {x: -0.00000032584137, y: -0.00000032584137, z: 1.061726e-13, w: -1}
        inSlope: {x: 0.000000011648921, y: 2.070969, z: -0.00000067480744, w: 0.035752054}
        outSlope: {x: 0.000000011648921, y: 2.070969, z: -0.00000067480744, w: 0.035752054}
        tangentMode: 0
      - serializedVersion: 2
        time: 0.016666668
        value: {x: -0.00000032564722, y: 0.034515828, z: -0.0000000112466845, w: -0.99940413}
        inSlope: {x: 0.00000002329102, y: 2.069735, z: -0.0000006744053, w: 0.07148086}
        outSlope: {x: 0.00000002329102, y: 2.069735, z: -0.0000006744053, w: 0.07148086}
        tangentMode: 0
      - serializedVersion: 2
        time: 0.033333335
        value: {x: -0.000000325065, y: 0.06899085, z: -0.000000022480073, w: -0.9976173}
        inSlope: {x: 0.000000046555606, y: 2.0660346, z: -0.00000067319957, w: 0.14287768}
        outSlope: {x: 0.000000046555606, y: 2.0660346, z: -0.00000067319957, w: 0.14287768}
        tangentMode: 0
      - serializedVersion: 2
        time: 0.050000004
        value: {x: -0.00000032409537, y: 0.10338365, z: -0.00000003368667, w: -0.99464154}
        inSlope: {x: 0.00000006976478, y: 2.0598717, z: -0.0000006711915, w: 0.21410465}
        outSlope: {x: 0.00000006976478, y: 2.0598717, z: -0.0000006711915, w: 0.21410465}
        tangentMode: 0
      - serializedVersion: 2
        time: 0.06666667
        value: {x: -0.0000003227395, y: 0.13765325, z: -0.000000044853124, w: -0.9904805}
        inSlope: {x: 0.00000009288954, y: 2.0512545, z: -0.00000066838356, w: 0.28507593}
        outSlope: {x: 0.00000009288954, y: 2.0512545, z: -0.00000066838356, w: 0.28507593}
        tangentMode: 0
      - serializedVersion: 2
        time: 0.083333336
        value: {x: -0.00000032099905, y: 0.1717588, z: -0.000000055966122, w: -0.985139}
        inSlope: {x: 0.000000115904314, y: 2.0401928, z: -0.00000066477924, w: 0.35570744}
        outSlope: {x: 0.000000115904314, y: 2.0401928, z: -0.00000066477924, w: 0.35570744}
        tangentMode: 0
      - serializedVersion: 2
        time: 0.1
        value: {x: -0.00000031887603, y: 0.20565967, z: -0.00000006701243, w: -0.97862357}
        inSlope: {x: 0.0000001387801, y: 2.0266995, z: -0.0000006603826, w: 0.42591336}
        outSlope: {x: 0.0000001387801, y: 2.0266995, z: -0.0000006603826, w: 0.42591336}
        tangentMode: 0
      - serializedVersion: 2
        time: 0.11666667
        value: {x: -0.00000031637305, y: 0.23931545, z: -0.000000077978875, w: -0.9709419}
        inSlope: {x: 0.00000016149127, y: 2.0107832, z: -0.00000065519635, w: 0.49561316}
        outSlope: {x: 0.00000016149127, y: 2.0107832, z: -0.00000065519635, w: 0.49561316}
        tangentMode: 0
      - serializedVersion: 2
        time: 0.13333334
        value: {x: -0.000000313493, y: 0.2726858, z: -0.00000008885231, w: -0.9621031}
        inSlope: {x: 0.00000018401064, y: 1.9924848, z: -0.0000006492339, w: 0.56472474}
        outSlope: {x: 0.00000018401064, y: 1.9924848, z: -0.0000006492339, w: 0.56472474}
        tangentMode: 0
      - serializedVersion: 2
        time: 0.15
        value: {x: -0.00000031023936, y: 0.30573162, z: -0.00000009962001, w: -0.95211774}
        inSlope: {x: 0.00000020630922, y: 1.9718064, z: -0.0000006424962, w: 0.63316053}
        outSlope: {x: 0.00000020630922, y: 1.9718064, z: -0.0000006424962, w: 0.63316053}
        tangentMode: 0
      - serializedVersion: 2
        time: 0.16666667
        value: {x: -0.00000030661602, y: 0.33841267, z: -0.00000011026885, w: -0.9409978}
        inSlope: {x: 0.00000022836306, y: 1.9487708, z: -0.00000063499033, w: 0.7008398}
        outSlope: {x: 0.00000022836306, y: 1.9487708, z: -0.00000063499033, w: 0.7008398}
        tangentMode: 0
      - serializedVersion: 2
        time: 0.18333334
        value: {x: -0.00000030262726, y: 0.37069064, z: -0.00000012078635, w: -0.9287564}
        inSlope: {x: 0.00000025014575, y: 1.9234328, z: -0.00000062673394, w: 0.7676912}
        outSlope: {x: 0.00000025014575, y: 1.9234328, z: -0.00000062673394, w: 0.7676912}
        tangentMode: 0
      - serializedVersion: 2
        time: 0.2
        value: {x: -0.00000029827783, y: 0.4025271, z: -0.00000013115998, w: -0.9154081}
        inSlope: {x: 0.00000027162915, y: 1.895789, z: -0.0000006177263, w: 0.83362526}
        outSlope: {x: 0.00000027162915, y: 1.895789, z: -0.0000006177263, w: 0.83362526}
        tangentMode: 0
      - serializedVersion: 2
        time: 0.21666667
        value: {x: -0.00000029357295, y: 0.4338836, z: -0.00000014137723, w: -0.9009689}
        inSlope: {x: 0.00000029278684, y: 1.8658726, z: -0.00000060797834, w: 0.8985562}
        outSlope: {x: 0.00000029278684, y: 1.8658726, z: -0.00000060797834, w: 0.8985562}
        tangentMode: 0
      - serializedVersion: 2
        time: 0.23333333
        value: {x: -0.00000028851827, y: 0.46472284, z: -0.00000015142592, w: -0.8854562}
        inSlope: {x: 0.00000031359835, y: 1.8337522, z: -0.0000005975125, w: 0.9624267}
        outSlope: {x: 0.00000031359835, y: 1.8337522, z: -0.0000005975125, w: 0.9624267}
        tangentMode: 0
      - serializedVersion: 2
        time: 0.25
        value: {x: -0.00000028311968, y: 0.49500868, z: -0.00000016129431, w: -0.868888}
        inSlope: {x: 0.0000003340354, y: 1.7994406, z: -0.00000058633225, w: 1.0251471}
        outSlope: {x: 0.0000003340354, y: 1.7994406, z: -0.00000058633225, w: 1.0251471}
        tangentMode: 0
      - serializedVersion: 2
        time: 0.26666668
        value: {x: -0.00000027738375, y: 0.5247042, z: -0.00000017097034, w: -0.8512846}
        inSlope: {x: 0.0000003540734, y: 1.7629762, z: -0.00000057445027, w: 1.0866425}
        outSlope: {x: 0.0000003540734, y: 1.7629762, z: -0.00000057445027, w: 1.0866425}
        tangentMode: 0
      - serializedVersion: 2
        time: 0.28333336
        value: {x: -0.00000027131722, y: 0.5537746, z: -0.00000018044267, w: -0.8326666}
        inSlope: {x: 0.00000037369202, y: 1.7244301, z: -0.0000005618908, w: 1.1468526}
        outSlope: {x: 0.00000037369202, y: 1.7244301, z: -0.0000005618908, w: 1.1468526}
        tangentMode: 0
      - serializedVersion: 2
        time: 0.30000004
        value: {x: -0.00000026492734, y: 0.58218527, z: -0.00000018970005, w: -0.8130562}
        inSlope: {x: 0.00000039286385, y: 1.6838197, z: -0.000000548658, w: 1.2056894}
        outSlope: {x: 0.00000039286385, y: 1.6838197, z: -0.000000548658, w: 1.2056894}
        tangentMode: 0
      - serializedVersion: 2
        time: 0.31666672
        value: {x: -0.00000025822175, y: 0.60990196, z: -0.00000019873129, w: -0.7924769}
        inSlope: {x: 0.00000041156676, y: 1.6411941, z: -0.0000005347688, w: 1.2630887}
        outSlope: {x: 0.00000041156676, y: 1.6411941, z: -0.0000005347688, w: 1.2630887}
        tangentMode: 0
      - serializedVersion: 2
        time: 0.3333334
        value: {x: -0.00000025120843, y: 0.6368918, z: -0.00000020752569, w: -0.7709532}
        inSlope: {x: 0.00000042977854, y: 1.5966194, z: -0.0000005202447, w: 1.3189824}
        outSlope: {x: 0.00000042977854, y: 1.5966194, z: -0.0000005202447, w: 1.3189824}
        tangentMode: 0
      - serializedVersion: 2
        time: 0.35000008
        value: {x: -0.00000024389578, y: 0.66312265, z: -0.00000021607279, w: -0.7485108}
        inSlope: {x: 0.00000044747912, y: 1.550142, z: -0.0000005051004, w: 1.3733041}
        outSlope: {x: 0.00000044747912, y: 1.550142, z: -0.0000005051004, w: 1.3733041}
        tangentMode: 0
      - serializedVersion: 2
        time: 0.36666676
        value: {x: -0.00000023629245, y: 0.6885632, z: -0.00000022436238, w: -0.72517633}
        inSlope: {x: 0.00000046464726, y: 1.5018158, z: -0.0000004893536, w: 1.4259917}
        outSlope: {x: 0.00000046464726, y: 1.5018158, z: -0.0000004893536, w: 1.4259917}
        tangentMode: 0
      - serializedVersion: 2
        time: 0.38333344
        value: {x: -0.00000022840753, y: 0.7131832, z: -0.0000002323846, w: -0.7009777}
        inSlope: {x: 0.00000048125946, y: 1.4516962, z: -0.00000047302282, w: 1.476975}
        outSlope: {x: 0.00000048125946, y: 1.4516962, z: -0.00000047302282, w: 1.476975}
        tangentMode: 0
      - serializedVersion: 2
        time: 0.40000013
        value: {x: -0.00000022025046, y: 0.73695314, z: -0.00000024012982, w: -0.6759438}
        inSlope: {x: 0.00000049730164, y: 1.399858, z: -0.00000045613137, w: 1.5262078}
        outSlope: {x: 0.00000049730164, y: 1.399858, z: -0.00000045613137, w: 1.5262078}
        tangentMode: 0
      - serializedVersion: 2
        time: 0.4166668
        value: {x: -0.0000002118308, y: 0.7598452, z: -0.00000024758899, w: -0.65010405}
        inSlope: {x: 0.0000005127504, y: 1.3463497, z: -0.0000004386964, w: 1.5736185}
        outSlope: {x: 0.0000005127504, y: 1.3463497, z: -0.0000004386964, w: 1.5736185}
        tangentMode: 0
      - serializedVersion: 2
        time: 0.4333335
        value: {x: -0.00000020315876, y: 0.7818315, z: -0.00000025475305, w: -0.6234898}
        inSlope: {x: 0.0000005275865, y: 1.2912304, z: -0.00000042073702, w: 1.6191517}
        outSlope: {x: 0.0000005275865, y: 1.2912304, z: -0.00000042073702, w: 1.6191517}
        tangentMode: 0
      - serializedVersion: 2
        time: 0.45000017
        value: {x: -0.00000019424456, y: 0.80288625, z: -0.00000026161356, w: -0.5961323}
        inSlope: {x: 0.00000054179293, y: 1.2345715, z: -0.00000040227457, w: 1.6627519}
        outSlope: {x: 0.00000054179293, y: 1.2345715, z: -0.00000040227457, w: 1.6627519}
        tangentMode: 0
      - serializedVersion: 2
        time: 0.46666685
        value: {x: -0.00000018509898, y: 0.8229839, z: -0.0000002681622, w: -0.5680647}
        inSlope: {x: 0.0000005553535, y: 1.1764392, z: -0.00000038333206, w: 1.7043672}
        outSlope: {x: 0.0000005553535, y: 1.1764392, z: -0.00000038333206, w: 1.7043672}
        tangentMode: 0
      - serializedVersion: 2
        time: 0.48333353
        value: {x: -0.00000017573277, y: 0.8421009, z: -0.0000002743913, w: -0.53932}
        inSlope: {x: 0.0000005682563, y: 1.1169147, z: -0.00000036393715, w: 1.7439653}
        outSlope: {x: 0.0000005682563, y: 1.1169147, z: -0.00000036393715, w: 1.7439653}
        tangentMode: 0
      - serializedVersion: 2
        time: 0.5000002
        value: {x: -0.00000016615711, y: 0.8602144, z: -0.00000028029345, w: -0.5099325}
        inSlope: {x: 0.00000058048, y: 1.0560565, z: -0.00000034410738, w: 1.7814802}
        outSlope: {x: 0.00000058048, y: 1.0560565, z: -0.00000034410738, w: 1.7814802}
        tangentMode: 0
      - serializedVersion: 2
        time: 0.5166668
        value: {x: -0.00000015638345, y: 0.87730277, z: -0.00000028586155, w: -0.47993737}
        inSlope: {x: 0.00000059201085, y: 0.9939364, z: -0.0000003238654, w: 1.8168684}
        outSlope: {x: 0.00000059201085, y: 0.9939364, z: -0.0000003238654, w: 1.8168684}
        tangentMode: 0
      - serializedVersion: 2
        time: 0.5333335
        value: {x: -0.00000014642343, y: 0.8933456, z: -0.00000029108895, w: -0.4493703}
        inSlope: {x: 0.00000060283696, y: 0.9306326, z: -0.00000030323804, w: 1.850093}
        outSlope: {x: 0.00000060283696, y: 0.9306326, z: -0.00000030323804, w: 1.850093}
        tangentMode: 0
      - serializedVersion: 2
        time: 0.55000013
        value: {x: -0.0000001362889, y: 0.9083238, z: -0.00000029596947, w: -0.41826767}
        inSlope: {x: 0.00000061294304, y: 0.86621845, z: -0.00000028225003, w: 1.8811092}
        outSlope: {x: 0.00000061294304, y: 0.86621845, z: -0.00000028225003, w: 1.8811092}
        tangentMode: 0
      - serializedVersion: 2
        time: 0.5666668
        value: {x: -0.00000012599202, y: 0.9222195, z: -0.00000030049728, w: -0.38666672}
        inSlope: {x: 0.0000006223198, y: 0.8007742, z: -0.00000026092602, w: 1.9098866}
        outSlope: {x: 0.0000006223198, y: 0.8007742, z: -0.00000026092602, w: 1.9098866}
        tangentMode: 0
      - serializedVersion: 2
        time: 0.58333343
        value: {x: -0.00000011554493, y: 0.9350163, z: -0.000000304667, w: -0.35460484}
        inSlope: {x: 0.0000006309557, y: 0.73437524, z: -0.00000023929, w: 1.9363887}
        outSlope: {x: 0.0000006309557, y: 0.73437524, z: -0.00000023929, w: 1.9363887}
        tangentMode: 0
      - serializedVersion: 2
        time: 0.6000001
        value: {x: -0.00000010496018, y: 0.94669867, z: -0.0000003084736, w: -0.3221205}
        inSlope: {x: 0.0000006388389, y: 0.66709995, z: -0.0000002173683, w: 1.9605823}
        outSlope: {x: 0.0000006388389, y: 0.66709995, z: -0.0000002173683, w: 1.9605823}
        tangentMode: 0
      - serializedVersion: 2
        time: 0.61666673
        value: {x: -0.00000009425032, y: 0.9572529, z: -0.0000003119126, w: -0.28925216}
        inSlope: {x: 0.00000064596196, y: 0.59903264, z: -0.00000019518912, w: 1.9824431}
        outSlope: {x: 0.00000064596196, y: 0.59903264, z: -0.00000019518912, w: 1.9824431}
        tangentMode: 0
      - serializedVersion: 2
        time: 0.6333334
        value: {x: -0.000000083428134, y: 0.9666664, z: -0.0000003149799, w: -0.2560391}
        inSlope: {x: 0.00000065231313, y: 0.53024995, z: -0.00000017277716, w: 2.0019348}
        outSlope: {x: 0.00000065231313, y: 0.53024995, z: -0.00000017277716, w: 2.0019348}
        tangentMode: 0
      - serializedVersion: 2
        time: 0.65000004
        value: {x: -0.000000072506566, y: 0.9749279, z: -0.00000031767183, w: -0.22252107}
        inSlope: {x: 0.000000657888, y: 0.46083435, z: -0.00000015015885, w: 2.019044}
        outSlope: {x: 0.000000657888, y: 0.46083435, z: -0.00000015015885, w: 2.019044}
        tangentMode: 0
      - serializedVersion: 2
        time: 0.6666667
        value: {x: -0.000000061498554, y: 0.98202753, z: -0.0000003199852, w: -0.18873772}
        inSlope: {x: 0.0000006626789, y: 0.39086974, z: -0.00000012736149, w: 2.0337472}
        outSlope: {x: 0.0000006626789, y: 0.39086974, z: -0.00000012736149, w: 2.0337472}
        tangentMode: 0
      - serializedVersion: 2
        time: 0.68333334
        value: {x: -0.00000005041729, y: 0.9879569, z: -0.0000003219172, w: -0.15472956}
        inSlope: {x: 0.0000006666801, y: 0.32044023, z: -0.00000010441322, w: 2.0460267}
        outSlope: {x: 0.0000006666801, y: 0.32044023, z: -0.00000010441322, w: 2.0460267}
        tangentMode: 0
      - serializedVersion: 2
        time: 0.7
        value: {x: -0.000000039275907, y: 0.99270886, z: -0.00000032346563, w: -0.12053689}
        inSlope: {x: 0.00000066988673, y: 0.24962807, z: -0.00000008133959, w: 2.0558677}
        outSlope: {x: 0.00000066988673, y: 0.24962807, z: -0.00000008133959, w: 2.0558677}
        tangentMode: 0
      - serializedVersion: 2
        time: 0.71666664
        value: {x: -0.000000028087754, y: 0.9962778, z: -0.00000032462853, w: -0.0862007}
        inSlope: {x: 0.0000006722963, y: 0.17851907, z: -0.000000058168776, w: 2.0632625}
        outSlope: {x: 0.0000006722963, y: 0.17851907, z: -0.000000058168776, w: 2.0632625}
        tangentMode: 0
      - serializedVersion: 2
        time: 0.7333333
        value: {x: -0.00000001686605, y: 0.9986595, z: -0.00000032540459, w: -0.051761538}
        inSlope: {x: 0.0000006739047, y: 0.10719727, z: -0.000000034928892, w: 2.0681987}
        outSlope: {x: 0.0000006739047, y: 0.10719727, z: -0.000000034928892, w: 2.0681987}
        tangentMode: 0
      - serializedVersion: 2
        time: 0.74999994
        value: {x: -0.000000005624286, y: 0.99985105, z: -0.00000032579283, w: -0.01726081}
        inSlope: {x: 0.00000067470637, y: 0.035746727, z: -0.000000011647228, w: 2.0706592}
        outSlope: {x: 0.00000067470637, y: 0.035746727, z: -0.000000011647228, w: 2.0706592}
        tangentMode: 0
      - serializedVersion: 2
        time: 0.7666666
        value: {x: 0.000000005624141, y: 0.99985105, z: -0.00000032579283, w: 0.017260365}
        inSlope: {x: 0.00000067470637, y: -0.035746727, z: 0.000000011647228, w: 2.0706592}
        outSlope: {x: 0.00000067470637, y: -0.035746727, z: 0.000000011647228, w: 2.0706592}
        tangentMode: 0
      - serializedVersion: 2
        time: 0.78333324
        value: {x: 0.000000016865904, y: 0.9986595, z: -0.00000032540459, w: 0.05176109}
        inSlope: {x: 0.0000006739024, y: -0.10719548, z: 0.00000003492804, w: 2.0681915}
        outSlope: {x: 0.0000006739024, y: -0.10719548, z: 0.00000003492804, w: 2.0681915}
        tangentMode: 0
      - serializedVersion: 2
        time: 0.7999999
        value: {x: 0.00000002808753, y: 0.99627787, z: -0.00000032462856, w: 0.086200014}
        inSlope: {x: 0.0000006722952, y: -0.17851728, z: 0.000000058168776, w: 2.0632591}
        outSlope: {x: 0.0000006722952, y: -0.17851728, z: 0.000000058168776, w: 2.0632591}
        tangentMode: 0
      - serializedVersion: 2
        time: 0.81666654
        value: {x: 0.000000039275722, y: 0.9927089, z: -0.00000032346563, w: 0.12053633}
        inSlope: {x: 0.0000006698879, y: -0.24962807, z: 0.00000008133959, w: 2.0558712}
        outSlope: {x: 0.0000006698879, y: -0.24962807, z: 0.00000008133959, w: 2.0558712}
        tangentMode: 0
      - serializedVersion: 2
        time: 0.8333332
        value: {x: 0.000000050417107, y: 0.98795694, z: -0.00000032191724, w: 0.154729}
        inSlope: {x: 0.00000066668025, y: -0.32043844, z: 0.00000010441151, w: 2.0460267}
        outSlope: {x: 0.00000066668025, y: -0.32043844, z: 0.00000010441151, w: 2.0460267}
        tangentMode: 0
      - serializedVersion: 2
        time: 0.84999985
        value: {x: 0.000000061498376, y: 0.98202765, z: -0.00000031998525, w: 0.18873715}
        inSlope: {x: 0.0000006626791, y: -0.39086795, z: 0.00000012736064, w: 2.0337477}
        outSlope: {x: 0.0000006626791, y: -0.39086795, z: 0.00000012736064, w: 2.0337477}
        tangentMode: 0
      - serializedVersion: 2
        time: 0.8666665
        value: {x: 0.00000007250639, y: 0.974928, z: -0.0000003176719, w: 0.22252052}
        inSlope: {x: 0.0000006578882, y: -0.46083257, z: 0.00000015015885, w: 2.0190444}
        outSlope: {x: 0.0000006578882, y: -0.46083257, z: 0.00000015015885, w: 2.0190444}
        tangentMode: 0
      - serializedVersion: 2
        time: 0.88333315
        value: {x: 0.00000008342796, y: 0.9666666, z: -0.00000031497996, w: 0.25603858}
        inSlope: {x: 0.00000065231336, y: -0.53024817, z: 0.00000017277716, w: 2.0019352}
        outSlope: {x: 0.00000065231336, y: -0.53024817, z: 0.00000017277716, w: 2.0019352}
        tangentMode: 0
      - serializedVersion: 2
        time: 0.8999998
        value: {x: 0.00000009425015, y: 0.9572531, z: -0.00000031191266, w: 0.28925163}
        inSlope: {x: 0.00000064596196, y: -0.59903264, z: 0.00000019518912, w: 1.9824431}
        outSlope: {x: 0.00000064596196, y: -0.59903264, z: 0.00000019518912, w: 1.9824431}
        tangentMode: 0
      - serializedVersion: 2
        time: 0.91666645
        value: {x: 0.00000010496001, y: 0.94669884, z: -0.00000030847366, w: 0.32211995}
        inSlope: {x: 0.00000063883874, y: -0.66709995, z: 0.0000002173683, w: 1.9605823}
        outSlope: {x: 0.00000063883874, y: -0.66709995, z: 0.0000002173683, w: 1.9605823}
        tangentMode: 0
      - serializedVersion: 2
        time: 0.9333331
        value: {x: 0.00000011554475, y: 0.93501645, z: -0.00000030466705, w: 0.3546043}
        inSlope: {x: 0.00000063095536, y: -0.73437345, z: 0.00000023929, w: 1.9363887}
        outSlope: {x: 0.00000063095536, y: -0.73437345, z: 0.00000023929, w: 1.9363887}
        tangentMode: 0
      - serializedVersion: 2
        time: 0.94999975
        value: {x: 0.00000012599183, y: 0.92221975, z: -0.00000030049733, w: 0.38666618}
        inSlope: {x: 0.0000006223205, y: -0.8007724, z: 0.00000026092516, w: 1.9098876}
        outSlope: {x: 0.0000006223205, y: -0.8007724, z: 0.00000026092516, w: 1.9098876}
        tangentMode: 0
      - serializedVersion: 2
        time: 0.9666664
        value: {x: 0.00000013628875, y: 0.90832406, z: -0.00000029596956, w: 0.41826716}
        inSlope: {x: 0.00000061294344, y: -0.86621845, z: 0.00000028224918, w: 1.8811101}
        outSlope: {x: 0.00000061294344, y: -0.86621845, z: 0.00000028224918, w: 1.8811101}
        tangentMode: 0
      - serializedVersion: 2
        time: 0.98333305
        value: {x: 0.00000014642326, y: 0.89334583, z: -0.00000029108904, w: 0.4493698}
        inSlope: {x: 0.0000006028357, y: -0.9306308, z: 0.00000030323804, w: 1.8500903}
        outSlope: {x: 0.0000006028357, y: -0.9306308, z: 0.00000030323804, w: 1.8500903}
        tangentMode: 0
      - serializedVersion: 2
        time: 0.9999997
        value: {x: 0.00000015638325, y: 0.87730306, z: -0.00000028586163, w: 0.47993678}
        inSlope: {x: 0.0000005920102, y: -0.9939327, z: 0.0000003238648, w: 1.8168662}
        outSlope: {x: 0.0000005920102, y: -0.9939327, z: 0.0000003238648, w: 1.8168662}
        tangentMode: 0
      - serializedVersion: 2
        time: 1.0166664
        value: {x: 0.00000016615695, y: 0.8602147, z: -0.00000028029353, w: 0.50993204}
        inSlope: {x: 0.0000005804802, y: -1.0560546, z: 0.0000003441059, w: 1.7814806}
        outSlope: {x: 0.0000005804802, y: -1.0560546, z: 0.0000003441059, w: 1.7814806}
        tangentMode: 0
      - serializedVersion: 2
        time: 1.0333331
        value: {x: 0.00000017573261, y: 0.8421012, z: -0.00000027439143, w: 0.5393195}
        inSlope: {x: 0.0000005682559, y: -1.116914, z: 0.00000036393664, w: 1.743965}
        outSlope: {x: 0.0000005682559, y: -1.116914, z: 0.00000036393664, w: 1.743965}
        tangentMode: 0
      - serializedVersion: 2
        time: 1.0499997
        value: {x: 0.0000001850988, y: 0.8229843, z: -0.00000026816232, w: 0.56806415}
        inSlope: {x: 0.00000055535617, y: -1.1764448, z: 0.00000038333448, w: 1.7043755}
        outSlope: {x: 0.00000055535617, y: -1.1764448, z: 0.00000038333448, w: 1.7043755}
        tangentMode: 0
      - serializedVersion: 2
        time: 1.0666664
        value: {x: 0.00000019424446, y: 0.8028864, z: -0.00000026161362, w: 0.596132}
        inSlope: {x: 0.0000005417943, y: -1.2345719, z: 0.00000040227445, w: 1.6627548}
        outSlope: {x: 0.0000005417943, y: -1.2345719, z: 0.00000040227445, w: 1.6627548}
        tangentMode: 0
      - serializedVersion: 2
        time: 1.083333
        value: {x: 0.00000020315859, y: 0.7818319, z: -0.0000002547532, w: 0.62348926}
        inSlope: {x: 0.00000052758446, y: -1.2912238, z: 0.00000042073435, w: 1.6191456}
        outSlope: {x: 0.00000052758446, y: -1.2912238, z: 0.00000042073435, w: 1.6191456}
        tangentMode: 0
      - serializedVersion: 2
        time: 1.0999997
        value: {x: 0.0000002118306, y: 0.7598457, z: -0.00000024758916, w: 0.65010345}
        inSlope: {x: 0.0000005127491, y: -1.3463433, z: 0.0000004386946, w: 1.573616}
        outSlope: {x: 0.0000005127491, y: -1.3463433, z: 0.0000004386946, w: 1.573616}
        tangentMode: 0
      - serializedVersion: 2
        time: 1.1166663
        value: {x: 0.00000022025021, y: 0.73695385, z: -0.00000024013005, w: 0.6759431}
        inSlope: {x: 0.00000049730204, y: -1.3998551, z: 0.00000045613092, w: 1.5262088}
        outSlope: {x: 0.00000049730204, y: -1.3998551, z: 0.00000045613092, w: 1.5262088}
        tangentMode: 0
      - serializedVersion: 2
        time: 1.133333
        value: {x: 0.00000022840732, y: 0.7131839, z: -0.0000002323848, w: 0.700977}
        inSlope: {x: 0.00000048126157, y: -1.4517024, z: 0.00000047302453, w: 1.4769813}
        outSlope: {x: 0.00000048126157, y: -1.4517024, z: 0.00000047302453, w: 1.4769813}
        tangentMode: 0
      - serializedVersion: 2
        time: 1.1499996
        value: {x: 0.00000023629225, y: 0.6885638, z: -0.00000022436258, w: 0.72517574}
        inSlope: {x: 0.00000046464766, y: -1.5018167, z: 0.0000004893536, w: 1.4259942}
        outSlope: {x: 0.00000046464766, y: -1.5018167, z: 0.0000004893536, w: 1.4259942}
        tangentMode: 0
      - serializedVersion: 2
        time: 1.1666663
        value: {x: 0.00000024389556, y: 0.66312337, z: -0.00000021607303, w: 0.7485101}
        inSlope: {x: 0.00000044748077, y: -1.5501413, z: 0.00000050510005, w: 1.3733084}
        outSlope: {x: 0.00000044748077, y: -1.5501413, z: 0.00000050510005, w: 1.3733084}
        tangentMode: 0
      - serializedVersion: 2
        time: 1.1833329
        value: {x: 0.00000025120826, y: 0.6368925, z: -0.00000020752593, w: 0.77095264}
        inSlope: {x: 0.00000042977928, y: -1.5966169, z: 0.000000520244, w: 1.3189828}
        outSlope: {x: 0.00000042977928, y: -1.5966169, z: 0.000000520244, w: 1.3189828}
        tangentMode: 0
      - serializedVersion: 2
        time: 1.1999996
        value: {x: 0.00000025822152, y: 0.60990286, z: -0.00000019873158, w: 0.7924762}
        inSlope: {x: 0.0000004115658, y: -1.6411916, z: 0.00000053476845, w: 1.2630874}
        outSlope: {x: 0.0000004115658, y: -1.6411916, z: 0.00000053476845, w: 1.2630874}
        tangentMode: 0
      - serializedVersion: 2
        time: 1.2166662
        value: {x: 0.0000002649271, y: 0.58218616, z: -0.00000018970033, w: 0.8130555}
        inSlope: {x: 0.00000039286545, y: -1.683819, z: 0.00000054865774, w: 1.2056952}
        outSlope: {x: 0.00000039286545, y: -1.683819, z: 0.00000054865774, w: 1.2056952}
        tangentMode: 0
      - serializedVersion: 2
        time: 1.2333329
        value: {x: 0.00000027131702, y: 0.5537756, z: -0.00000018044301, w: 0.832666}
        inSlope: {x: 0.00000037369267, y: -1.724426, z: 0.00000056188924, w: 1.1468529}
        outSlope: {x: 0.00000037369267, y: -1.724426, z: 0.00000056188924, w: 1.1468529}
        tangentMode: 0
      - serializedVersion: 2
        time: 1.2499995
        value: {x: 0.00000027738352, y: 0.52470535, z: -0.00000017097071, w: 0.8512839}
        inSlope: {x: 0.00000035407402, y: -1.7629819, z: 0.00000057445266, w: 1.0866461}
        outSlope: {x: 0.00000035407402, y: -1.7629819, z: 0.00000057445266, w: 1.0866461}
        tangentMode: 0
      - serializedVersion: 2
        time: 1.2666662
        value: {x: 0.00000028311948, y: 0.4950096, z: -0.00000016129461, w: 0.8688875}
        inSlope: {x: 0.00000033403586, y: -1.7994385, z: 0.00000058633134, w: 1.0251484}
        outSlope: {x: 0.00000033403586, y: -1.7994385, z: 0.00000058633134, w: 1.0251484}
        tangentMode: 0
      - serializedVersion: 2
        time: 1.2833328
        value: {x: 0.00000028851804, y: 0.46472412, z: -0.00000015142635, w: 0.8854555}
        inSlope: {x: 0.00000031359946, y: -1.8337512, z: 0.00000059751216, w: 0.9624294}
        outSlope: {x: 0.00000031359946, y: -1.8337512, z: 0.00000059751216, w: 0.9624294}
        tangentMode: 0
      - serializedVersion: 2
        time: 1.2999995
        value: {x: 0.00000029357278, y: 0.43388462, z: -0.00000014137755, w: 0.90096843}
        inSlope: {x: 0.0000002927888, y: -1.8658769, z: 0.00000060798016, w: 0.8985623}
        outSlope: {x: 0.0000002927888, y: -1.8658769, z: 0.00000060798016, w: 0.8985623}
        tangentMode: 0
      - serializedVersion: 2
        time: 1.3166661
        value: {x: 0.00000029827766, y: 0.4025283, z: -0.00000013116036, w: 0.91540754}
        inSlope: {x: 0.00000027162852, y: -1.8957791, z: 0.000000617723, w: 0.83362246}
        outSlope: {x: 0.00000027162852, y: -1.8957791, z: 0.000000617723, w: 0.83362246}
        tangentMode: 0
      - serializedVersion: 2
        time: 1.3333328
        value: {x: 0.00000030262706, y: 0.37069204, z: -0.00000012078681, w: 0.9287558}
        inSlope: {x: 0.0000002501451, y: -1.9234228, z: 0.00000062673064, w: 0.76769185}
        outSlope: {x: 0.0000002501451, y: -1.9234228, z: 0.00000062673064, w: 0.76769185}
        tangentMode: 0
      - serializedVersion: 2
        time: 1.3499994
        value: {x: 0.00000030661582, y: 0.33841425, z: -0.00000011026936, w: 0.94099724}
        inSlope: {x: 0.00000022836497, y: -1.948776, z: 0.000000634992, w: 0.70084584}
        outSlope: {x: 0.00000022836497, y: -1.948776, z: 0.000000634992, w: 0.70084584}
        tangentMode: 0
      - serializedVersion: 2
        time: 1.3666661
        value: {x: 0.00000031023922, y: 0.3057329, z: -0.00000009962043, w: 0.9521173}
        inSlope: {x: 0.00000020631111, y: -1.9718046, z: 0.00000064249554, w: 0.63316286}
        outSlope: {x: 0.00000020631111, y: -1.9718046, z: 0.00000064249554, w: 0.63316286}
        tangentMode: 0
      - serializedVersion: 2
        time: 1.3833327
        value: {x: 0.00000031349285, y: 0.2726875, z: -0.000000088852865, w: 0.96210265}
        inSlope: {x: 0.0000001840117, y: -1.9924836, z: 0.0000006492336, w: 0.5647271}
        outSlope: {x: 0.0000001840117, y: -1.9924836, z: 0.0000006492336, w: 0.5647271}
        tangentMode: 0
      - serializedVersion: 2
        time: 1.3999994
        value: {x: 0.00000031637293, y: 0.23931685, z: -0.00000007797933, w: 0.97094154}
        inSlope: {x: 0.00000016149316, y: -2.0107894, z: 0.00000065519833, w: 0.49561906}
        outSlope: {x: 0.00000016149316, y: -2.0107894, z: 0.00000065519833, w: 0.49561906}
        tangentMode: 0
      - serializedVersion: 2
        time: 1.416666
        value: {x: 0.00000031887595, y: 0.20566125, z: -0.00000006701294, w: 0.9786233}
        inSlope: {x: 0.00000013878108, y: -2.0266984, z: 0.00000066038217, w: 0.42591733}
        outSlope: {x: 0.00000013878108, y: -2.0266984, z: 0.00000066038217, w: 0.42591733}
        tangentMode: 0
      - serializedVersion: 2
        time: 1.4333327
        value: {x: 0.00000032099896, y: 0.1717603, z: -0.000000055966613, w: 0.9851388}
        inSlope: {x: 0.000000115905266, y: -2.0401907, z: 0.00000066477844, w: 0.35570955}
        outSlope: {x: 0.000000115905266, y: -2.0401907, z: 0.00000066477844, w: 0.35570955}
        tangentMode: 0
      - serializedVersion: 2
        time: 1.4499993
        value: {x: 0.00000032273945, y: 0.13765496, z: -0.00000004485368, w: 0.99048024}
        inSlope: {x: 0.000000092890474, y: -2.0512528, z: 0.000000668383, w: 0.28507796}
        outSlope: {x: 0.000000092890474, y: -2.0512528, z: 0.000000668383, w: 0.28507796}
        tangentMode: 0
      - serializedVersion: 2
        time: 1.466666
        value: {x: 0.0000003240953, y: 0.10338528, z: -0.0000000336872, w: 0.99464136}
        inSlope: {x: 0.00000006976485, y: -2.0598707, z: 0.0000006711912, w: 0.21410844}
        outSlope: {x: 0.00000006976485, y: -2.0598707, z: 0.0000006711912, w: 0.21410844}
        tangentMode: 0
      - serializedVersion: 2
        time: 1.4833326
        value: {x: 0.00000032506495, y: 0.06899267, z: -0.000000022480664, w: 0.9976172}
        inSlope: {x: 0.000000046556508, y: -2.0660334, z: 0.0000006731991, w: 0.14288141}
        outSlope: {x: 0.000000046556508, y: -2.0660334, z: 0.0000006731991, w: 0.14288141}
        tangentMode: 0
      - serializedVersion: 2
        time: 1.4999993
        value: {x: 0.0000003256472, y: 0.034517568, z: -0.000000011247251, w: 0.9994041}
        inSlope: {x: 0.0000000232925, y: -2.0697374, z: 0.0000006744061, w: 0.071483746}
        outSlope: {x: 0.0000000232925, y: -2.0697374, z: 0.0000006744061, w: 0.071483746}
        tangentMode: 0
      - serializedVersion: 2
        time: 1.5166667
        value: {x: 0.00000032584137, y: -0, z: -0, w: 1}
        inSlope: {x: 0.000000011650139, y: -2.0709672, z: 0.00000067480676, w: 0.035754133}
        outSlope: {x: 0.000000011650139, y: -2.0709672, z: 0.00000067480676, w: 0.035754133}
        tangentMode: 0
      m_PreInfinity: 2
      m_PostInfinity: 2
      m_RotationOrder: 4
    path: 
  m_CompressedRotationCurves: []
  m_EulerCurves: []
  m_PositionCurves: []
  m_ScaleCurves: []
  m_FloatCurves: []
  m_PPtrCurves: []
  m_SampleRate: 60
  m_WrapMode: 0
  m_Bounds:
    m_Center: {x: 0, y: 0, z: 0}
    m_Extent: {x: 0, y: 0, z: 0}
  m_ClipBindingConstant:
    genericBindings:
    - serializedVersion: 2
      path: 0
      attribute: 2
      script: {fileID: 0}
      typeID: 4
      customType: 0
      isPPtrCurve: 0
    pptrCurveMapping: []
  m_AnimationClipSettings:
    serializedVersion: 2
    m_AdditiveReferencePoseClip: {fileID: 0}
    m_AdditiveReferencePoseTime: 0
    m_StartTime: 0
    m_StopTime: 1.5166667
    m_OrientationOffsetY: 0
    m_Level: 0
    m_CycleOffset: 0
    m_HasAdditiveReferencePose: 0
    m_LoopTime: 1
    m_LoopBlend: 0
    m_LoopBlendOrientation: 0
    m_LoopBlendPositionY: 0
    m_LoopBlendPositionXZ: 0
    m_KeepOriginalOrientation: 0
    m_KeepOriginalPositionY: 1
    m_KeepOriginalPositionXZ: 0
    m_HeightFromFeet: 0
    m_Mirror: 0
  m_EditorCurves:
  - curve:
      serializedVersion: 2
      m_Curve:
      - serializedVersion: 2
        time: 0
        value: -0.00000032584137
        inSlope: 0.000000011648921
        outSlope: 0.000000011648921
        tangentMode: 0
      - serializedVersion: 2
        time: 0.016666668
        value: -0.00000032564722
        inSlope: 0.00000002329102
        outSlope: 0.00000002329102
        tangentMode: 0
      - serializedVersion: 2
        time: 0.033333335
        value: -0.000000325065
        inSlope: 0.000000046555606
        outSlope: 0.000000046555606
        tangentMode: 0
      - serializedVersion: 2
        time: 0.050000004
        value: -0.00000032409537
        inSlope: 0.00000006976478
        outSlope: 0.00000006976478
        tangentMode: 0
      - serializedVersion: 2
        time: 0.06666667
        value: -0.0000003227395
        inSlope: 0.00000009288954
        outSlope: 0.00000009288954
        tangentMode: 0
      - serializedVersion: 2
        time: 0.083333336
        value: -0.00000032099905
        inSlope: 0.000000115904314
        outSlope: 0.000000115904314
        tangentMode: 0
      - serializedVersion: 2
        time: 0.1
        value: -0.00000031887603
        inSlope: 0.0000001387801
        outSlope: 0.0000001387801
        tangentMode: 0
      - serializedVersion: 2
        time: 0.11666667
        value: -0.00000031637305
        inSlope: 0.00000016149127
        outSlope: 0.00000016149127
        tangentMode: 0
      - serializedVersion: 2
        time: 0.13333334
        value: -0.000000313493
        inSlope: 0.00000018401064
        outSlope: 0.00000018401064
        tangentMode: 0
      - serializedVersion: 2
        time: 0.15
        value: -0.00000031023936
        inSlope: 0.00000020630922
        outSlope: 0.00000020630922
        tangentMode: 0
      - serializedVersion: 2
        time: 0.16666667
        value: -0.00000030661602
        inSlope: 0.00000022836306
        outSlope: 0.00000022836306
        tangentMode: 0
      - serializedVersion: 2
        time: 0.18333334
        value: -0.00000030262726
        inSlope: 0.00000025014575
        outSlope: 0.00000025014575
        tangentMode: 0
      - serializedVersion: 2
        time: 0.2
        value: -0.00000029827783
        inSlope: 0.00000027162915
        outSlope: 0.00000027162915
        tangentMode: 0
      - serializedVersion: 2
        time: 0.21666667
        value: -0.00000029357295
        inSlope: 0.00000029278684
        outSlope: 0.00000029278684
        tangentMode: 0
      - serializedVersion: 2
        time: 0.23333333
        value: -0.00000028851827
        inSlope: 0.00000031359835
        outSlope: 0.00000031359835
        tangentMode: 0
      - serializedVersion: 2
        time: 0.25
        value: -0.00000028311968
        inSlope: 0.0000003340354
        outSlope: 0.0000003340354
        tangentMode: 0
      - serializedVersion: 2
        time: 0.26666668
        value: -0.00000027738375
        inSlope: 0.0000003540734
        outSlope: 0.0000003540734
        tangentMode: 0
      - serializedVersion: 2
        time: 0.28333336
        value: -0.00000027131722
        inSlope: 0.00000037369202
        outSlope: 0.00000037369202
        tangentMode: 0
      - serializedVersion: 2
        time: 0.30000004
        value: -0.00000026492734
        inSlope: 0.00000039286385
        outSlope: 0.00000039286385
        tangentMode: 0
      - serializedVersion: 2
        time: 0.31666672
        value: -0.00000025822175
        inSlope: 0.00000041156676
        outSlope: 0.00000041156676
        tangentMode: 0
      - serializedVersion: 2
        time: 0.3333334
        value: -0.00000025120843
        inSlope: 0.00000042977854
        outSlope: 0.00000042977854
        tangentMode: 0
      - serializedVersion: 2
        time: 0.35000008
        value: -0.00000024389578
        inSlope: 0.00000044747912
        outSlope: 0.00000044747912
        tangentMode: 0
      - serializedVersion: 2
        time: 0.36666676
        value: -0.00000023629245
        inSlope: 0.00000046464726
        outSlope: 0.00000046464726
        tangentMode: 0
      - serializedVersion: 2
        time: 0.38333344
        value: -0.00000022840753
        inSlope: 0.00000048125946
        outSlope: 0.00000048125946
        tangentMode: 0
      - serializedVersion: 2
        time: 0.40000013
        value: -0.00000022025046
        inSlope: 0.00000049730164
        outSlope: 0.00000049730164
        tangentMode: 0
      - serializedVersion: 2
        time: 0.4166668
        value: -0.0000002118308
        inSlope: 0.0000005127504
        outSlope: 0.0000005127504
        tangentMode: 0
      - serializedVersion: 2
        time: 0.4333335
        value: -0.00000020315876
        inSlope: 0.0000005275865
        outSlope: 0.0000005275865
        tangentMode: 0
      - serializedVersion: 2
        time: 0.45000017
        value: -0.00000019424456
        inSlope: 0.00000054179293
        outSlope: 0.00000054179293
        tangentMode: 0
      - serializedVersion: 2
        time: 0.46666685
        value: -0.00000018509898
        inSlope: 0.0000005553535
        outSlope: 0.0000005553535
        tangentMode: 0
      - serializedVersion: 2
        time: 0.48333353
        value: -0.00000017573277
        inSlope: 0.0000005682563
        outSlope: 0.0000005682563
        tangentMode: 0
      - serializedVersion: 2
        time: 0.5000002
        value: -0.00000016615711
        inSlope: 0.00000058048
        outSlope: 0.00000058048
        tangentMode: 0
      - serializedVersion: 2
        time: 0.5166668
        value: -0.00000015638345
        inSlope: 0.00000059201085
        outSlope: 0.00000059201085
        tangentMode: 0
      - serializedVersion: 2
        time: 0.5333335
        value: -0.00000014642343
        inSlope: 0.00000060283696
        outSlope: 0.00000060283696
        tangentMode: 0
      - serializedVersion: 2
        time: 0.55000013
        value: -0.0000001362889
        inSlope: 0.00000061294304
        outSlope: 0.00000061294304
        tangentMode: 0
      - serializedVersion: 2
        time: 0.5666668
        value: -0.00000012599202
        inSlope: 0.0000006223198
        outSlope: 0.0000006223198
        tangentMode: 0
      - serializedVersion: 2
        time: 0.58333343
        value: -0.00000011554493
        inSlope: 0.0000006309557
        outSlope: 0.0000006309557
        tangentMode: 0
      - serializedVersion: 2
        time: 0.6000001
        value: -0.00000010496018
        inSlope: 0.0000006388389
        outSlope: 0.0000006388389
        tangentMode: 0
      - serializedVersion: 2
        time: 0.61666673
        value: -0.00000009425032
        inSlope: 0.00000064596196
        outSlope: 0.00000064596196
        tangentMode: 0
      - serializedVersion: 2
        time: 0.6333334
        value: -0.000000083428134
        inSlope: 0.00000065231313
        outSlope: 0.00000065231313
        tangentMode: 0
      - serializedVersion: 2
        time: 0.65000004
        value: -0.000000072506566
        inSlope: 0.000000657888
        outSlope: 0.000000657888
        tangentMode: 0
      - serializedVersion: 2
        time: 0.6666667
        value: -0.000000061498554
        inSlope: 0.0000006626789
        outSlope: 0.0000006626789
        tangentMode: 0
      - serializedVersion: 2
        time: 0.68333334
        value: -0.00000005041729
        inSlope: 0.0000006666801
        outSlope: 0.0000006666801
        tangentMode: 0
      - serializedVersion: 2
        time: 0.7
        value: -0.000000039275907
        inSlope: 0.00000066988673
        outSlope: 0.00000066988673
        tangentMode: 0
      - serializedVersion: 2
        time: 0.71666664
        value: -0.000000028087754
        inSlope: 0.0000006722963
        outSlope: 0.0000006722963
        tangentMode: 0
      - serializedVersion: 2
        time: 0.7333333
        value: -0.00000001686605
        inSlope: 0.0000006739047
        outSlope: 0.0000006739047
        tangentMode: 0
      - serializedVersion: 2
        time: 0.74999994
        value: -0.000000005624286
        inSlope: 0.00000067470637
        outSlope: 0.00000067470637
        tangentMode: 0
      - serializedVersion: 2
        time: 0.7666666
        value: 0.000000005624141
        inSlope: 0.00000067470637
        outSlope: 0.00000067470637
        tangentMode: 0
      - serializedVersion: 2
        time: 0.78333324
        value: 0.000000016865904
        inSlope: 0.0000006739024
        outSlope: 0.0000006739024
        tangentMode: 0
      - serializedVersion: 2
        time: 0.7999999
        value: 0.00000002808753
        inSlope: 0.0000006722952
        outSlope: 0.0000006722952
        tangentMode: 0
      - serializedVersion: 2
        time: 0.81666654
        value: 0.000000039275722
        inSlope: 0.0000006698879
        outSlope: 0.0000006698879
        tangentMode: 0
      - serializedVersion: 2
        time: 0.8333332
        value: 0.000000050417107
        inSlope: 0.00000066668025
        outSlope: 0.00000066668025
        tangentMode: 0
      - serializedVersion: 2
        time: 0.84999985
        value: 0.000000061498376
        inSlope: 0.0000006626791
        outSlope: 0.0000006626791
        tangentMode: 0
      - serializedVersion: 2
        time: 0.8666665
        value: 0.00000007250639
        inSlope: 0.0000006578882
        outSlope: 0.0000006578882
        tangentMode: 0
      - serializedVersion: 2
        time: 0.88333315
        value: 0.00000008342796
        inSlope: 0.00000065231336
        outSlope: 0.00000065231336
        tangentMode: 0
      - serializedVersion: 2
        time: 0.8999998
        value: 0.00000009425015
        inSlope: 0.00000064596196
        outSlope: 0.00000064596196
        tangentMode: 0
      - serializedVersion: 2
        time: 0.91666645
        value: 0.00000010496001
        inSlope: 0.00000063883874
        outSlope: 0.00000063883874
        tangentMode: 0
      - serializedVersion: 2
        time: 0.9333331
        value: 0.00000011554475
        inSlope: 0.00000063095536
        outSlope: 0.00000063095536
        tangentMode: 0
      - serializedVersion: 2
        time: 0.94999975
        value: 0.00000012599183
        inSlope: 0.0000006223205
        outSlope: 0.0000006223205
        tangentMode: 0
      - serializedVersion: 2
        time: 0.9666664
        value: 0.00000013628875
        inSlope: 0.00000061294344
        outSlope: 0.00000061294344
        tangentMode: 0
      - serializedVersion: 2
        time: 0.98333305
        value: 0.00000014642326
        inSlope: 0.0000006028357
        outSlope: 0.0000006028357
        tangentMode: 0
      - serializedVersion: 2
        time: 0.9999997
        value: 0.00000015638325
        inSlope: 0.0000005920102
        outSlope: 0.0000005920102
        tangentMode: 0
      - serializedVersion: 2
        time: 1.0166664
        value: 0.00000016615695
        inSlope: 0.0000005804802
        outSlope: 0.0000005804802
        tangentMode: 0
      - serializedVersion: 2
        time: 1.0333331
        value: 0.00000017573261
        inSlope: 0.0000005682559
        outSlope: 0.0000005682559
        tangentMode: 0
      - serializedVersion: 2
        time: 1.0499997
        value: 0.0000001850988
        inSlope: 0.00000055535617
        outSlope: 0.00000055535617
        tangentMode: 0
      - serializedVersion: 2
        time: 1.0666664
        value: 0.00000019424446
        inSlope: 0.0000005417943
        outSlope: 0.0000005417943
        tangentMode: 0
      - serializedVersion: 2
        time: 1.083333
        value: 0.00000020315859
        inSlope: 0.00000052758446
        outSlope: 0.00000052758446
        tangentMode: 0
      - serializedVersion: 2
        time: 1.0999997
        value: 0.0000002118306
        inSlope: 0.0000005127491
        outSlope: 0.0000005127491
        tangentMode: 0
      - serializedVersion: 2
        time: 1.1166663
        value: 0.00000022025021
        inSlope: 0.00000049730204
        outSlope: 0.00000049730204
        tangentMode: 0
      - serializedVersion: 2
        time: 1.133333
        value: 0.00000022840732
        inSlope: 0.00000048126157
        outSlope: 0.00000048126157
        tangentMode: 0
      - serializedVersion: 2
        time: 1.1499996
        value: 0.00000023629225
        inSlope: 0.00000046464766
        outSlope: 0.00000046464766
        tangentMode: 0
      - serializedVersion: 2
        time: 1.1666663
        value: 0.00000024389556
        inSlope: 0.00000044748077
        outSlope: 0.00000044748077
        tangentMode: 0
      - serializedVersion: 2
        time: 1.1833329
        value: 0.00000025120826
        inSlope: 0.00000042977928
        outSlope: 0.00000042977928
        tangentMode: 0
      - serializedVersion: 2
        time: 1.1999996
        value: 0.00000025822152
        inSlope: 0.0000004115658
        outSlope: 0.0000004115658
        tangentMode: 0
      - serializedVersion: 2
        time: 1.2166662
        value: 0.0000002649271
        inSlope: 0.00000039286545
        outSlope: 0.00000039286545
        tangentMode: 0
      - serializedVersion: 2
        time: 1.2333329
        value: 0.00000027131702
        inSlope: 0.00000037369267
        outSlope: 0.00000037369267
        tangentMode: 0
      - serializedVersion: 2
        time: 1.2499995
        value: 0.00000027738352
        inSlope: 0.00000035407402
        outSlope: 0.00000035407402
        tangentMode: 0
      - serializedVersion: 2
        time: 1.2666662
        value: 0.00000028311948
        inSlope: 0.00000033403586
        outSlope: 0.00000033403586
        tangentMode: 0
      - serializedVersion: 2
        time: 1.2833328
        value: 0.00000028851804
        inSlope: 0.00000031359946
        outSlope: 0.00000031359946
        tangentMode: 0
      - serializedVersion: 2
        time: 1.2999995
        value: 0.00000029357278
        inSlope: 0.0000002927888
        outSlope: 0.0000002927888
        tangentMode: 0
      - serializedVersion: 2
        time: 1.3166661
        value: 0.00000029827766
        inSlope: 0.00000027162852
        outSlope: 0.00000027162852
        tangentMode: 0
      - serializedVersion: 2
        time: 1.3333328
        value: 0.00000030262706
        inSlope: 0.0000002501451
        outSlope: 0.0000002501451
        tangentMode: 0
      - serializedVersion: 2
        time: 1.3499994
        value: 0.00000030661582
        inSlope: 0.00000022836497
        outSlope: 0.00000022836497
        tangentMode: 0
      - serializedVersion: 2
        time: 1.3666661
        value: 0.00000031023922
        inSlope: 0.00000020631111
        outSlope: 0.00000020631111
        tangentMode: 0
      - serializedVersion: 2
        time: 1.3833327
        value: 0.00000031349285
        inSlope: 0.0000001840117
        outSlope: 0.0000001840117
        tangentMode: 0
      - serializedVersion: 2
        time: 1.3999994
        value: 0.00000031637293
        inSlope: 0.00000016149316
        outSlope: 0.00000016149316
        tangentMode: 0
      - serializedVersion: 2
        time: 1.416666
        value: 0.00000031887595
        inSlope: 0.00000013878108
        outSlope: 0.00000013878108
        tangentMode: 0
      - serializedVersion: 2
        time: 1.4333327
        value: 0.00000032099896
        inSlope: 0.000000115905266
        outSlope: 0.000000115905266
        tangentMode: 0
      - serializedVersion: 2
        time: 1.4499993
        value: 0.00000032273945
        inSlope: 0.000000092890474
        outSlope: 0.000000092890474
        tangentMode: 0
      - serializedVersion: 2
        time: 1.466666
        value: 0.0000003240953
        inSlope: 0.00000006976485
        outSlope: 0.00000006976485
        tangentMode: 0
      - serializedVersion: 2
        time: 1.4833326
        value: 0.00000032506495
        inSlope: 0.000000046556508
        outSlope: 0.000000046556508
        tangentMode: 0
      - serializedVersion: 2
        time: 1.4999993
        value: 0.0000003256472
        inSlope: 0.0000000232925
        outSlope: 0.0000000232925
        tangentMode: 0
      - serializedVersion: 2
        time: 1.5166667
        value: 0.00000032584137
        inSlope: 0.000000011650139
        outSlope: 0.000000011650139
        tangentMode: 0
      m_PreInfinity: 2
      m_PostInfinity: 2
      m_RotationOrder: 4
    attribute: m_LocalRotation.x
    path: 
    classID: 4
    script: {fileID: 0}
  - curve:
      serializedVersion: 2
      m_Curve:
      - serializedVersion: 2
        time: 0
        value: -0.00000032584137
        inSlope: 2.070969
        outSlope: 2.070969
        tangentMode: 0
      - serializedVersion: 2
        time: 0.016666668
        value: 0.034515828
        inSlope: 2.069735
        outSlope: 2.069735
        tangentMode: 0
      - serializedVersion: 2
        time: 0.033333335
        value: 0.06899085
        inSlope: 2.0660346
        outSlope: 2.0660346
        tangentMode: 0
      - serializedVersion: 2
        time: 0.050000004
        value: 0.10338365
        inSlope: 2.0598717
        outSlope: 2.0598717
        tangentMode: 0
      - serializedVersion: 2
        time: 0.06666667
        value: 0.13765325
        inSlope: 2.0512545
        outSlope: 2.0512545
        tangentMode: 0
      - serializedVersion: 2
        time: 0.083333336
        value: 0.1717588
        inSlope: 2.0401928
        outSlope: 2.0401928
        tangentMode: 0
      - serializedVersion: 2
        time: 0.1
        value: 0.20565967
        inSlope: 2.0266995
        outSlope: 2.0266995
        tangentMode: 0
      - serializedVersion: 2
        time: 0.11666667
        value: 0.23931545
        inSlope: 2.0107832
        outSlope: 2.0107832
        tangentMode: 0
      - serializedVersion: 2
        time: 0.13333334
        value: 0.2726858
        inSlope: 1.9924848
        outSlope: 1.9924848
        tangentMode: 0
      - serializedVersion: 2
        time: 0.15
        value: 0.30573162
        inSlope: 1.9718064
        outSlope: 1.9718064
        tangentMode: 0
      - serializedVersion: 2
        time: 0.16666667
        value: 0.33841267
        inSlope: 1.9487708
        outSlope: 1.9487708
        tangentMode: 0
      - serializedVersion: 2
        time: 0.18333334
        value: 0.37069064
        inSlope: 1.9234328
        outSlope: 1.9234328
        tangentMode: 0
      - serializedVersion: 2
        time: 0.2
        value: 0.4025271
        inSlope: 1.895789
        outSlope: 1.895789
        tangentMode: 0
      - serializedVersion: 2
        time: 0.21666667
        value: 0.4338836
        inSlope: 1.8658726
        outSlope: 1.8658726
        tangentMode: 0
      - serializedVersion: 2
        time: 0.23333333
        value: 0.46472284
        inSlope: 1.8337522
        outSlope: 1.8337522
        tangentMode: 0
      - serializedVersion: 2
        time: 0.25
        value: 0.49500868
        inSlope: 1.7994406
        outSlope: 1.7994406
        tangentMode: 0
      - serializedVersion: 2
        time: 0.26666668
        value: 0.5247042
        inSlope: 1.7629762
        outSlope: 1.7629762
        tangentMode: 0
      - serializedVersion: 2
        time: 0.28333336
        value: 0.5537746
        inSlope: 1.7244301
        outSlope: 1.7244301
        tangentMode: 0
      - serializedVersion: 2
        time: 0.30000004
        value: 0.58218527
        inSlope: 1.6838197
        outSlope: 1.6838197
        tangentMode: 0
      - serializedVersion: 2
        time: 0.31666672
        value: 0.60990196
        inSlope: 1.6411941
        outSlope: 1.6411941
        tangentMode: 0
      - serializedVersion: 2
        time: 0.3333334
        value: 0.6368918
        inSlope: 1.5966194
        outSlope: 1.5966194
        tangentMode: 0
      - serializedVersion: 2
        time: 0.35000008
        value: 0.66312265
        inSlope: 1.550142
        outSlope: 1.550142
        tangentMode: 0
      - serializedVersion: 2
        time: 0.36666676
        value: 0.6885632
        inSlope: 1.5018158
        outSlope: 1.5018158
        tangentMode: 0
      - serializedVersion: 2
        time: 0.38333344
        value: 0.7131832
        inSlope: 1.4516962
        outSlope: 1.4516962
        tangentMode: 0
      - serializedVersion: 2
        time: 0.40000013
        value: 0.73695314
        inSlope: 1.399858
        outSlope: 1.399858
        tangentMode: 0
      - serializedVersion: 2
        time: 0.4166668
        value: 0.7598452
        inSlope: 1.3463497
        outSlope: 1.3463497
        tangentMode: 0
      - serializedVersion: 2
        time: 0.4333335
        value: 0.7818315
        inSlope: 1.2912304
        outSlope: 1.2912304
        tangentMode: 0
      - serializedVersion: 2
        time: 0.45000017
        value: 0.80288625
        inSlope: 1.2345715
        outSlope: 1.2345715
        tangentMode: 0
      - serializedVersion: 2
        time: 0.46666685
        value: 0.8229839
        inSlope: 1.1764392
        outSlope: 1.1764392
        tangentMode: 0
      - serializedVersion: 2
        time: 0.48333353
        value: 0.8421009
        inSlope: 1.1169147
        outSlope: 1.1169147
        tangentMode: 0
      - serializedVersion: 2
        time: 0.5000002
        value: 0.8602144
        inSlope: 1.0560565
        outSlope: 1.0560565
        tangentMode: 0
      - serializedVersion: 2
        time: 0.5166668
        value: 0.87730277
        inSlope: 0.9939364
        outSlope: 0.9939364
        tangentMode: 0
      - serializedVersion: 2
        time: 0.5333335
        value: 0.8933456
        inSlope: 0.9306326
        outSlope: 0.9306326
        tangentMode: 0
      - serializedVersion: 2
        time: 0.55000013
        value: 0.9083238
        inSlope: 0.86621845
        outSlope: 0.86621845
        tangentMode: 0
      - serializedVersion: 2
        time: 0.5666668
        value: 0.9222195
        inSlope: 0.8007742
        outSlope: 0.8007742
        tangentMode: 0
      - serializedVersion: 2
        time: 0.58333343
        value: 0.9350163
        inSlope: 0.73437524
        outSlope: 0.73437524
        tangentMode: 0
      - serializedVersion: 2
        time: 0.6000001
        value: 0.94669867
        inSlope: 0.66709995
        outSlope: 0.66709995
        tangentMode: 0
      - serializedVersion: 2
        time: 0.61666673
        value: 0.9572529
        inSlope: 0.59903264
        outSlope: 0.59903264
        tangentMode: 0
      - serializedVersion: 2
        time: 0.6333334
        value: 0.9666664
        inSlope: 0.53024995
        outSlope: 0.53024995
        tangentMode: 0
      - serializedVersion: 2
        time: 0.65000004
        value: 0.9749279
        inSlope: 0.46083435
        outSlope: 0.46083435
        tangentMode: 0
      - serializedVersion: 2
        time: 0.6666667
        value: 0.98202753
        inSlope: 0.39086974
        outSlope: 0.39086974
        tangentMode: 0
      - serializedVersion: 2
        time: 0.68333334
        value: 0.9879569
        inSlope: 0.32044023
        outSlope: 0.32044023
        tangentMode: 0
      - serializedVersion: 2
        time: 0.7
        value: 0.99270886
        inSlope: 0.24962807
        outSlope: 0.24962807
        tangentMode: 0
      - serializedVersion: 2
        time: 0.71666664
        value: 0.9962778
        inSlope: 0.17851907
        outSlope: 0.17851907
        tangentMode: 0
      - serializedVersion: 2
        time: 0.7333333
        value: 0.9986595
        inSlope: 0.10719727
        outSlope: 0.10719727
        tangentMode: 0
      - serializedVersion: 2
        time: 0.74999994
        value: 0.99985105
        inSlope: 0.035746727
        outSlope: 0.035746727
        tangentMode: 0
      - serializedVersion: 2
        time: 0.7666666
        value: 0.99985105
        inSlope: -0.035746727
        outSlope: -0.035746727
        tangentMode: 0
      - serializedVersion: 2
        time: 0.78333324
        value: 0.9986595
        inSlope: -0.10719548
        outSlope: -0.10719548
        tangentMode: 0
      - serializedVersion: 2
        time: 0.7999999
        value: 0.99627787
        inSlope: -0.17851728
        outSlope: -0.17851728
        tangentMode: 0
      - serializedVersion: 2
        time: 0.81666654
        value: 0.9927089
        inSlope: -0.24962807
        outSlope: -0.24962807
        tangentMode: 0
      - serializedVersion: 2
        time: 0.8333332
        value: 0.98795694
        inSlope: -0.32043844
        outSlope: -0.32043844
        tangentMode: 0
      - serializedVersion: 2
        time: 0.84999985
        value: 0.98202765
        inSlope: -0.39086795
        outSlope: -0.39086795
        tangentMode: 0
      - serializedVersion: 2
        time: 0.8666665
        value: 0.974928
        inSlope: -0.46083257
        outSlope: -0.46083257
        tangentMode: 0
      - serializedVersion: 2
        time: 0.88333315
        value: 0.9666666
        inSlope: -0.53024817
        outSlope: -0.53024817
        tangentMode: 0
      - serializedVersion: 2
        time: 0.8999998
        value: 0.9572531
        inSlope: -0.59903264
        outSlope: -0.59903264
        tangentMode: 0
      - serializedVersion: 2
        time: 0.91666645
        value: 0.94669884
        inSlope: -0.66709995
        outSlope: -0.66709995
        tangentMode: 0
      - serializedVersion: 2
        time: 0.9333331
        value: 0.93501645
        inSlope: -0.73437345
        outSlope: -0.73437345
        tangentMode: 0
      - serializedVersion: 2
        time: 0.94999975
        value: 0.92221975
        inSlope: -0.8007724
        outSlope: -0.8007724
        tangentMode: 0
      - serializedVersion: 2
        time: 0.9666664
        value: 0.90832406
        inSlope: -0.86621845
        outSlope: -0.86621845
        tangentMode: 0
      - serializedVersion: 2
        time: 0.98333305
        value: 0.89334583
        inSlope: -0.9306308
        outSlope: -0.9306308
        tangentMode: 0
      - serializedVersion: 2
        time: 0.9999997
        value: 0.87730306
        inSlope: -0.9939327
        outSlope: -0.9939327
        tangentMode: 0
      - serializedVersion: 2
        time: 1.0166664
        value: 0.8602147
        inSlope: -1.0560546
        outSlope: -1.0560546
        tangentMode: 0
      - serializedVersion: 2
        time: 1.0333331
        value: 0.8421012
        inSlope: -1.116914
        outSlope: -1.116914
        tangentMode: 0
      - serializedVersion: 2
        time: 1.0499997
        value: 0.8229843
        inSlope: -1.1764448
        outSlope: -1.1764448
        tangentMode: 0
      - serializedVersion: 2
        time: 1.0666664
        value: 0.8028864
        inSlope: -1.2345719
        outSlope: -1.2345719
        tangentMode: 0
      - serializedVersion: 2
        time: 1.083333
        value: 0.7818319
        inSlope: -1.2912238
        outSlope: -1.2912238
        tangentMode: 0
      - serializedVersion: 2
        time: 1.0999997
        value: 0.7598457
        inSlope: -1.3463433
        outSlope: -1.3463433
        tangentMode: 0
      - serializedVersion: 2
        time: 1.1166663
        value: 0.73695385
        inSlope: -1.3998551
        outSlope: -1.3998551
        tangentMode: 0
      - serializedVersion: 2
        time: 1.133333
        value: 0.7131839
        inSlope: -1.4517024
        outSlope: -1.4517024
        tangentMode: 0
      - serializedVersion: 2
        time: 1.1499996
        value: 0.6885638
        inSlope: -1.5018167
        outSlope: -1.5018167
        tangentMode: 0
      - serializedVersion: 2
        time: 1.1666663
        value: 0.66312337
        inSlope: -1.5501413
        outSlope: -1.5501413
        tangentMode: 0
      - serializedVersion: 2
        time: 1.1833329
        value: 0.6368925
        inSlope: -1.5966169
        outSlope: -1.5966169
        tangentMode: 0
      - serializedVersion: 2
        time: 1.1999996
        value: 0.60990286
        inSlope: -1.6411916
        outSlope: -1.6411916
        tangentMode: 0
      - serializedVersion: 2
        time: 1.2166662
        value: 0.58218616
        inSlope: -1.683819
        outSlope: -1.683819
        tangentMode: 0
      - serializedVersion: 2
        time: 1.2333329
        value: 0.5537756
        inSlope: -1.724426
        outSlope: -1.724426
        tangentMode: 0
      - serializedVersion: 2
        time: 1.2499995
        value: 0.52470535
        inSlope: -1.7629819
        outSlope: -1.7629819
        tangentMode: 0
      - serializedVersion: 2
        time: 1.2666662
        value: 0.4950096
        inSlope: -1.7994385
        outSlope: -1.7994385
        tangentMode: 0
      - serializedVersion: 2
        time: 1.2833328
        value: 0.46472412
        inSlope: -1.8337512
        outSlope: -1.8337512
        tangentMode: 0
      - serializedVersion: 2
        time: 1.2999995
        value: 0.43388462
        inSlope: -1.8658769
        outSlope: -1.8658769
        tangentMode: 0
      - serializedVersion: 2
        time: 1.3166661
        value: 0.4025283
        inSlope: -1.8957791
        outSlope: -1.8957791
        tangentMode: 0
      - serializedVersion: 2
        time: 1.3333328
        value: 0.37069204
        inSlope: -1.9234228
        outSlope: -1.9234228
        tangentMode: 0
      - serializedVersion: 2
        time: 1.3499994
        value: 0.33841425
        inSlope: -1.948776
        outSlope: -1.948776
        tangentMode: 0
      - serializedVersion: 2
        time: 1.3666661
        value: 0.3057329
        inSlope: -1.9718046
        outSlope: -1.9718046
        tangentMode: 0
      - serializedVersion: 2
        time: 1.3833327
        value: 0.2726875
        inSlope: -1.9924836
        outSlope: -1.9924836
        tangentMode: 0
      - serializedVersion: 2
        time: 1.3999994
        value: 0.23931685
        inSlope: -2.0107894
        outSlope: -2.0107894
        tangentMode: 0
      - serializedVersion: 2
        time: 1.416666
        value: 0.20566125
        inSlope: -2.0266984
        outSlope: -2.0266984
        tangentMode: 0
      - serializedVersion: 2
        time: 1.4333327
        value: 0.1717603
        inSlope: -2.0401907
        outSlope: -2.0401907
        tangentMode: 0
      - serializedVersion: 2
        time: 1.4499993
        value: 0.13765496
        inSlope: -2.0512528
        outSlope: -2.0512528
        tangentMode: 0
      - serializedVersion: 2
        time: 1.466666
        value: 0.10338528
        inSlope: -2.0598707
        outSlope: -2.0598707
        tangentMode: 0
      - serializedVersion: 2
        time: 1.4833326
        value: 0.06899267
        inSlope: -2.0660334
        outSlope: -2.0660334
        tangentMode: 0
      - serializedVersion: 2
        time: 1.4999993
        value: 0.034517568
        inSlope: -2.0697374
        outSlope: -2.0697374
        tangentMode: 0
      - serializedVersion: 2
        time: 1.5166667
        value: -0
        inSlope: -2.0709672
        outSlope: -2.0709672
        tangentMode: 0
      m_PreInfinity: 2
      m_PostInfinity: 2
      m_RotationOrder: 4
    attribute: m_LocalRotation.y
    path: 
    classID: 4
    script: {fileID: 0}
  - curve:
      serializedVersion: 2
      m_Curve:
      - serializedVersion: 2
        time: 0
        value: 1.061726e-13
        inSlope: -0.00000067480744
        outSlope: -0.00000067480744
        tangentMode: 0
      - serializedVersion: 2
        time: 0.016666668
        value: -0.0000000112466845
        inSlope: -0.0000006744053
        outSlope: -0.0000006744053
        tangentMode: 0
      - serializedVersion: 2
        time: 0.033333335
        value: -0.000000022480073
        inSlope: -0.00000067319957
        outSlope: -0.00000067319957
        tangentMode: 0
      - serializedVersion: 2
        time: 0.050000004
        value: -0.00000003368667
        inSlope: -0.0000006711915
        outSlope: -0.0000006711915
        tangentMode: 0
      - serializedVersion: 2
        time: 0.06666667
        value: -0.000000044853124
        inSlope: -0.00000066838356
        outSlope: -0.00000066838356
        tangentMode: 0
      - serializedVersion: 2
        time: 0.083333336
        value: -0.000000055966122
        inSlope: -0.00000066477924
        outSlope: -0.00000066477924
        tangentMode: 0
      - serializedVersion: 2
        time: 0.1
        value: -0.00000006701243
        inSlope: -0.0000006603826
        outSlope: -0.0000006603826
        tangentMode: 0
      - serializedVersion: 2
        time: 0.11666667
        value: -0.000000077978875
        inSlope: -0.00000065519635
        outSlope: -0.00000065519635
        tangentMode: 0
      - serializedVersion: 2
        time: 0.13333334
        value: -0.00000008885231
        inSlope: -0.0000006492339
        outSlope: -0.0000006492339
        tangentMode: 0
      - serializedVersion: 2
        time: 0.15
        value: -0.00000009962001
        inSlope: -0.0000006424962
        outSlope: -0.0000006424962
        tangentMode: 0
      - serializedVersion: 2
        time: 0.16666667
        value: -0.00000011026885
        inSlope: -0.00000063499033
        outSlope: -0.00000063499033
        tangentMode: 0
      - serializedVersion: 2
        time: 0.18333334
        value: -0.00000012078635
        inSlope: -0.00000062673394
        outSlope: -0.00000062673394
        tangentMode: 0
      - serializedVersion: 2
        time: 0.2
        value: -0.00000013115998
        inSlope: -0.0000006177263
        outSlope: -0.0000006177263
        tangentMode: 0
      - serializedVersion: 2
        time: 0.21666667
        value: -0.00000014137723
        inSlope: -0.00000060797834
        outSlope: -0.00000060797834
        tangentMode: 0
      - serializedVersion: 2
        time: 0.23333333
        value: -0.00000015142592
        inSlope: -0.0000005975125
        outSlope: -0.0000005975125
        tangentMode: 0
      - serializedVersion: 2
        time: 0.25
        value: -0.00000016129431
        inSlope: -0.00000058633225
        outSlope: -0.00000058633225
        tangentMode: 0
      - serializedVersion: 2
        time: 0.26666668
        value: -0.00000017097034
        inSlope: -0.00000057445027
        outSlope: -0.00000057445027
        tangentMode: 0
      - serializedVersion: 2
        time: 0.28333336
        value: -0.00000018044267
        inSlope: -0.0000005618908
        outSlope: -0.0000005618908
        tangentMode: 0
      - serializedVersion: 2
        time: 0.30000004
        value: -0.00000018970005
        inSlope: -0.000000548658
        outSlope: -0.000000548658
        tangentMode: 0
      - serializedVersion: 2
        time: 0.31666672
        value: -0.00000019873129
        inSlope: -0.0000005347688
        outSlope: -0.0000005347688
        tangentMode: 0
      - serializedVersion: 2
        time: 0.3333334
        value: -0.00000020752569
        inSlope: -0.0000005202447
        outSlope: -0.0000005202447
        tangentMode: 0
      - serializedVersion: 2
        time: 0.35000008
        value: -0.00000021607279
        inSlope: -0.0000005051004
        outSlope: -0.0000005051004
        tangentMode: 0
      - serializedVersion: 2
        time: 0.36666676
        value: -0.00000022436238
        inSlope: -0.0000004893536
        outSlope: -0.0000004893536
        tangentMode: 0
      - serializedVersion: 2
        time: 0.38333344
        value: -0.0000002323846
        inSlope: -0.00000047302282
        outSlope: -0.00000047302282
        tangentMode: 0
      - serializedVersion: 2
        time: 0.40000013
        value: -0.00000024012982
        inSlope: -0.00000045613137
        outSlope: -0.00000045613137
        tangentMode: 0
      - serializedVersion: 2
        time: 0.4166668
        value: -0.00000024758899
        inSlope: -0.0000004386964
        outSlope: -0.0000004386964
        tangentMode: 0
      - serializedVersion: 2
        time: 0.4333335
        value: -0.00000025475305
        inSlope: -0.00000042073702
        outSlope: -0.00000042073702
        tangentMode: 0
      - serializedVersion: 2
        time: 0.45000017
        value: -0.00000026161356
        inSlope: -0.00000040227457
        outSlope: -0.00000040227457
        tangentMode: 0
      - serializedVersion: 2
        time: 0.46666685
        value: -0.0000002681622
        inSlope: -0.00000038333206
        outSlope: -0.00000038333206
        tangentMode: 0
      - serializedVersion: 2
        time: 0.48333353
        value: -0.0000002743913
        inSlope: -0.00000036393715
        outSlope: -0.00000036393715
        tangentMode: 0
      - serializedVersion: 2
        time: 0.5000002
        value: -0.00000028029345
        inSlope: -0.00000034410738
        outSlope: -0.00000034410738
        tangentMode: 0
      - serializedVersion: 2
        time: 0.5166668
        value: -0.00000028586155
        inSlope: -0.0000003238654
        outSlope: -0.0000003238654
        tangentMode: 0
      - serializedVersion: 2
        time: 0.5333335
        value: -0.00000029108895
        inSlope: -0.00000030323804
        outSlope: -0.00000030323804
        tangentMode: 0
      - serializedVersion: 2
        time: 0.55000013
        value: -0.00000029596947
        inSlope: -0.00000028225003
        outSlope: -0.00000028225003
        tangentMode: 0
      - serializedVersion: 2
        time: 0.5666668
        value: -0.00000030049728
        inSlope: -0.00000026092602
        outSlope: -0.00000026092602
        tangentMode: 0
      - serializedVersion: 2
        time: 0.58333343
        value: -0.000000304667
        inSlope: -0.00000023929
        outSlope: -0.00000023929
        tangentMode: 0
      - serializedVersion: 2
        time: 0.6000001
        value: -0.0000003084736
        inSlope: -0.0000002173683
        outSlope: -0.0000002173683
        tangentMode: 0
      - serializedVersion: 2
        time: 0.61666673
        value: -0.0000003119126
        inSlope: -0.00000019518912
        outSlope: -0.00000019518912
        tangentMode: 0
      - serializedVersion: 2
        time: 0.6333334
        value: -0.0000003149799
        inSlope: -0.00000017277716
        outSlope: -0.00000017277716
        tangentMode: 0
      - serializedVersion: 2
        time: 0.65000004
        value: -0.00000031767183
        inSlope: -0.00000015015885
        outSlope: -0.00000015015885
        tangentMode: 0
      - serializedVersion: 2
        time: 0.6666667
        value: -0.0000003199852
        inSlope: -0.00000012736149
        outSlope: -0.00000012736149
        tangentMode: 0
      - serializedVersion: 2
        time: 0.68333334
        value: -0.0000003219172
        inSlope: -0.00000010441322
        outSlope: -0.00000010441322
        tangentMode: 0
      - serializedVersion: 2
        time: 0.7
        value: -0.00000032346563
        inSlope: -0.00000008133959
        outSlope: -0.00000008133959
        tangentMode: 0
      - serializedVersion: 2
        time: 0.71666664
        value: -0.00000032462853
        inSlope: -0.000000058168776
        outSlope: -0.000000058168776
        tangentMode: 0
      - serializedVersion: 2
        time: 0.7333333
        value: -0.00000032540459
        inSlope: -0.000000034928892
        outSlope: -0.000000034928892
        tangentMode: 0
      - serializedVersion: 2
        time: 0.74999994
        value: -0.00000032579283
        inSlope: -0.000000011647228
        outSlope: -0.000000011647228
        tangentMode: 0
      - serializedVersion: 2
        time: 0.7666666
        value: -0.00000032579283
        inSlope: 0.000000011647228
        outSlope: 0.000000011647228
        tangentMode: 0
      - serializedVersion: 2
        time: 0.78333324
        value: -0.00000032540459
        inSlope: 0.00000003492804
        outSlope: 0.00000003492804
        tangentMode: 0
      - serializedVersion: 2
        time: 0.7999999
        value: -0.00000032462856
        inSlope: 0.000000058168776
        outSlope: 0.000000058168776
        tangentMode: 0
      - serializedVersion: 2
        time: 0.81666654
        value: -0.00000032346563
        inSlope: 0.00000008133959
        outSlope: 0.00000008133959
        tangentMode: 0
      - serializedVersion: 2
        time: 0.8333332
        value: -0.00000032191724
        inSlope: 0.00000010441151
        outSlope: 0.00000010441151
        tangentMode: 0
      - serializedVersion: 2
        time: 0.84999985
        value: -0.00000031998525
        inSlope: 0.00000012736064
        outSlope: 0.00000012736064
        tangentMode: 0
      - serializedVersion: 2
        time: 0.8666665
        value: -0.0000003176719
        inSlope: 0.00000015015885
        outSlope: 0.00000015015885
        tangentMode: 0
      - serializedVersion: 2
        time: 0.88333315
        value: -0.00000031497996
        inSlope: 0.00000017277716
        outSlope: 0.00000017277716
        tangentMode: 0
      - serializedVersion: 2
        time: 0.8999998
        value: -0.00000031191266
        inSlope: 0.00000019518912
        outSlope: 0.00000019518912
        tangentMode: 0
      - serializedVersion: 2
        time: 0.91666645
        value: -0.00000030847366
        inSlope: 0.0000002173683
        outSlope: 0.0000002173683
        tangentMode: 0
      - serializedVersion: 2
        time: 0.9333331
        value: -0.00000030466705
        inSlope: 0.00000023929
        outSlope: 0.00000023929
        tangentMode: 0
      - serializedVersion: 2
        time: 0.94999975
        value: -0.00000030049733
        inSlope: 0.00000026092516
        outSlope: 0.00000026092516
        tangentMode: 0
      - serializedVersion: 2
        time: 0.9666664
        value: -0.00000029596956
        inSlope: 0.00000028224918
        outSlope: 0.00000028224918
        tangentMode: 0
      - serializedVersion: 2
        time: 0.98333305
        value: -0.00000029108904
        inSlope: 0.00000030323804
        outSlope: 0.00000030323804
        tangentMode: 0
      - serializedVersion: 2
        time: 0.9999997
        value: -0.00000028586163
        inSlope: 0.0000003238648
        outSlope: 0.0000003238648
        tangentMode: 0
      - serializedVersion: 2
        time: 1.0166664
        value: -0.00000028029353
        inSlope: 0.0000003441059
        outSlope: 0.0000003441059
        tangentMode: 0
      - serializedVersion: 2
        time: 1.0333331
        value: -0.00000027439143
        inSlope: 0.00000036393664
        outSlope: 0.00000036393664
        tangentMode: 0
      - serializedVersion: 2
        time: 1.0499997
        value: -0.00000026816232
        inSlope: 0.00000038333448
        outSlope: 0.00000038333448
        tangentMode: 0
      - serializedVersion: 2
        time: 1.0666664
        value: -0.00000026161362
        inSlope: 0.00000040227445
        outSlope: 0.00000040227445
        tangentMode: 0
      - serializedVersion: 2
        time: 1.083333
        value: -0.0000002547532
        inSlope: 0.00000042073435
        outSlope: 0.00000042073435
        tangentMode: 0
      - serializedVersion: 2
        time: 1.0999997
        value: -0.00000024758916
        inSlope: 0.0000004386946
        outSlope: 0.0000004386946
        tangentMode: 0
      - serializedVersion: 2
        time: 1.1166663
        value: -0.00000024013005
        inSlope: 0.00000045613092
        outSlope: 0.00000045613092
        tangentMode: 0
      - serializedVersion: 2
        time: 1.133333
        value: -0.0000002323848
        inSlope: 0.00000047302453
        outSlope: 0.00000047302453
        tangentMode: 0
      - serializedVersion: 2
        time: 1.1499996
        value: -0.00000022436258
        inSlope: 0.0000004893536
        outSlope: 0.0000004893536
        tangentMode: 0
      - serializedVersion: 2
        time: 1.1666663
        value: -0.00000021607303
        inSlope: 0.00000050510005
        outSlope: 0.00000050510005
        tangentMode: 0
      - serializedVersion: 2
        time: 1.1833329
        value: -0.00000020752593
        inSlope: 0.000000520244
        outSlope: 0.000000520244
        tangentMode: 0
      - serializedVersion: 2
        time: 1.1999996
        value: -0.00000019873158
        inSlope: 0.00000053476845
        outSlope: 0.00000053476845
        tangentMode: 0
      - serializedVersion: 2
        time: 1.2166662
        value: -0.00000018970033
        inSlope: 0.00000054865774
        outSlope: 0.00000054865774
        tangentMode: 0
      - serializedVersion: 2
        time: 1.2333329
        value: -0.00000018044301
        inSlope: 0.00000056188924
        outSlope: 0.00000056188924
        tangentMode: 0
      - serializedVersion: 2
        time: 1.2499995
        value: -0.00000017097071
        inSlope: 0.00000057445266
        outSlope: 0.00000057445266
        tangentMode: 0
      - serializedVersion: 2
        time: 1.2666662
        value: -0.00000016129461
        inSlope: 0.00000058633134
        outSlope: 0.00000058633134
        tangentMode: 0
      - serializedVersion: 2
        time: 1.2833328
        value: -0.00000015142635
        inSlope: 0.00000059751216
        outSlope: 0.00000059751216
        tangentMode: 0
      - serializedVersion: 2
        time: 1.2999995
        value: -0.00000014137755
        inSlope: 0.00000060798016
        outSlope: 0.00000060798016
        tangentMode: 0
      - serializedVersion: 2
        time: 1.3166661
        value: -0.00000013116036
        inSlope: 0.000000617723
        outSlope: 0.000000617723
        tangentMode: 0
      - serializedVersion: 2
        time: 1.3333328
        value: -0.00000012078681
        inSlope: 0.00000062673064
        outSlope: 0.00000062673064
        tangentMode: 0
      - serializedVersion: 2
        time: 1.3499994
        value: -0.00000011026936
        inSlope: 0.000000634992
        outSlope: 0.000000634992
        tangentMode: 0
      - serializedVersion: 2
        time: 1.3666661
        value: -0.00000009962043
        inSlope: 0.00000064249554
        outSlope: 0.00000064249554
        tangentMode: 0
      - serializedVersion: 2
        time: 1.3833327
        value: -0.000000088852865
        inSlope: 0.0000006492336
        outSlope: 0.0000006492336
        tangentMode: 0
      - serializedVersion: 2
        time: 1.3999994
        value: -0.00000007797933
        inSlope: 0.00000065519833
        outSlope: 0.00000065519833
        tangentMode: 0
      - serializedVersion: 2
        time: 1.416666
        value: -0.00000006701294
        inSlope: 0.00000066038217
        outSlope: 0.00000066038217
        tangentMode: 0
      - serializedVersion: 2
        time: 1.4333327
        value: -0.000000055966613
        inSlope: 0.00000066477844
        outSlope: 0.00000066477844
        tangentMode: 0
      - serializedVersion: 2
        time: 1.4499993
        value: -0.00000004485368
        inSlope: 0.000000668383
        outSlope: 0.000000668383
        tangentMode: 0
      - serializedVersion: 2
        time: 1.466666
        value: -0.0000000336872
        inSlope: 0.0000006711912
        outSlope: 0.0000006711912
        tangentMode: 0
      - serializedVersion: 2
        time: 1.4833326
        value: -0.000000022480664
        inSlope: 0.0000006731991
        outSlope: 0.0000006731991
        tangentMode: 0
      - serializedVersion: 2
        time: 1.4999993
        value: -0.000000011247251
        inSlope: 0.0000006744061
        outSlope: 0.0000006744061
        tangentMode: 0
      - serializedVersion: 2
        time: 1.5166667
        value: -0
        inSlope: 0.00000067480676
        outSlope: 0.00000067480676
        tangentMode: 0
      m_PreInfinity: 2
      m_PostInfinity: 2
      m_RotationOrder: 4
    attribute: m_LocalRotation.z
    path: 
    classID: 4
    script: {fileID: 0}
  - curve:
      serializedVersion: 2
      m_Curve:
      - serializedVersion: 2
        time: 0
        value: -1
        inSlope: 0.035752054
        outSlope: 0.035752054
        tangentMode: 0
      - serializedVersion: 2
        time: 0.016666668
        value: -0.99940413
        inSlope: 0.07148086
        outSlope: 0.07148086
        tangentMode: 0
      - serializedVersion: 2
        time: 0.033333335
        value: -0.9976173
        inSlope: 0.14287768
        outSlope: 0.14287768
        tangentMode: 0
      - serializedVersion: 2
        time: 0.050000004
        value: -0.99464154
        inSlope: 0.21410465
        outSlope: 0.21410465
        tangentMode: 0
      - serializedVersion: 2
        time: 0.06666667
        value: -0.9904805
        inSlope: 0.28507593
        outSlope: 0.28507593
        tangentMode: 0
      - serializedVersion: 2
        time: 0.083333336
        value: -0.985139
        inSlope: 0.35570744
        outSlope: 0.35570744
        tangentMode: 0
      - serializedVersion: 2
        time: 0.1
        value: -0.97862357
        inSlope: 0.42591336
        outSlope: 0.42591336
        tangentMode: 0
      - serializedVersion: 2
        time: 0.11666667
        value: -0.9709419
        inSlope: 0.49561316
        outSlope: 0.49561316
        tangentMode: 0
      - serializedVersion: 2
        time: 0.13333334
        value: -0.9621031
        inSlope: 0.56472474
        outSlope: 0.56472474
        tangentMode: 0
      - serializedVersion: 2
        time: 0.15
        value: -0.95211774
        inSlope: 0.63316053
        outSlope: 0.63316053
        tangentMode: 0
      - serializedVersion: 2
        time: 0.16666667
        value: -0.9409978
        inSlope: 0.7008398
        outSlope: 0.7008398
        tangentMode: 0
      - serializedVersion: 2
        time: 0.18333334
        value: -0.9287564
        inSlope: 0.7676912
        outSlope: 0.7676912
        tangentMode: 0
      - serializedVersion: 2
        time: 0.2
        value: -0.9154081
        inSlope: 0.83362526
        outSlope: 0.83362526
        tangentMode: 0
      - serializedVersion: 2
        time: 0.21666667
        value: -0.9009689
        inSlope: 0.8985562
        outSlope: 0.8985562
        tangentMode: 0
      - serializedVersion: 2
        time: 0.23333333
        value: -0.8854562
        inSlope: 0.9624267
        outSlope: 0.9624267
        tangentMode: 0
      - serializedVersion: 2
        time: 0.25
        value: -0.868888
        inSlope: 1.0251471
        outSlope: 1.0251471
        tangentMode: 0
      - serializedVersion: 2
        time: 0.26666668
        value: -0.8512846
        inSlope: 1.0866425
        outSlope: 1.0866425
        tangentMode: 0
      - serializedVersion: 2
        time: 0.28333336
        value: -0.8326666
        inSlope: 1.1468526
        outSlope: 1.1468526
        tangentMode: 0
      - serializedVersion: 2
        time: 0.30000004
        value: -0.8130562
        inSlope: 1.2056894
        outSlope: 1.2056894
        tangentMode: 0
      - serializedVersion: 2
        time: 0.31666672
        value: -0.7924769
        inSlope: 1.2630887
        outSlope: 1.2630887
        tangentMode: 0
      - serializedVersion: 2
        time: 0.3333334
        value: -0.7709532
        inSlope: 1.3189824
        outSlope: 1.3189824
        tangentMode: 0
      - serializedVersion: 2
        time: 0.35000008
        value: -0.7485108
        inSlope: 1.3733041
        outSlope: 1.3733041
        tangentMode: 0
      - serializedVersion: 2
        time: 0.36666676
        value: -0.72517633
        inSlope: 1.4259917
        outSlope: 1.4259917
        tangentMode: 0
      - serializedVersion: 2
        time: 0.38333344
        value: -0.7009777
        inSlope: 1.476975
        outSlope: 1.476975
        tangentMode: 0
      - serializedVersion: 2
        time: 0.40000013
        value: -0.6759438
        inSlope: 1.5262078
        outSlope: 1.5262078
        tangentMode: 0
      - serializedVersion: 2
        time: 0.4166668
        value: -0.65010405
        inSlope: 1.5736185
        outSlope: 1.5736185
        tangentMode: 0
      - serializedVersion: 2
        time: 0.4333335
        value: -0.6234898
        inSlope: 1.6191517
        outSlope: 1.6191517
        tangentMode: 0
      - serializedVersion: 2
        time: 0.45000017
        value: -0.5961323
        inSlope: 1.6627519
        outSlope: 1.6627519
        tangentMode: 0
      - serializedVersion: 2
        time: 0.46666685
        value: -0.5680647
        inSlope: 1.7043672
        outSlope: 1.7043672
        tangentMode: 0
      - serializedVersion: 2
        time: 0.48333353
        value: -0.53932
        inSlope: 1.7439653
        outSlope: 1.7439653
        tangentMode: 0
      - serializedVersion: 2
        time: 0.5000002
        value: -0.5099325
        inSlope: 1.7814802
        outSlope: 1.7814802
        tangentMode: 0
      - serializedVersion: 2
        time: 0.5166668
        value: -0.47993737
        inSlope: 1.8168684
        outSlope: 1.8168684
        tangentMode: 0
      - serializedVersion: 2
        time: 0.5333335
        value: -0.4493703
        inSlope: 1.850093
        outSlope: 1.850093
        tangentMode: 0
      - serializedVersion: 2
        time: 0.55000013
        value: -0.41826767
        inSlope: 1.8811092
        outSlope: 1.8811092
        tangentMode: 0
      - serializedVersion: 2
        time: 0.5666668
        value: -0.38666672
        inSlope: 1.9098866
        outSlope: 1.9098866
        tangentMode: 0
      - serializedVersion: 2
        time: 0.58333343
        value: -0.35460484
        inSlope: 1.9363887
        outSlope: 1.9363887
        tangentMode: 0
      - serializedVersion: 2
        time: 0.6000001
        value: -0.3221205
        inSlope: 1.9605823
        outSlope: 1.9605823
        tangentMode: 0
      - serializedVersion: 2
        time: 0.61666673
        value: -0.28925216
        inSlope: 1.9824431
        outSlope: 1.9824431
        tangentMode: 0
      - serializedVersion: 2
        time: 0.6333334
        value: -0.2560391
        inSlope: 2.0019348
        outSlope: 2.0019348
        tangentMode: 0
      - serializedVersion: 2
        time: 0.65000004
        value: -0.22252107
        inSlope: 2.019044
        outSlope: 2.019044
        tangentMode: 0
      - serializedVersion: 2
        time: 0.6666667
        value: -0.18873772
        inSlope: 2.0337472
        outSlope: 2.0337472
        tangentMode: 0
      - serializedVersion: 2
        time: 0.68333334
        value: -0.15472956
        inSlope: 2.0460267
        outSlope: 2.0460267
        tangentMode: 0
      - serializedVersion: 2
        time: 0.7
        value: -0.12053689
        inSlope: 2.0558677
        outSlope: 2.0558677
        tangentMode: 0
      - serializedVersion: 2
        time: 0.71666664
        value: -0.0862007
        inSlope: 2.0632625
        outSlope: 2.0632625
        tangentMode: 0
      - serializedVersion: 2
        time: 0.7333333
        value: -0.051761538
        inSlope: 2.0681987
        outSlope: 2.0681987
        tangentMode: 0
      - serializedVersion: 2
        time: 0.74999994
        value: -0.01726081
        inSlope: 2.0706592
        outSlope: 2.0706592
        tangentMode: 0
      - serializedVersion: 2
        time: 0.7666666
        value: 0.017260365
        inSlope: 2.0706592
        outSlope: 2.0706592
        tangentMode: 0
      - serializedVersion: 2
        time: 0.78333324
        value: 0.05176109
        inSlope: 2.0681915
        outSlope: 2.0681915
        tangentMode: 0
      - serializedVersion: 2
        time: 0.7999999
        value: 0.086200014
        inSlope: 2.0632591
        outSlope: 2.0632591
        tangentMode: 0
      - serializedVersion: 2
        time: 0.81666654
        value: 0.12053633
        inSlope: 2.0558712
        outSlope: 2.0558712
        tangentMode: 0
      - serializedVersion: 2
        time: 0.8333332
        value: 0.154729
        inSlope: 2.0460267
        outSlope: 2.0460267
        tangentMode: 0
      - serializedVersion: 2
        time: 0.84999985
        value: 0.18873715
        inSlope: 2.0337477
        outSlope: 2.0337477
        tangentMode: 0
      - serializedVersion: 2
        time: 0.8666665
        value: 0.22252052
        inSlope: 2.0190444
        outSlope: 2.0190444
        tangentMode: 0
      - serializedVersion: 2
        time: 0.88333315
        value: 0.25603858
        inSlope: 2.0019352
        outSlope: 2.0019352
        tangentMode: 0
      - serializedVersion: 2
        time: 0.8999998
        value: 0.28925163
        inSlope: 1.9824431
        outSlope: 1.9824431
        tangentMode: 0
      - serializedVersion: 2
        time: 0.91666645
        value: 0.32211995
        inSlope: 1.9605823
        outSlope: 1.9605823
        tangentMode: 0
      - serializedVersion: 2
        time: 0.9333331
        value: 0.3546043
        inSlope: 1.9363887
        outSlope: 1.9363887
        tangentMode: 0
      - serializedVersion: 2
        time: 0.94999975
        value: 0.38666618
        inSlope: 1.9098876
        outSlope: 1.9098876
        tangentMode: 0
      - serializedVersion: 2
        time: 0.9666664
        value: 0.41826716
        inSlope: 1.8811101
        outSlope: 1.8811101
        tangentMode: 0
      - serializedVersion: 2
        time: 0.98333305
        value: 0.4493698
        inSlope: 1.8500903
        outSlope: 1.8500903
        tangentMode: 0
      - serializedVersion: 2
        time: 0.9999997
        value: 0.47993678
        inSlope: 1.8168662
        outSlope: 1.8168662
        tangentMode: 0
      - serializedVersion: 2
        time: 1.0166664
        value: 0.50993204
        inSlope: 1.7814806
        outSlope: 1.7814806
        tangentMode: 0
      - serializedVersion: 2
        time: 1.0333331
        value: 0.5393195
        inSlope: 1.743965
        outSlope: 1.743965
        tangentMode: 0
      - serializedVersion: 2
        time: 1.0499997
        value: 0.56806415
        inSlope: 1.7043755
        outSlope: 1.7043755
        tangentMode: 0
      - serializedVersion: 2
        time: 1.0666664
        value: 0.596132
        inSlope: 1.6627548
        outSlope: 1.6627548
        tangentMode: 0
      - serializedVersion: 2
        time: 1.083333
        value: 0.62348926
        inSlope: 1.6191456
        outSlope: 1.6191456
        tangentMode: 0
      - serializedVersion: 2
        time: 1.0999997
        value: 0.65010345
        inSlope: 1.573616
        outSlope: 1.573616
        tangentMode: 0
      - serializedVersion: 2
        time: 1.1166663
        value: 0.6759431
        inSlope: 1.5262088
        outSlope: 1.5262088
        tangentMode: 0
      - serializedVersion: 2
        time: 1.133333
        value: 0.700977
        inSlope: 1.4769813
        outSlope: 1.4769813
        tangentMode: 0
      - serializedVersion: 2
        time: 1.1499996
        value: 0.72517574
        inSlope: 1.4259942
        outSlope: 1.4259942
        tangentMode: 0
      - serializedVersion: 2
        time: 1.1666663
        value: 0.7485101
        inSlope: 1.3733084
        outSlope: 1.3733084
        tangentMode: 0
      - serializedVersion: 2
        time: 1.1833329
        value: 0.77095264
        inSlope: 1.3189828
        outSlope: 1.3189828
        tangentMode: 0
      - serializedVersion: 2
        time: 1.1999996
        value: 0.7924762
        inSlope: 1.2630874
        outSlope: 1.2630874
        tangentMode: 0
      - serializedVersion: 2
        time: 1.2166662
        value: 0.8130555
        inSlope: 1.2056952
        outSlope: 1.2056952
        tangentMode: 0
      - serializedVersion: 2
        time: 1.2333329
        value: 0.832666
        inSlope: 1.1468529
        outSlope: 1.1468529
        tangentMode: 0
      - serializedVersion: 2
        time: 1.2499995
        value: 0.8512839
        inSlope: 1.0866461
        outSlope: 1.0866461
        tangentMode: 0
      - serializedVersion: 2
        time: 1.2666662
        value: 0.8688875
        inSlope: 1.0251484
        outSlope: 1.0251484
        tangentMode: 0
      - serializedVersion: 2
        time: 1.2833328
        value: 0.8854555
        inSlope: 0.9624294
        outSlope: 0.9624294
        tangentMode: 0
      - serializedVersion: 2
        time: 1.2999995
        value: 0.90096843
        inSlope: 0.8985623
        outSlope: 0.8985623
        tangentMode: 0
      - serializedVersion: 2
        time: 1.3166661
        value: 0.91540754
        inSlope: 0.83362246
        outSlope: 0.83362246
        tangentMode: 0
      - serializedVersion: 2
        time: 1.3333328
        value: 0.9287558
        inSlope: 0.76769185
        outSlope: 0.76769185
        tangentMode: 0
      - serializedVersion: 2
        time: 1.3499994
        value: 0.94099724
        inSlope: 0.70084584
        outSlope: 0.70084584
        tangentMode: 0
      - serializedVersion: 2
        time: 1.3666661
        value: 0.9521173
        inSlope: 0.63316286
        outSlope: 0.63316286
        tangentMode: 0
      - serializedVersion: 2
        time: 1.3833327
        value: 0.96210265
        inSlope: 0.5647271
        outSlope: 0.5647271
        tangentMode: 0
      - serializedVersion: 2
        time: 1.3999994
        value: 0.97094154
        inSlope: 0.49561906
        outSlope: 0.49561906
        tangentMode: 0
      - serializedVersion: 2
        time: 1.416666
        value: 0.9786233
        inSlope: 0.42591733
        outSlope: 0.42591733
        tangentMode: 0
      - serializedVersion: 2
        time: 1.4333327
        value: 0.9851388
        inSlope: 0.35570955
        outSlope: 0.35570955
        tangentMode: 0
      - serializedVersion: 2
        time: 1.4499993
        value: 0.99048024
        inSlope: 0.28507796
        outSlope: 0.28507796
        tangentMode: 0
      - serializedVersion: 2
        time: 1.466666
        value: 0.99464136
        inSlope: 0.21410844
        outSlope: 0.21410844
        tangentMode: 0
      - serializedVersion: 2
        time: 1.4833326
        value: 0.9976172
        inSlope: 0.14288141
        outSlope: 0.14288141
        tangentMode: 0
      - serializedVersion: 2
        time: 1.4999993
        value: 0.9994041
        inSlope: 0.071483746
        outSlope: 0.071483746
        tangentMode: 0
      - serializedVersion: 2
        time: 1.5166667
        value: 1
        inSlope: 0.035754133
        outSlope: 0.035754133
        tangentMode: 0
      m_PreInfinity: 2
      m_PostInfinity: 2
      m_RotationOrder: 4
    attribute: m_LocalRotation.w
    path: 
    classID: 4
    script: {fileID: 0}
  m_EulerEditorCurves:
  - curve:
      serializedVersion: 2
      m_Curve:
      - serializedVersion: 2
        time: 0
        value: 360
        inSlope: 0
        outSlope: 0
        tangentMode: 34
      - serializedVersion: 2
        time: 1.5166667
        value: 360
        inSlope: 0
        outSlope: 0
        tangentMode: 34
      m_PreInfinity: 2
      m_PostInfinity: 2
      m_RotationOrder: 4
    attribute: localEulerAnglesBaked.x
    path: 
    classID: 4
    script: {fileID: 0}
  - curve:
      serializedVersion: 2
      m_Curve:
      - serializedVersion: 2
        time: 0
        value: 360
        inSlope: -237.36264
        outSlope: -237.36264
        tangentMode: 34
      - serializedVersion: 2
        time: 1.5166667
        value: 0
        inSlope: -237.36264
        outSlope: -237.36264
        tangentMode: 34
      m_PreInfinity: 2
      m_PostInfinity: 2
      m_RotationOrder: 4
    attribute: localEulerAnglesBaked.y
    path: 
    classID: 4
    script: {fileID: 0}
  - curve:
      serializedVersion: 2
      m_Curve:
      - serializedVersion: 2
        time: 0
        value: 0
        inSlope: 0
        outSlope: 0
        tangentMode: 34
      - serializedVersion: 2
        time: 1.5166667
        value: 0
        inSlope: 0
        outSlope: 0
        tangentMode: 34
      m_PreInfinity: 2
      m_PostInfinity: 2
      m_RotationOrder: 4
    attribute: localEulerAnglesBaked.z
    path: 
    classID: 4
    script: {fileID: 0}
  m_HasGenericRootTransform: 1
  m_HasMotionFloatCurves: 0
  m_GenerateMotionCurves: 0
  m_Events: []
