%YAML 1.1
%TAG !u! tag:unity3d.com,2011:
--- !u!74 &7400000
AnimationClip:
  m_ObjectHideFlags: 0
  m_PrefabParentObject: {fileID: 0}
  m_PrefabInternal: {fileID: 0}
  m_Name: RatIsoWalk-N
  serializedVersion: 6
  m_Legacy: 0
  m_Compressed: 0
  m_UseHighQualityCurve: 1
  m_RotationCurves: []
  m_CompressedRotationCurves: []
  m_EulerCurves: []
  m_PositionCurves: []
  m_ScaleCurves: []
  m_FloatCurves: []
  m_PPtrCurves:
  - curve:
    - time: 0
      value: {fileID: 21300144, guid: e7d8dacb88632c048854039cad488403, type: 3}
    - time: 0.033333335
      value: {fileID: 21300146, guid: e7d8dacb88632c048854039cad488403, type: 3}
    - time: 0.06666667
      value: {fileID: 21300148, guid: e7d8dacb88632c048854039cad488403, type: 3}
    - time: 0.1
      value: {fileID: 21300150, guid: e7d8dacb88632c048854039cad488403, type: 3}
    - time: 0.13333334
      value: {fileID: 21300152, guid: e7d8dacb88632c048854039cad488403, type: 3}
    - time: 0.16666667
      value: {fileID: 21300154, guid: e7d8dacb88632c048854039cad488403, type: 3}
    - time: 0.2
      value: {fileID: 21300156, guid: e7d8dacb88632c048854039cad488403, type: 3}
    - time: 0.23333333
      value: {fileID: 21300158, guid: e7d8dacb88632c048854039cad488403, type: 3}
    - time: 0.26666668
      value: {fileID: 21300160, guid: e7d8dacb88632c048854039cad488403, type: 3}
    - time: 0.3
      value: {fileID: 21300162, guid: e7d8dacb88632c048854039cad488403, type: 3}
    - time: 0.33333334
      value: {fileID: 21300164, guid: e7d8dacb88632c048854039cad488403, type: 3}
    - time: 0.36666667
      value: {fileID: 21300166, guid: e7d8dacb88632c048854039cad488403, type: 3}
    - time: 0.4
      value: {fileID: 21300168, guid: e7d8dacb88632c048854039cad488403, type: 3}
    - time: 0.43333334
      value: {fileID: 21300170, guid: e7d8dacb88632c048854039cad488403, type: 3}
    - time: 0.46666667
      value: {fileID: 21300172, guid: e7d8dacb88632c048854039cad488403, type: 3}
    - time: 0.5
      value: {fileID: 21300174, guid: e7d8dacb88632c048854039cad488403, type: 3}
    - time: 0.53333336
      value: {fileID: 21300176, guid: e7d8dacb88632c048854039cad488403, type: 3}
    - time: 0.56666666
      value: {fileID: 21300178, guid: e7d8dacb88632c048854039cad488403, type: 3}
    attribute: m_Sprite
    path: 
    classID: 212
    script: {fileID: 0}
  m_SampleRate: 30
  m_WrapMode: 0
  m_Bounds:
    m_Center: {x: 0, y: 0, z: 0}
    m_Extent: {x: 0, y: 0, z: 0}
  m_ClipBindingConstant:
    genericBindings:
    - serializedVersion: 2
      path: 0
      attribute: 0
      script: {fileID: 0}
      typeID: 212
      customType: 23
      isPPtrCurve: 1
    pptrCurveMapping:
    - {fileID: 21300144, guid: e7d8dacb88632c048854039cad488403, type: 3}
    - {fileID: 21300146, guid: e7d8dacb88632c048854039cad488403, type: 3}
    - {fileID: 21300148, guid: e7d8dacb88632c048854039cad488403, type: 3}
    - {fileID: 21300150, guid: e7d8dacb88632c048854039cad488403, type: 3}
    - {fileID: 21300152, guid: e7d8dacb88632c048854039cad488403, type: 3}
    - {fileID: 21300154, guid: e7d8dacb88632c048854039cad488403, type: 3}
    - {fileID: 21300156, guid: e7d8dacb88632c048854039cad488403, type: 3}
    - {fileID: 21300158, guid: e7d8dacb88632c048854039cad488403, type: 3}
    - {fileID: 21300160, guid: e7d8dacb88632c048854039cad488403, type: 3}
    - {fileID: 21300162, guid: e7d8dacb88632c048854039cad488403, type: 3}
    - {fileID: 21300164, guid: e7d8dacb88632c048854039cad488403, type: 3}
    - {fileID: 21300166, guid: e7d8dacb88632c048854039cad488403, type: 3}
    - {fileID: 21300168, guid: e7d8dacb88632c048854039cad488403, type: 3}
    - {fileID: 21300170, guid: e7d8dacb88632c048854039cad488403, type: 3}
    - {fileID: 21300172, guid: e7d8dacb88632c048854039cad488403, type: 3}
    - {fileID: 21300174, guid: e7d8dacb88632c048854039cad488403, type: 3}
    - {fileID: 21300176, guid: e7d8dacb88632c048854039cad488403, type: 3}
    - {fileID: 21300178, guid: e7d8dacb88632c048854039cad488403, type: 3}
  m_AnimationClipSettings:
    serializedVersion: 2
    m_AdditiveReferencePoseClip: {fileID: 0}
    m_AdditiveReferencePoseTime: 0
    m_StartTime: 0
    m_StopTime: 0.6
    m_OrientationOffsetY: 0
    m_Level: 0
    m_CycleOffset: 0
    m_HasAdditiveReferencePose: 0
    m_LoopTime: 1
    m_LoopBlend: 0
    m_LoopBlendOrientation: 0
    m_LoopBlendPositionY: 0
    m_LoopBlendPositionXZ: 0
    m_KeepOriginalOrientation: 0
    m_KeepOriginalPositionY: 1
    m_KeepOriginalPositionXZ: 0
    m_HeightFromFeet: 0
    m_Mirror: 0
  m_EditorCurves: []
  m_EulerEditorCurves: []
  m_HasGenericRootTransform: 0
  m_HasMotionFloatCurves: 0
  m_GenerateMotionCurves: 0
  m_Events: []
