%YAML 1.1
%TAG !u! tag:unity3d.com,2011:
--- !u!74 &7400000
AnimationClip:
  m_ObjectHideFlags: 0
  m_PrefabParentObject: {fileID: 0}
  m_PrefabInternal: {fileID: 0}
  m_Name: RatIsoStand-N
  serializedVersion: 6
  m_Legacy: 0
  m_Compressed: 0
  m_UseHighQualityCurve: 1
  m_RotationCurves: []
  m_CompressedRotationCurves: []
  m_EulerCurves: []
  m_PositionCurves: []
  m_ScaleCurves: []
  m_FloatCurves: []
  m_PPtrCurves:
  - curve:
    - time: 0
      value: {fileID: 21300376, guid: a16c525ac56dfae4db973ce0eeed1b94, type: 3}
    - time: 0.033333335
      value: {fileID: 21300378, guid: a16c525ac56dfae4db973ce0eeed1b94, type: 3}
    - time: 0.06666667
      value: {fileID: 21300380, guid: a16c525ac56dfae4db973ce0eeed1b94, type: 3}
    - time: 0.1
      value: {fileID: 21300382, guid: a16c525ac56dfae4db973ce0eeed1b94, type: 3}
    - time: 0.13333334
      value: {fileID: 21300384, guid: a16c525ac56dfae4db973ce0eeed1b94, type: 3}
    - time: 0.16666667
      value: {fileID: 21300386, guid: a16c525ac56dfae4db973ce0eeed1b94, type: 3}
    - time: 0.2
      value: {fileID: 21300388, guid: a16c525ac56dfae4db973ce0eeed1b94, type: 3}
    - time: 0.23333333
      value: {fileID: 21300390, guid: a16c525ac56dfae4db973ce0eeed1b94, type: 3}
    - time: 0.26666668
      value: {fileID: 21300392, guid: a16c525ac56dfae4db973ce0eeed1b94, type: 3}
    - time: 0.3
      value: {fileID: 21300394, guid: a16c525ac56dfae4db973ce0eeed1b94, type: 3}
    - time: 0.33333334
      value: {fileID: 21300396, guid: a16c525ac56dfae4db973ce0eeed1b94, type: 3}
    - time: 0.36666667
      value: {fileID: 21300398, guid: a16c525ac56dfae4db973ce0eeed1b94, type: 3}
    - time: 0.4
      value: {fileID: 21300400, guid: a16c525ac56dfae4db973ce0eeed1b94, type: 3}
    - time: 0.43333334
      value: {fileID: 21300402, guid: a16c525ac56dfae4db973ce0eeed1b94, type: 3}
    - time: 0.46666667
      value: {fileID: 21300404, guid: a16c525ac56dfae4db973ce0eeed1b94, type: 3}
    - time: 0.5
      value: {fileID: 21300406, guid: a16c525ac56dfae4db973ce0eeed1b94, type: 3}
    - time: 0.53333336
      value: {fileID: 21300408, guid: a16c525ac56dfae4db973ce0eeed1b94, type: 3}
    - time: 0.56666666
      value: {fileID: 21300410, guid: a16c525ac56dfae4db973ce0eeed1b94, type: 3}
    - time: 0.6
      value: {fileID: 21300412, guid: a16c525ac56dfae4db973ce0eeed1b94, type: 3}
    - time: 0.6333333
      value: {fileID: 21300414, guid: a16c525ac56dfae4db973ce0eeed1b94, type: 3}
    - time: 0.6666667
      value: {fileID: 21300416, guid: a16c525ac56dfae4db973ce0eeed1b94, type: 3}
    - time: 0.7
      value: {fileID: 21300418, guid: a16c525ac56dfae4db973ce0eeed1b94, type: 3}
    - time: 0.73333335
      value: {fileID: 21300420, guid: a16c525ac56dfae4db973ce0eeed1b94, type: 3}
    - time: 0.76666665
      value: {fileID: 21300422, guid: a16c525ac56dfae4db973ce0eeed1b94, type: 3}
    - time: 0.8
      value: {fileID: 21300424, guid: a16c525ac56dfae4db973ce0eeed1b94, type: 3}
    - time: 0.8333333
      value: {fileID: 21300426, guid: a16c525ac56dfae4db973ce0eeed1b94, type: 3}
    - time: 0.8666667
      value: {fileID: 21300428, guid: a16c525ac56dfae4db973ce0eeed1b94, type: 3}
    - time: 0.9
      value: {fileID: 21300430, guid: a16c525ac56dfae4db973ce0eeed1b94, type: 3}
    - time: 0.93333334
      value: {fileID: 21300432, guid: a16c525ac56dfae4db973ce0eeed1b94, type: 3}
    - time: 0.96666664
      value: {fileID: 21300434, guid: a16c525ac56dfae4db973ce0eeed1b94, type: 3}
    - time: 1
      value: {fileID: 21300436, guid: a16c525ac56dfae4db973ce0eeed1b94, type: 3}
    - time: 1.0333333
      value: {fileID: 21300438, guid: a16c525ac56dfae4db973ce0eeed1b94, type: 3}
    - time: 1.0666667
      value: {fileID: 21300440, guid: a16c525ac56dfae4db973ce0eeed1b94, type: 3}
    - time: 1.1
      value: {fileID: 21300442, guid: a16c525ac56dfae4db973ce0eeed1b94, type: 3}
    - time: 1.1333333
      value: {fileID: 21300444, guid: a16c525ac56dfae4db973ce0eeed1b94, type: 3}
    - time: 1.1666666
      value: {fileID: 21300446, guid: a16c525ac56dfae4db973ce0eeed1b94, type: 3}
    - time: 1.2
      value: {fileID: 21300448, guid: a16c525ac56dfae4db973ce0eeed1b94, type: 3}
    - time: 1.2333333
      value: {fileID: 21300450, guid: a16c525ac56dfae4db973ce0eeed1b94, type: 3}
    - time: 1.2666667
      value: {fileID: 21300452, guid: a16c525ac56dfae4db973ce0eeed1b94, type: 3}
    - time: 1.3
      value: {fileID: 21300454, guid: a16c525ac56dfae4db973ce0eeed1b94, type: 3}
    - time: 1.3333334
      value: {fileID: 21300456, guid: a16c525ac56dfae4db973ce0eeed1b94, type: 3}
    - time: 1.3666667
      value: {fileID: 21300458, guid: a16c525ac56dfae4db973ce0eeed1b94, type: 3}
    - time: 1.4
      value: {fileID: 21300460, guid: a16c525ac56dfae4db973ce0eeed1b94, type: 3}
    - time: 1.4333333
      value: {fileID: 21300462, guid: a16c525ac56dfae4db973ce0eeed1b94, type: 3}
    - time: 1.4666667
      value: {fileID: 21300464, guid: a16c525ac56dfae4db973ce0eeed1b94, type: 3}
    - time: 1.5
      value: {fileID: 21300466, guid: a16c525ac56dfae4db973ce0eeed1b94, type: 3}
    - time: 1.5333333
      value: {fileID: 21300468, guid: a16c525ac56dfae4db973ce0eeed1b94, type: 3}
    attribute: m_Sprite
    path: 
    classID: 212
    script: {fileID: 0}
  m_SampleRate: 30
  m_WrapMode: 0
  m_Bounds:
    m_Center: {x: 0, y: 0, z: 0}
    m_Extent: {x: 0, y: 0, z: 0}
  m_ClipBindingConstant:
    genericBindings:
    - serializedVersion: 2
      path: 0
      attribute: 0
      script: {fileID: 0}
      typeID: 212
      customType: 23
      isPPtrCurve: 1
    pptrCurveMapping:
    - {fileID: 21300376, guid: a16c525ac56dfae4db973ce0eeed1b94, type: 3}
    - {fileID: 21300378, guid: a16c525ac56dfae4db973ce0eeed1b94, type: 3}
    - {fileID: 21300380, guid: a16c525ac56dfae4db973ce0eeed1b94, type: 3}
    - {fileID: 21300382, guid: a16c525ac56dfae4db973ce0eeed1b94, type: 3}
    - {fileID: 21300384, guid: a16c525ac56dfae4db973ce0eeed1b94, type: 3}
    - {fileID: 21300386, guid: a16c525ac56dfae4db973ce0eeed1b94, type: 3}
    - {fileID: 21300388, guid: a16c525ac56dfae4db973ce0eeed1b94, type: 3}
    - {fileID: 21300390, guid: a16c525ac56dfae4db973ce0eeed1b94, type: 3}
    - {fileID: 21300392, guid: a16c525ac56dfae4db973ce0eeed1b94, type: 3}
    - {fileID: 21300394, guid: a16c525ac56dfae4db973ce0eeed1b94, type: 3}
    - {fileID: 21300396, guid: a16c525ac56dfae4db973ce0eeed1b94, type: 3}
    - {fileID: 21300398, guid: a16c525ac56dfae4db973ce0eeed1b94, type: 3}
    - {fileID: 21300400, guid: a16c525ac56dfae4db973ce0eeed1b94, type: 3}
    - {fileID: 21300402, guid: a16c525ac56dfae4db973ce0eeed1b94, type: 3}
    - {fileID: 21300404, guid: a16c525ac56dfae4db973ce0eeed1b94, type: 3}
    - {fileID: 21300406, guid: a16c525ac56dfae4db973ce0eeed1b94, type: 3}
    - {fileID: 21300408, guid: a16c525ac56dfae4db973ce0eeed1b94, type: 3}
    - {fileID: 21300410, guid: a16c525ac56dfae4db973ce0eeed1b94, type: 3}
    - {fileID: 21300412, guid: a16c525ac56dfae4db973ce0eeed1b94, type: 3}
    - {fileID: 21300414, guid: a16c525ac56dfae4db973ce0eeed1b94, type: 3}
    - {fileID: 21300416, guid: a16c525ac56dfae4db973ce0eeed1b94, type: 3}
    - {fileID: 21300418, guid: a16c525ac56dfae4db973ce0eeed1b94, type: 3}
    - {fileID: 21300420, guid: a16c525ac56dfae4db973ce0eeed1b94, type: 3}
    - {fileID: 21300422, guid: a16c525ac56dfae4db973ce0eeed1b94, type: 3}
    - {fileID: 21300424, guid: a16c525ac56dfae4db973ce0eeed1b94, type: 3}
    - {fileID: 21300426, guid: a16c525ac56dfae4db973ce0eeed1b94, type: 3}
    - {fileID: 21300428, guid: a16c525ac56dfae4db973ce0eeed1b94, type: 3}
    - {fileID: 21300430, guid: a16c525ac56dfae4db973ce0eeed1b94, type: 3}
    - {fileID: 21300432, guid: a16c525ac56dfae4db973ce0eeed1b94, type: 3}
    - {fileID: 21300434, guid: a16c525ac56dfae4db973ce0eeed1b94, type: 3}
    - {fileID: 21300436, guid: a16c525ac56dfae4db973ce0eeed1b94, type: 3}
    - {fileID: 21300438, guid: a16c525ac56dfae4db973ce0eeed1b94, type: 3}
    - {fileID: 21300440, guid: a16c525ac56dfae4db973ce0eeed1b94, type: 3}
    - {fileID: 21300442, guid: a16c525ac56dfae4db973ce0eeed1b94, type: 3}
    - {fileID: 21300444, guid: a16c525ac56dfae4db973ce0eeed1b94, type: 3}
    - {fileID: 21300446, guid: a16c525ac56dfae4db973ce0eeed1b94, type: 3}
    - {fileID: 21300448, guid: a16c525ac56dfae4db973ce0eeed1b94, type: 3}
    - {fileID: 21300450, guid: a16c525ac56dfae4db973ce0eeed1b94, type: 3}
    - {fileID: 21300452, guid: a16c525ac56dfae4db973ce0eeed1b94, type: 3}
    - {fileID: 21300454, guid: a16c525ac56dfae4db973ce0eeed1b94, type: 3}
    - {fileID: 21300456, guid: a16c525ac56dfae4db973ce0eeed1b94, type: 3}
    - {fileID: 21300458, guid: a16c525ac56dfae4db973ce0eeed1b94, type: 3}
    - {fileID: 21300460, guid: a16c525ac56dfae4db973ce0eeed1b94, type: 3}
    - {fileID: 21300462, guid: a16c525ac56dfae4db973ce0eeed1b94, type: 3}
    - {fileID: 21300464, guid: a16c525ac56dfae4db973ce0eeed1b94, type: 3}
    - {fileID: 21300466, guid: a16c525ac56dfae4db973ce0eeed1b94, type: 3}
    - {fileID: 21300468, guid: a16c525ac56dfae4db973ce0eeed1b94, type: 3}
  m_AnimationClipSettings:
    serializedVersion: 2
    m_AdditiveReferencePoseClip: {fileID: 0}
    m_AdditiveReferencePoseTime: 0
    m_StartTime: 0
    m_StopTime: 1.5666667
    m_OrientationOffsetY: 0
    m_Level: 0
    m_CycleOffset: 0
    m_HasAdditiveReferencePose: 0
    m_LoopTime: 1
    m_LoopBlend: 0
    m_LoopBlendOrientation: 0
    m_LoopBlendPositionY: 0
    m_LoopBlendPositionXZ: 0
    m_KeepOriginalOrientation: 0
    m_KeepOriginalPositionY: 1
    m_KeepOriginalPositionXZ: 0
    m_HeightFromFeet: 0
    m_Mirror: 0
  m_EditorCurves: []
  m_EulerEditorCurves: []
  m_HasGenericRootTransform: 0
  m_HasMotionFloatCurves: 0
  m_GenerateMotionCurves: 0
  m_Events: []
